<?xml version="1.0" encoding="utf-8"?>
<!-- Generator: Adobe Illustrator 24.1.0, SVG Export Plug-In . SVG Version: 6.00 Build 0)  -->
<svg version="1.1" id="Laag_1" xmlns="http://www.w3.org/2000/svg" xmlns:xlink="http://www.w3.org/1999/xlink" x="0px" y="0px"
	 viewBox="0 0 385 221.5" enable-background="new 0 0 385 221.5" xml:space="preserve">
<g>
	<linearGradient id="SVGID_1_" gradientUnits="userSpaceOnUse" x1="91.0626" y1="6.5303" x2="294.3593" y2="209.8271">
		<stop  offset="0" style="stop-color:#B7212B"/>
		<stop  offset="7.399303e-02" style="stop-color:#C62D35"/>
		<stop  offset="0.1787" style="stop-color:#D63941"/>
		<stop  offset="0.3091" style="stop-color:#E14349"/>
		<stop  offset="0.4921" style="stop-color:#E8494F"/>
		<stop  offset="1" style="stop-color:#E94A50"/>
	</linearGradient>
	<path fill="url(#SVGID_1_)" d="M29.5,127.7c3.8,0,6.8-0.9,9-2.7c2.2-1.8,3.6-3.9,4.3-6.3l14.3,1c-0.7,2.9-1.8,5.6-3.4,8.2
		c-1.6,2.6-3.6,4.9-5.9,6.8c-2.3,1.9-5.1,3.5-8.1,4.7c-3.1,1.2-6.5,1.8-10.1,1.8c-4.1,0-7.9-0.8-11.5-2.3c-3.6-1.6-6.7-3.7-9.4-6.5
		c-2.7-2.8-4.8-6-6.3-9.7c-1.6-3.7-2.3-7.7-2.3-12c0-4.3,0.8-8.2,2.3-12c1.6-3.7,3.7-7,6.3-9.7c2.7-2.8,5.8-4.9,9.4-6.5
		c3.6-1.6,7.4-2.3,11.5-2.3c3.6,0,6.8,0.6,9.9,1.8c3,1.2,5.7,2.7,8,4.7c2.3,1.9,4.3,4.2,5.9,6.8c1.6,2.6,2.7,5.3,3.4,8.2l-14.3,1
		c-0.4-1.2-0.9-2.3-1.6-3.4c-0.7-1.1-1.6-2-2.7-2.9c-1.1-0.8-2.3-1.5-3.8-2c-1.4-0.5-3-0.8-4.8-0.8c-2.2,0-4.2,0.4-6.1,1.3
		c-1.9,0.9-3.6,2-5,3.6c-1.4,1.5-2.6,3.3-3.4,5.4c-0.8,2.1-1.2,4.4-1.2,6.9c0,2.5,0.4,4.8,1.2,6.9c0.8,2.1,2,3.9,3.4,5.4
		c1.4,1.5,3.1,2.7,5,3.6C25.3,127.3,27.4,127.7,29.5,127.7z M122.9,98.6c-1.6-3.7-3.7-7-6.3-9.7c-2.7-2.8-5.8-4.9-9.4-6.5
		c-3.6-1.6-7.4-2.3-11.5-2.3c-4.1,0-7.9,0.8-11.5,2.3c-3.6,1.6-6.7,3.7-9.4,6.5c-2.7,2.8-4.8,6-6.3,9.7c-1.6,3.7-2.3,7.7-2.3,12
		c0,4.3,0.8,8.3,2.3,12c1.6,3.7,3.7,6.9,6.3,9.7c2.7,2.8,5.8,4.9,9.4,6.5c3.6,1.6,7.4,2.3,11.5,2.3c4.1,0,7.9-0.8,11.5-2.3
		c3.6-1.6,6.7-3.7,9.4-6.5c2.7-2.8,4.8-6,6.3-9.7c1.6-3.7,2.3-7.7,2.3-12C125.2,106.3,124.4,102.4,122.9,98.6z M110.2,117.5
		c-0.8,2.1-2,3.9-3.4,5.4c-1.4,1.5-3.1,2.7-5,3.6s-3.9,1.3-6.1,1.3c-2.2,0-4.2-0.4-6.1-1.3c-1.9-0.9-3.6-2-5-3.6
		c-1.4-1.5-2.6-3.3-3.4-5.4c-0.8-2.1-1.2-4.4-1.2-6.9c0-2.5,0.4-4.8,1.2-6.9c0.8-2.1,2-3.9,3.4-5.4c1.4-1.5,3.1-2.7,5-3.6
		c1.9-0.9,3.9-1.3,6.1-1.3c2.2,0,4.2,0.4,6.1,1.3s3.6,2,5,3.6c1.4,1.5,2.6,3.3,3.4,5.4c0.8,2.1,1.2,4.4,1.2,6.9
		C111.4,113.1,111,115.4,110.2,117.5z M180.6,80.6l-20.5,60h-14.3l-20.5-60h14.3L153,122l13.3-41.4H180.6z M202.8,140.6H189v-60
		h13.8V140.6z M259.3,98.9c-1.6-3.6-3.7-6.8-6.4-9.5c-2.7-2.7-5.9-4.9-9.5-6.4c-3.6-1.6-7.5-2.3-11.7-2.3h-20.5v60h20.5
		c4.2,0,8.1-0.8,11.7-2.3c3.6-1.6,6.8-3.7,9.5-6.4c2.7-2.7,4.9-5.9,6.4-9.5c1.6-3.6,2.3-7.5,2.3-11.7
		C261.6,106.4,260.8,102.5,259.3,98.9z M246.6,117.3c-0.8,2-2,3.8-3.4,5.2c-1.5,1.5-3.2,2.6-5.1,3.5c-2,0.9-4.1,1.3-6.4,1.3H225
		V93.9h6.7c2.3,0,4.4,0.4,6.4,1.3c2,0.9,3.7,2,5.1,3.5c1.5,1.5,2.6,3.2,3.4,5.3c0.8,2.1,1.2,4.3,1.2,6.6
		C247.8,113,247.4,115.2,246.6,117.3z M269.3,103.5h29v11.4h-29V103.5z M332.6,80.6v60h-13.8V97.7l-6.2,4.3L306,91.6l15.7-11H332.6z
		 M383.4,92.8c-1.1-2.5-2.6-4.7-4.6-6.6c-2-1.9-4.3-3.3-7.1-4.4c-2.8-1.1-5.8-1.6-9.1-1.6c-3.4,0-6.4,0.5-9.1,1.6
		c-2.7,1.1-5.1,2.6-7,4.4c-2,1.9-3.5,4.1-4.6,6.6c-1.1,2.5-1.6,5.3-1.6,8.3c0,3.1,0.6,6,1.8,8.6c1.2,2.6,2.8,4.8,4.9,6.7
		c2,1.8,4.4,3.2,7,4.2c2.6,1,5.4,1.3,8.2,1l-12.9,19h14.3l15.7-23.3c1.1-1.5,2-3.1,2.9-4.9c0.7-1.5,1.3-3.2,2-5.1
		c0.6-2,0.9-4,0.9-6.2C385,98.1,384.5,95.3,383.4,92.8z M368.7,107.6c-1.7,1.7-3.7,2.5-6.1,2.5c-2.4,0-4.4-0.8-6.1-2.5
		c-1.7-1.7-2.5-3.9-2.5-6.5c0-2.7,0.8-4.8,2.5-6.5c1.6-1.7,3.7-2.5,6.1-2.5c2.4,0,4.4,0.8,6.1,2.5c1.7,1.7,2.5,3.9,2.5,6.5
		C371.2,103.7,370.4,105.9,368.7,107.6z"/>
	<g>
		<path fill="#384E71" d="M215.8,154.7c3.4,0,6.6,0.6,9.4,1.7c2.8,1.1,5.3,2.6,7.3,4.5c2,1.9,3.6,4.1,4.7,6.7
			c1.1,2.6,1.7,5.3,1.7,8.2c0,3.7-0.6,6.8-1.9,9.4c-1.3,2.5-2.7,4.6-4.3,6.2c-1.6,1.6-3.7,3.1-6.4,4.5l14.7,25.2h-16.8l-12.1-22.1
			h-7.9v22.1H189v-66.3H215.8z M215.8,184.1c2.7,0,4.7-0.7,6.2-2.1c1.5-1.4,2.2-3.2,2.2-5.3c0-2.1-0.7-3.9-2.2-5.3
			c-1.5-1.4-3.5-2.1-6.2-2.1h-11.6v14.7H215.8z"/>
		<path fill="#384E71" d="M264.7,220.9h-15.3v-66.3h15.3V220.9z"/>
		<path fill="#384E71" d="M273.6,173.1c0-2.5,0.5-4.9,1.6-7.2c1.1-2.3,2.6-4.3,4.7-6c2-1.7,4.5-3.1,7.4-4.2c2.9-1.1,6.2-1.6,9.9-1.6
			c3.6,0,6.8,0.5,9.6,1.6c2.8,1.1,5.3,2.5,7.3,4.4c2,1.9,3.5,4.1,4.6,6.7c1.1,2.6,1.6,5.3,1.6,8.4l-14.7,1.1c0-2.7-0.7-4.7-2.2-6.2
			c-1.5-1.5-3.5-2.2-6.2-2.2c-2.4,0-4.3,0.6-5.7,1.9c-1.4,1.3-2.2,2.8-2.2,4.4s0.8,2.8,2.4,3.7c1.6,0.8,3.6,1.6,6,2.4
			c2.4,0.7,5,1.5,7.8,2.4c2.8,0.8,5.4,2,7.8,3.6c2.4,1.5,4.4,3.6,6,6.1c1.6,2.5,2.4,5.8,2.4,9.8c0,2.7-0.5,5.2-1.6,7.5
			c-1.1,2.3-2.7,4.4-4.8,6.2c-2.1,1.8-4.7,3.2-7.8,4.2c-3.1,1.1-6.6,1.6-10.5,1.6c-3.8,0-7.2-0.5-10.2-1.6c-3-1.1-5.6-2.5-7.6-4.5
			c-2.1-1.9-3.6-4.2-4.7-6.8c-1.1-2.6-1.6-5.5-1.6-8.7l14.7-1.1c0,6,3.2,8.9,9.5,8.9c2.9,0,5.2-0.7,6.7-2.1c1.5-1.4,2.3-3,2.3-4.8
			c0-1.7-0.8-3-2.4-3.9c-1.6-0.9-3.6-1.8-6-2.5c-2.4-0.8-5-1.6-7.8-2.4c-2.8-0.8-5.4-2-7.8-3.5c-2.4-1.5-4.4-3.5-6-5.9
			C274.4,180.2,273.6,177,273.6,173.1z"/>
		<path fill="#384E71" d="M367.2,220.9l-21.6-29.5v29.5h-15.3v-66.3h15.3v28.4l20-28.4h17.4l-23.4,32.6l24.9,33.7H367.2z"/>
	</g>
	<path fill="#384E71" d="M24.2,41.9L2.2,0.5h16.2l13.4,26.2L45.2,0.5h16.2l-22,41.4v24.6H24.2V41.9z"/>
	<path fill="#384E71" d="M121.6,33.5c0,4.8-0.9,9.2-2.6,13.2c-1.7,4.1-4,7.6-7,10.6c-2.9,3-6.4,5.4-10.3,7.1
		c-3.9,1.7-8.2,2.6-12.6,2.6c-4.5,0-8.7-0.9-12.6-2.6c-3.9-1.7-7.4-4.1-10.3-7.1c-2.9-3-5.3-6.6-7-10.6c-1.7-4.1-2.6-8.5-2.6-13.2
		c0-4.7,0.9-9.1,2.6-13.2c1.7-4.1,4-7.7,7-10.7c2.9-3,6.4-5.4,10.3-7.1C80.4,0.9,84.6,0,89.1,0c4.5,0,8.7,0.9,12.6,2.6
		c3.9,1.7,7.4,4.1,10.3,7.1c2.9,3,5.3,6.6,7,10.7C120.7,24.5,121.6,28.9,121.6,33.5z M106.4,33.5c0-2.7-0.5-5.2-1.4-7.5
		c-0.9-2.3-2.1-4.3-3.7-6c-1.6-1.7-3.4-3-5.5-3.9c-2.1-0.9-4.3-1.4-6.7-1.4c-2.4,0-4.6,0.5-6.7,1.4c-2.1,0.9-3.9,2.3-5.5,3.9
		c-1.6,1.7-2.8,3.7-3.7,6c-0.9,2.3-1.4,4.8-1.4,7.5c0,2.7,0.5,5.2,1.4,7.5c0.9,2.3,2.1,4.3,3.7,6s3.4,3,5.5,3.9
		c2.1,0.9,4.3,1.4,6.7,1.4c2.4,0,4.6-0.5,6.7-1.4s3.9-2.3,5.5-3.9s2.8-3.7,3.7-6C105.9,38.8,106.4,36.3,106.4,33.5z"/>
	<path fill="#384E71" d="M142.6,0.5v39.3c0,4,1.1,7.1,3.2,9.3c2.2,2.2,5.1,3.3,8.8,3.3c3.7,0,6.6-1.1,8.8-3.3
		c2.2-2.2,3.2-5.3,3.2-9.3V0.5h15.2v39.3c0,4.1-0.7,7.8-2,11.1c-1.3,3.4-3.2,6.2-5.6,8.6c-2.4,2.4-5.2,4.2-8.6,5.6
		c-3.4,1.3-7.1,2-11.1,2c-4.1,0-7.8-0.7-11.1-2c-3.4-1.3-6.2-3.2-8.6-5.6c-2.4-2.4-4.2-5.2-5.6-8.6c-1.3-3.4-2-7.1-2-11.1V0.5H142.6
		z"/>
	<path fill="#384E71" d="M215.7,0.4c3.4,0,6.5,0.6,9.4,1.7c2.8,1.1,5.3,2.6,7.3,4.5c2,1.9,3.6,4.1,4.7,6.7c1.1,2.6,1.7,5.3,1.7,8.1
		c0,3.7-0.6,6.8-1.9,9.3c-1.3,2.5-2.7,4.6-4.3,6.1c-1.6,1.6-3.7,3.1-6.3,4.5l14.7,25.2h-16.8l-12.1-22h-7.9v22H189v-66H215.7z
		 M215.7,29.7c2.7,0,4.7-0.7,6.2-2.1c1.5-1.4,2.2-3.1,2.2-5.2s-0.7-3.8-2.2-5.2c-1.5-1.4-3.5-2.1-6.2-2.1h-11.5v14.7H215.7z"/>
	<path fill="#384E71" d="M256.7,39.5V25.7h126.2v13.8H256.7z"/>
	<g>
		<path fill="#384E71" d="M158.4,194.7h14.7v-13.8H139C145.9,184.8,152.4,189.4,158.4,194.7z"/>
		<path fill="#384E71" d="M43.8,191.5c-13.2-1.5-27.4-0.4-41.6,3.1v0.1h57.3c-1.9-0.6-3.8-1.1-5.6-1.5
			C50.7,192.4,47.2,191.9,43.8,191.5z"/>
		<path fill="#384E71" d="M71.7,185.6c-5-2-10.2-3.5-15.5-4.7H12.3c-3.4,0.7-6.7,1.4-10.1,2.4v4.4c14.4-3.4,28.6-4.3,42.3-2.8
			c3.7,0.4,7.3,1,10.9,1.8c3.9,1,7.8,2.1,11.6,3.4l0.2,0.1c3.6,1.5,6.8,2.9,9.8,4.2c0.2,0.1,0.4,0.2,0.7,0.3h14.6
			c-3.9-1.6-7.7-3.2-11.4-4.9C77.4,188.3,74.4,186.9,71.7,185.6z"/>
		<path fill="#384E71" d="M68.6,180.9c1.5,0.5,3,1,4.4,1.6l0.1,0.1c2.7,1.3,5.6,2.7,9,4.2c4.6,2,9.3,4,14.3,6.1
			c1.4,0.6,2.9,1.2,4.3,1.8h29c-9.7-5.7-20.4-10.4-31.9-13.8H68.6z"/>
		<path fill="#384E71" d="M108.3,180.9c10,3.7,19.3,8.3,27.8,13.8h15.5c-6.4-5.1-13.7-9.7-22-13.8H108.3z"/>
	</g>
</g>
</svg>
