"code","geoRiskEstimate"
"ac00",0
"af00",0.583596566259381
"ax00",0
"al00",0.837501900949913
"dz00",0.0487185151591006
"ad00",0.031291568893552
"aq00",0
"ao00",0.00565477338715639
"ag00",0.0830858068670419
"ar00",1.18591478329527
"am00",4
"aw00",0
"au00",0.00830371109536298
"auns",0.00830371109536298
"auvi",0.00830371109536298
"auqu",0.00830371109536298
"auwa",0.00830371109536298
"ausa",0.00830371109536298
"auta",0.00830371109536298
"auac",0.00830371109536298
"aunt",0.00830371109536298
"auni",0.00830371109536298
"auci",0.00830371109536298
"auaa",0.00830371109536298
"auco",0.00830371109536298
"aujb",0.00830371109536298
"aucs",0.00830371109536298
"auai",0.00830371109536298
"auhm",0.00830371109536298
"at00",0.0974603149043468
"az00",1.85967135360386
"bs00",0.00345745600387235
"bh00",4
"bd00",0.801573334898361
"bb00",0.0872171112995001
"by00",2.04318544385378
"be00",0.14704897567003
"bebr",0.14704897567003
"bevl",0.14704897567003
"bewa",0.14704897567003
"bz00",0.0626515711186699
"bj00",0.126700201404195
"bt00",0.0407866854312611
"bo00",2.13959633499034
"ba00",0.716540645891696
"bw00",0.0330334411037974
"br00",4
"io00",0
"vg00",0
"bn00",0
"bg00",0.969034454104653
"bf00",0.000189365522237119
"bi00",0.0143257112283126
"kh00",0.00036923535911031
"cm00",0.279048184591066
"ca00",0.202111903973909
"cv00",2.78590921512929
"ky00",1.37438838158756
"cf00",0.860665908701734
"td00",0.00125210988090197
"cl00",4
"cn00",0.00105668783688427
"cx00",0
"cc00",0
"co00",1.44259037264132
"km00",0.103595110781547
"cg00",0.147720813887335
"cd00",0.0405837154439665
"ck00",0
"cr00",0.790933269388845
"ci00",0.645654101155147
"hr00",0.00282961524219411
"cu00",0.0281897708596528
"cy00",0.0538642132152311
"cz00",0.146427187489045
"dk00",0.133120088007569
"dj00",0.532812298990426
"dm00",0
"do00",1.46320553510506
"tp00",0
"ec00",1.05955508538793
"ey00",0.904917851917511
"sv00",0.447398354930566
"eg00",0
"er00",0.189979727772951
"ee00",0.21130842984746
"eene",0.21130842984746
"eece",0.21130842984746
"eens",0.21130842984746
"eese",0.21130842984746
"eewe",0.21130842984746
"eeta",0.21130842984746
"eetl",0.21130842984746
"et00",0.0977416027150318
"fk00",0
"fo00",0
"fj00",0
"fi00",0.0376001500886584
"fr00",0.154403944540858
"frbf",0.154403944540858
"frbr",0.154403944540858
"frce",0.154403944540858
"frco",0.154403944540858
"frge",0.154403944540858
"frhf",0.154403944540858
"frif",0.154403944540858
"frno",0.154403944540858
"frna",0.154403944540858
"froc",0.154403944540858
"frpl",0.154403944540858
"frpa",0.154403944540858
"frdo",0.154403944540858
"ga00",1.24672528477975
"gm00",0.0280689197237667
"ge00",0.0446361925512201
"de00",0.0878373978119251
"gh00",0.463352175430312
"gi00",0.0379619194495522
"gr00",0.126440364896663
"gl00",0
"gd00",0
"gp00",0
"gu00",0.0634726794703126
"gt00",0.880317743337805
"gn00",0.103794031221992
"gw00",0.0829860648586773
"gy00",0.0297082648392783
"ht00",0.391562267158127
"hm00",0
"hn00",1.38274604085308
"hk00",0
"hu00",0.0132855604646621
"is00",0.0509087206638497
"in00",0.314407797375988
"inan",0.314407797375988
"inap",0.314407797375988
"inar",0.314407797375988
"inas",0.314407797375988
"inbi",0.314407797375988
"inch",0.314407797375988
"incg",0.314407797375988
"indn",0.314407797375988
"inde",0.314407797375988
"ingo",0.314407797375988
"ingu",0.314407797375988
"inha",0.314407797375988
"indp",0.314407797375988
"injk",0.314407797375988
"injh",0.314407797375988
"inka",0.314407797375988
"inke",0.314407797375988
"inla",0.314407797375988
"inlk",0.314407797375988
"inmp",0.314407797375988
"inma",0.314407797375988
"inmn",0.314407797375988
"inme",0.314407797375988
"inmi",0.314407797375988
"inna",0.314407797375988
"inod",0.314407797375988
"inpu",0.314407797375988
"inpj",0.314407797375988
"inra",0.314407797375988
"insi",0.314407797375988
"intn",0.314407797375988
"inte",0.314407797375988
"intr",0.314407797375988
"inup",0.314407797375988
"inut",0.314407797375988
"inwb",0.314407797375988
"id00",0.136308291826227
"idsu",0.136308291826227
"idja",0.136308291826227
"idka",0.136308291826227
"idsl",0.136308291826227
"idba",0.136308291826227
"idnb",0.136308291826227
"idnt",0.136308291826227
"idpa",0.136308291826227
"idkm",0.136308291826227
"ir00",0.90235926139135
"iq00",3.1874193414096
"ie00",0.0363150297380752
"im00",0
"il00",1.71352524898539
"it00",0.0771072564233379
"jm00",0.00935553642586869
"jp00",0.0108401467329125
"jo00",0.0967956055098319
"kz00",0.318123122020433
"ke00",0.107527759538485
"ki00",0
"kn00",0
"ks00",0.0298297478503189
"ko00",1.81650680106216
"kw00",2.80808577575367
"kg00",0.251584134215018
"la00",0
"lv00",0.00559350349122162
"lb00",0.0541052062914983
"ls00",0.00379482878681221
"lr00",0.208598374557664
"ly00",0.213369125442629
"li00",0
"lt00",0.0527925881022618
"lu00",0.160566314471754
"mo00",0
"mk00",4
"mg00",0.0326898368069771
"mw00",0.0162991853669189
"my00",0.0278281997030008
"mv00",0.355649213472338
"ml00",0.0664315228940191
"mt00",0.0893429570037019
"mh00",0
"mq00",0
"mr00",1.49285022072128
"mu00",0.00210753208256573
"mx00",1.22076019505121
"fm00",0
"md00",3.50846666932907
"mc00",0
"mn00",0.00201879498127568
"me00",0.0257092127357013
"ms00",0
"ma00",0.0732914761102198
"mz00",0.0461421197647368
"nm00",0.000782931606874493
"na00",0.00735217532487425
"nr00",0
"np00",0.846659579716139
"nl00",0.288170525629548
"nc00",0.00352038301767232
"nz00",0.00163749872070412
"ni00",0.140664685139711
"ne00",0.00607530820313608
"ng00",0.0925754949102971
"nu00",0
"nf00",0
"mp00",0.86143243908442
"no00",0.0681494945312664
"om00",4
"pk00",1.50508092301542
"pw00",0
"ps00",0.0262634526328783
"pa00",4
"pg00",0
"py00",0.13141476485542
"pe00",3.99169157053466
"ph00",0.187651835301516
"pn00",0
"pl00",0.345528845144375
"pt00",1.10782587299875
"pr00",2.25133927900399
"qa00",4
"re00",0
"ro00",0.370820136259656
"ru00",1.65657063572853
"rw00",0.135845080579317
"ws00",0
"sm00",0.0906467367174782
"st00",1.42238513433646
"sa00",4
"sn00",0.206030540658361
"rs00",0.375354987920297
"sc00",0
"sl00",0.0781705276241021
"sg00",1.32708690204408
"sk00",0.0122391283341757
"si00",0.131568000340529
"sb00",0
"so00",0.0735003064486331
"za00",3.05382397198915
"ss00",0.157165179780503
"es00",0.0882205118233851
"lk00",0.00757256857293999
"sh00",0
"kt00",0
"lc00",0.043982868672652
"pm00",0
"vc00",0.0181471735777153
"sd00",0.103906119577692
"sr00",2.5278172749227
"sj00",0
"sz00",0.886940057661689
"se00",4
"ch00",0.0678679130722407
"chfr",0.0678679130722407
"chge",0.0678679130722407
"chit",0.0678679130722407
"sy00",0.00530708476387606
"tw00",0.000112136920974701
"tj00",0.126584169282294
"tz00",0
"th00",0.00158965423114534
"tg00",0.0200537105371841
"tk00",0
"to00",0
"tt00",0.0345359022288608
"tn00",0.00626262808927291
"tr00",0.431954802757502
"tm00",0
"tv00",0
"ug00",0.0112893018109074
"ua00",0.441409250060134
"ae00",1.00208376884459
"uk00",0.418775916411161
"uken",0.418775916411161
"ukni",0.418775916411161
"uksc",0.418775916411161
"ukwa",0.418775916411161
"us00",1.88643640939779
"uy00",0.00348555670955961
"uz00",0.21921873031072
"vu00",0
"va00",0
"ve00",0.114697146034608
"vn00",0.000256436034203124
"eh00",0
"ye00",0.0726288753656229
"zm00",0.0363077899916369
"zw00",0.0305976486766621
