{
  "am": ["Amharic", "et", "am"],
  "ar": ["Arabic", "sa", "ar"],
  "zh-Hant": ["Chinese (Traditional)", "cn", "zh-Hant-HK"],
  "zh-Hans": ["Chinese (Simplified)", "cn", "zh-Hans"],
  "nl": ["Dutch", "nl", "nl"],
  "en": ["English", "gb", "en"],
  "et": ["Estonian", "ee", "et"],
  "fi": ["Finnish", "fi", "fi"],
  "fr": ["French", "fr", "fr"],
  "de": ["German", "de", "de"],
  "el": ["Greek", "gr", "el"],
  "gu": ["Gujarati", "in", "gu"],
  "he": ["Hebrew", "il", "he"],
  "hi": ["Hindi", "in", "hi"],
  "hu": ["Hungarian", "hu", "hu"],
  "id": ["Indonesian", "id", "id"],
  "it": ["Italian", "it", "it"],
  "ja": ["Japanese", "jp", "ja"],
  "ko": ["Korean", "kr", "ko"],
  "fa": ["Persian", "ir", "fa"],
  "pl": ["Polish", "pl", "pl"],
  "pt": ["Portuguese", "pt", "pt"],
  "pt-BR": ["Portuguese (Brazil)", "br", "pt-BR"],
  "ro": ["Romanian", "ro", "ro"],
  "ru": ["Russian", "ru", "ru"],
  "es": ["Spanish", "es", "es"],
  "tr": ["Turkish", "tr", "tr"],
  "ur": ["Urdu", "pk", "ur"]
}
