<?xml version='1.0' encoding='UTF-8' ?>
<svg xmlns='http://www.w3.org/2000/svg' xmlns:xlink='http://www.w3.org/1999/xlink' class='svglite' width='510.24pt' height='172.63pt' viewBox='0 0 510.24 172.63'>
<defs>
  <style type='text/css'><![CDATA[
    .svglite line, .svglite polyline, .svglite polygon, .svglite path, .svglite rect, .svglite circle {
      fill: none;
      stroke: #000000;
      stroke-linecap: round;
      stroke-linejoin: round;
      stroke-miterlimit: 10.00;
    }
    .svglite text {
      white-space: pre;
    }
  ]]></style>
</defs>
<rect width='100%' height='100%' style='stroke: none; fill: none;'/>
<defs>
  <clipPath id='cpMC4wMHw1MTAuMjR8MC4wMHwxNzIuNjM='>
    <rect x='0.00' y='0.00' width='510.24' height='172.63' />
  </clipPath>
</defs>
<g clip-path='url(#cpMC4wMHw1MTAuMjR8MC4wMHwxNzIuNjM=)'>
</g>
<defs>
  <clipPath id='cpMjc2LjI5fDQ0Mi4wOHwxOC4wMHwxNzIuNjM='>
    <rect x='276.29' y='18.00' width='165.80' height='154.63' />
  </clipPath>
</defs>
<g clip-path='url(#cpMjc2LjI5fDQ0Mi4wOHwxOC4wMHwxNzIuNjM=)'>
<rect x='276.29' y='18.00' width='165.80' height='154.63' style='stroke-width: 0.78; stroke: #FFFFFF; fill: #FFFFFF;' />
</g>
<g clip-path='url(#cpMC4wMHw1MTAuMjR8MC4wMHwxNzIuNjM=)'>
</g>
<defs>
  <clipPath id='cpMzI4LjI2fDM5Ni40MXwyMS45OXwxNDkuODM='>
    <rect x='328.26' y='21.99' width='68.15' height='127.85' />
  </clipPath>
</defs>
<g clip-path='url(#cpMzI4LjI2fDM5Ni40MXwyMS45OXwxNDkuODM=)'>
<rect x='328.26' y='21.99' width='68.15' height='127.85' style='stroke-width: 0.78; stroke: none; fill: #FFFFFF;' />
<polyline points='329.92,149.83 329.92,21.99 ' style='stroke-width: 0.39; stroke: #EBEBEB; stroke-linecap: butt;' />
<polyline points='335.65,149.83 335.65,21.99 ' style='stroke-width: 0.39; stroke: #EBEBEB; stroke-linecap: butt;' />
<polyline points='341.37,149.83 341.37,21.99 ' style='stroke-width: 0.39; stroke: #EBEBEB; stroke-linecap: butt;' />
<polyline points='347.10,149.83 347.10,21.99 ' style='stroke-width: 0.39; stroke: #EBEBEB; stroke-linecap: butt;' />
<polyline points='352.83,149.83 352.83,21.99 ' style='stroke-width: 0.39; stroke: #EBEBEB; stroke-linecap: butt;' />
<polyline points='358.56,149.83 358.56,21.99 ' style='stroke-width: 0.39; stroke: #EBEBEB; stroke-linecap: butt;' />
<polyline points='364.29,149.83 364.29,21.99 ' style='stroke-width: 0.39; stroke: #EBEBEB; stroke-linecap: butt;' />
<polyline points='370.02,149.83 370.02,21.99 ' style='stroke-width: 0.39; stroke: #EBEBEB; stroke-linecap: butt;' />
<polyline points='375.74,149.83 375.74,21.99 ' style='stroke-width: 0.39; stroke: #EBEBEB; stroke-linecap: butt;' />
<polyline points='381.47,149.83 381.47,21.99 ' style='stroke-width: 0.39; stroke: #EBEBEB; stroke-linecap: butt;' />
<polyline points='387.20,149.83 387.20,21.99 ' style='stroke-width: 0.39; stroke: #EBEBEB; stroke-linecap: butt;' />
<polyline points='392.93,149.83 392.93,21.99 ' style='stroke-width: 0.39; stroke: #EBEBEB; stroke-linecap: butt;' />
<polyline points='395.79,149.83 395.79,21.99 ' style='stroke-width: 0.39; stroke: #EBEBEB; stroke-linecap: butt;' />
<polyline points='328.26,136.84 396.41,136.84 ' style='stroke-width: 0.78; stroke: #EBEBEB; stroke-linecap: butt;' />
<polyline points='328.26,111.46 396.41,111.46 ' style='stroke-width: 0.78; stroke: #EBEBEB; stroke-linecap: butt;' />
<polyline points='328.26,86.09 396.41,86.09 ' style='stroke-width: 0.78; stroke: #EBEBEB; stroke-linecap: butt;' />
<polyline points='328.26,60.71 396.41,60.71 ' style='stroke-width: 0.78; stroke: #EBEBEB; stroke-linecap: butt;' />
<polyline points='328.26,35.34 396.41,35.34 ' style='stroke-width: 0.78; stroke: #EBEBEB; stroke-linecap: butt;' />
<polyline points='332.78,149.83 332.78,21.99 ' style='stroke-width: 0.78; stroke: #EBEBEB; stroke-linecap: butt;' />
<polyline points='338.51,149.83 338.51,21.99 ' style='stroke-width: 0.78; stroke: #EBEBEB; stroke-linecap: butt;' />
<polyline points='344.24,149.83 344.24,21.99 ' style='stroke-width: 0.78; stroke: #EBEBEB; stroke-linecap: butt;' />
<polyline points='349.97,149.83 349.97,21.99 ' style='stroke-width: 0.78; stroke: #EBEBEB; stroke-linecap: butt;' />
<polyline points='355.70,149.83 355.70,21.99 ' style='stroke-width: 0.78; stroke: #EBEBEB; stroke-linecap: butt;' />
<polyline points='361.42,149.83 361.42,21.99 ' style='stroke-width: 0.78; stroke: #EBEBEB; stroke-linecap: butt;' />
<polyline points='367.15,149.83 367.15,21.99 ' style='stroke-width: 0.78; stroke: #EBEBEB; stroke-linecap: butt;' />
<polyline points='372.88,149.83 372.88,21.99 ' style='stroke-width: 0.78; stroke: #EBEBEB; stroke-linecap: butt;' />
<polyline points='378.61,149.83 378.61,21.99 ' style='stroke-width: 0.78; stroke: #EBEBEB; stroke-linecap: butt;' />
<polyline points='384.34,149.83 384.34,21.99 ' style='stroke-width: 0.78; stroke: #EBEBEB; stroke-linecap: butt;' />
<polyline points='390.06,149.83 390.06,21.99 ' style='stroke-width: 0.78; stroke: #EBEBEB; stroke-linecap: butt;' />
<circle cx='369.67' cy='131.78' r='2.13' style='stroke-width: 0.00; stroke: #444444; stroke-opacity: 0.10; fill: #444444; fill-opacity: 0.10;' />
<circle cx='353.23' cy='139.18' r='2.13' style='stroke-width: 0.00; stroke: #444444; stroke-opacity: 0.10; fill: #444444; fill-opacity: 0.10;' />
<circle cx='377.36' cy='129.37' r='2.13' style='stroke-width: 0.00; stroke: #444444; stroke-opacity: 0.10; fill: #444444; fill-opacity: 0.10;' />
<circle cx='362.37' cy='137.73' r='2.13' style='stroke-width: 0.00; stroke: #444444; stroke-opacity: 0.10; fill: #444444; fill-opacity: 0.10;' />
<circle cx='334.21' cy='131.21' r='2.13' style='stroke-width: 0.00; stroke: #444444; stroke-opacity: 0.10; fill: #444444; fill-opacity: 0.10;' />
<circle cx='377.30' cy='130.05' r='2.13' style='stroke-width: 0.00; stroke: #444444; stroke-opacity: 0.10; fill: #444444; fill-opacity: 0.10;' />
<circle cx='369.52' cy='144.02' r='2.13' style='stroke-width: 0.00; stroke: #444444; stroke-opacity: 0.10; fill: #444444; fill-opacity: 0.10;' />
<circle cx='360.01' cy='131.73' r='2.13' style='stroke-width: 0.00; stroke: #444444; stroke-opacity: 0.10; fill: #444444; fill-opacity: 0.10;' />
<circle cx='365.47' cy='131.21' r='2.13' style='stroke-width: 0.00; stroke: #444444; stroke-opacity: 0.10; fill: #444444; fill-opacity: 0.10;' />
<circle cx='371.41' cy='140.06' r='2.13' style='stroke-width: 0.00; stroke: #444444; stroke-opacity: 0.10; fill: #444444; fill-opacity: 0.10;' />
<circle cx='388.79' cy='134.92' r='2.13' style='stroke-width: 0.00; stroke: #444444; stroke-opacity: 0.10; fill: #444444; fill-opacity: 0.10;' />
<circle cx='355.40' cy='132.80' r='2.13' style='stroke-width: 0.00; stroke: #444444; stroke-opacity: 0.10; fill: #444444; fill-opacity: 0.10;' />
<circle cx='379.07' cy='140.24' r='2.13' style='stroke-width: 0.00; stroke: #444444; stroke-opacity: 0.10; fill: #444444; fill-opacity: 0.10;' />
<circle cx='347.58' cy='140.47' r='2.13' style='stroke-width: 0.00; stroke: #444444; stroke-opacity: 0.10; fill: #444444; fill-opacity: 0.10;' />
<circle cx='378.48' cy='136.30' r='2.13' style='stroke-width: 0.00; stroke: #444444; stroke-opacity: 0.10; fill: #444444; fill-opacity: 0.10;' />
<circle cx='366.01' cy='131.60' r='2.13' style='stroke-width: 0.00; stroke: #444444; stroke-opacity: 0.10; fill: #444444; fill-opacity: 0.10;' />
<circle cx='363.94' cy='135.02' r='2.13' style='stroke-width: 0.00; stroke: #444444; stroke-opacity: 0.10; fill: #444444; fill-opacity: 0.10;' />
<circle cx='342.16' cy='134.12' r='2.13' style='stroke-width: 0.00; stroke: #444444; stroke-opacity: 0.10; fill: #444444; fill-opacity: 0.10;' />
<circle cx='358.04' cy='134.62' r='2.13' style='stroke-width: 0.00; stroke: #444444; stroke-opacity: 0.10; fill: #444444; fill-opacity: 0.10;' />
<circle cx='363.30' cy='142.47' r='2.13' style='stroke-width: 0.00; stroke: #444444; stroke-opacity: 0.10; fill: #444444; fill-opacity: 0.10;' />
<circle cx='331.39' cy='141.69' r='2.13' style='stroke-width: 0.00; stroke: #444444; stroke-opacity: 0.10; fill: #444444; fill-opacity: 0.10;' />
<circle cx='376.52' cy='129.80' r='2.13' style='stroke-width: 0.00; stroke: #444444; stroke-opacity: 0.10; fill: #444444; fill-opacity: 0.10;' />
<circle cx='357.77' cy='135.78' r='2.13' style='stroke-width: 0.00; stroke: #444444; stroke-opacity: 0.10; fill: #444444; fill-opacity: 0.10;' />
<circle cx='370.83' cy='134.89' r='2.13' style='stroke-width: 0.00; stroke: #444444; stroke-opacity: 0.10; fill: #444444; fill-opacity: 0.10;' />
<circle cx='373.55' cy='137.66' r='2.13' style='stroke-width: 0.00; stroke: #444444; stroke-opacity: 0.10; fill: #444444; fill-opacity: 0.10;' />
<circle cx='353.62' cy='138.99' r='2.13' style='stroke-width: 0.00; stroke: #444444; stroke-opacity: 0.10; fill: #444444; fill-opacity: 0.10;' />
<circle cx='384.16' cy='132.39' r='2.13' style='stroke-width: 0.00; stroke: #444444; stroke-opacity: 0.10; fill: #444444; fill-opacity: 0.10;' />
<circle cx='382.44' cy='133.06' r='2.13' style='stroke-width: 0.00; stroke: #444444; stroke-opacity: 0.10; fill: #444444; fill-opacity: 0.10;' />
<circle cx='360.26' cy='134.00' r='2.13' style='stroke-width: 0.00; stroke: #444444; stroke-opacity: 0.10; fill: #444444; fill-opacity: 0.10;' />
<circle cx='377.47' cy='130.15' r='2.13' style='stroke-width: 0.00; stroke: #444444; stroke-opacity: 0.10; fill: #444444; fill-opacity: 0.10;' />
<circle cx='364.56' cy='131.39' r='2.13' style='stroke-width: 0.00; stroke: #444444; stroke-opacity: 0.10; fill: #444444; fill-opacity: 0.10;' />
<circle cx='357.46' cy='138.53' r='2.13' style='stroke-width: 0.00; stroke: #444444; stroke-opacity: 0.10; fill: #444444; fill-opacity: 0.10;' />
<circle cx='359.45' cy='132.44' r='2.13' style='stroke-width: 0.00; stroke: #444444; stroke-opacity: 0.10; fill: #444444; fill-opacity: 0.10;' />
<circle cx='371.12' cy='141.73' r='2.13' style='stroke-width: 0.00; stroke: #444444; stroke-opacity: 0.10; fill: #444444; fill-opacity: 0.10;' />
<circle cx='389.57' cy='142.12' r='2.13' style='stroke-width: 0.00; stroke: #444444; stroke-opacity: 0.10; fill: #444444; fill-opacity: 0.10;' />
<circle cx='360.73' cy='115.25' r='2.13' style='stroke-width: 0.00; stroke: #444444; stroke-opacity: 0.10; fill: #444444; fill-opacity: 0.10;' />
<circle cx='382.01' cy='105.26' r='2.13' style='stroke-width: 0.00; stroke: #444444; stroke-opacity: 0.10; fill: #444444; fill-opacity: 0.10;' />
<circle cx='388.95' cy='104.62' r='2.13' style='stroke-width: 0.00; stroke: #444444; stroke-opacity: 0.10; fill: #444444; fill-opacity: 0.10;' />
<circle cx='363.15' cy='113.23' r='2.13' style='stroke-width: 0.00; stroke: #444444; stroke-opacity: 0.10; fill: #444444; fill-opacity: 0.10;' />
<circle cx='359.81' cy='109.83' r='2.13' style='stroke-width: 0.00; stroke: #444444; stroke-opacity: 0.10; fill: #444444; fill-opacity: 0.10;' />
<circle cx='385.93' cy='104.95' r='2.13' style='stroke-width: 0.00; stroke: #444444; stroke-opacity: 0.10; fill: #444444; fill-opacity: 0.10;' />
<circle cx='353.39' cy='110.06' r='2.13' style='stroke-width: 0.00; stroke: #444444; stroke-opacity: 0.10; fill: #444444; fill-opacity: 0.10;' />
<circle cx='357.83' cy='111.26' r='2.13' style='stroke-width: 0.00; stroke: #444444; stroke-opacity: 0.10; fill: #444444; fill-opacity: 0.10;' />
<circle cx='350.26' cy='113.63' r='2.13' style='stroke-width: 0.00; stroke: #444444; stroke-opacity: 0.10; fill: #444444; fill-opacity: 0.10;' />
<circle cx='362.78' cy='111.29' r='2.13' style='stroke-width: 0.00; stroke: #444444; stroke-opacity: 0.10; fill: #444444; fill-opacity: 0.10;' />
<circle cx='379.84' cy='109.96' r='2.13' style='stroke-width: 0.00; stroke: #444444; stroke-opacity: 0.10; fill: #444444; fill-opacity: 0.10;' />
<circle cx='380.77' cy='112.37' r='2.13' style='stroke-width: 0.00; stroke: #444444; stroke-opacity: 0.10; fill: #444444; fill-opacity: 0.10;' />
<circle cx='392.58' cy='112.42' r='2.13' style='stroke-width: 0.00; stroke: #444444; stroke-opacity: 0.10; fill: #444444; fill-opacity: 0.10;' />
<circle cx='368.55' cy='107.44' r='2.13' style='stroke-width: 0.00; stroke: #444444; stroke-opacity: 0.10; fill: #444444; fill-opacity: 0.10;' />
<circle cx='380.65' cy='111.24' r='2.13' style='stroke-width: 0.00; stroke: #444444; stroke-opacity: 0.10; fill: #444444; fill-opacity: 0.10;' />
<circle cx='345.65' cy='116.26' r='2.13' style='stroke-width: 0.00; stroke: #444444; stroke-opacity: 0.10; fill: #444444; fill-opacity: 0.10;' />
<circle cx='377.83' cy='104.21' r='2.13' style='stroke-width: 0.00; stroke: #444444; stroke-opacity: 0.10; fill: #444444; fill-opacity: 0.10;' />
<circle cx='331.36' cy='113.19' r='2.13' style='stroke-width: 0.00; stroke: #444444; stroke-opacity: 0.10; fill: #444444; fill-opacity: 0.10;' />
<circle cx='388.71' cy='105.31' r='2.13' style='stroke-width: 0.00; stroke: #444444; stroke-opacity: 0.10; fill: #444444; fill-opacity: 0.10;' />
<circle cx='382.59' cy='116.16' r='2.13' style='stroke-width: 0.00; stroke: #444444; stroke-opacity: 0.10; fill: #444444; fill-opacity: 0.10;' />
<circle cx='368.27' cy='106.59' r='2.13' style='stroke-width: 0.00; stroke: #444444; stroke-opacity: 0.10; fill: #444444; fill-opacity: 0.10;' />
<circle cx='356.99' cy='117.60' r='2.13' style='stroke-width: 0.00; stroke: #444444; stroke-opacity: 0.10; fill: #444444; fill-opacity: 0.10;' />
<circle cx='374.10' cy='106.35' r='2.13' style='stroke-width: 0.00; stroke: #444444; stroke-opacity: 0.10; fill: #444444; fill-opacity: 0.10;' />
<circle cx='345.23' cy='111.55' r='2.13' style='stroke-width: 0.00; stroke: #444444; stroke-opacity: 0.10; fill: #444444; fill-opacity: 0.10;' />
<circle cx='374.47' cy='116.95' r='2.13' style='stroke-width: 0.00; stroke: #444444; stroke-opacity: 0.10; fill: #444444; fill-opacity: 0.10;' />
<circle cx='343.42' cy='106.30' r='2.13' style='stroke-width: 0.00; stroke: #444444; stroke-opacity: 0.10; fill: #444444; fill-opacity: 0.10;' />
<circle cx='357.89' cy='105.58' r='2.13' style='stroke-width: 0.00; stroke: #444444; stroke-opacity: 0.10; fill: #444444; fill-opacity: 0.10;' />
<circle cx='346.04' cy='117.22' r='2.13' style='stroke-width: 0.00; stroke: #444444; stroke-opacity: 0.10; fill: #444444; fill-opacity: 0.10;' />
<circle cx='354.02' cy='113.84' r='2.13' style='stroke-width: 0.00; stroke: #444444; stroke-opacity: 0.10; fill: #444444; fill-opacity: 0.10;' />
<circle cx='360.73' cy='84.33' r='2.13' style='stroke-width: 0.00; stroke: #444444; stroke-opacity: 0.10; fill: #444444; fill-opacity: 0.10;' />
<circle cx='343.77' cy='87.19' r='2.13' style='stroke-width: 0.00; stroke: #444444; stroke-opacity: 0.10; fill: #444444; fill-opacity: 0.10;' />
<circle cx='361.95' cy='88.87' r='2.13' style='stroke-width: 0.00; stroke: #444444; stroke-opacity: 0.10; fill: #444444; fill-opacity: 0.10;' />
<circle cx='387.99' cy='84.61' r='2.13' style='stroke-width: 0.00; stroke: #444444; stroke-opacity: 0.10; fill: #444444; fill-opacity: 0.10;' />
<circle cx='370.82' cy='88.57' r='2.13' style='stroke-width: 0.00; stroke: #444444; stroke-opacity: 0.10; fill: #444444; fill-opacity: 0.10;' />
<circle cx='364.92' cy='92.81' r='2.13' style='stroke-width: 0.00; stroke: #444444; stroke-opacity: 0.10; fill: #444444; fill-opacity: 0.10;' />
<circle cx='362.04' cy='90.27' r='2.13' style='stroke-width: 0.00; stroke: #444444; stroke-opacity: 0.10; fill: #444444; fill-opacity: 0.10;' />
<circle cx='390.74' cy='87.60' r='2.13' style='stroke-width: 0.00; stroke: #444444; stroke-opacity: 0.10; fill: #444444; fill-opacity: 0.10;' />
<circle cx='392.29' cy='82.19' r='2.13' style='stroke-width: 0.00; stroke: #444444; stroke-opacity: 0.10; fill: #444444; fill-opacity: 0.10;' />
<circle cx='375.43' cy='79.71' r='2.13' style='stroke-width: 0.00; stroke: #444444; stroke-opacity: 0.10; fill: #444444; fill-opacity: 0.10;' />
<circle cx='385.16' cy='80.46' r='2.13' style='stroke-width: 0.00; stroke: #444444; stroke-opacity: 0.10; fill: #444444; fill-opacity: 0.10;' />
<circle cx='387.76' cy='89.83' r='2.13' style='stroke-width: 0.00; stroke: #444444; stroke-opacity: 0.10; fill: #444444; fill-opacity: 0.10;' />
<circle cx='361.71' cy='80.23' r='2.13' style='stroke-width: 0.00; stroke: #444444; stroke-opacity: 0.10; fill: #444444; fill-opacity: 0.10;' />
<circle cx='374.90' cy='89.67' r='2.13' style='stroke-width: 0.00; stroke: #444444; stroke-opacity: 0.10; fill: #444444; fill-opacity: 0.10;' />
<circle cx='390.07' cy='89.68' r='2.13' style='stroke-width: 0.00; stroke: #444444; stroke-opacity: 0.10; fill: #444444; fill-opacity: 0.10;' />
<circle cx='380.81' cy='85.74' r='2.13' style='stroke-width: 0.00; stroke: #444444; stroke-opacity: 0.10; fill: #444444; fill-opacity: 0.10;' />
<circle cx='364.36' cy='89.59' r='2.13' style='stroke-width: 0.00; stroke: #444444; stroke-opacity: 0.10; fill: #444444; fill-opacity: 0.10;' />
<circle cx='389.04' cy='81.45' r='2.13' style='stroke-width: 0.00; stroke: #444444; stroke-opacity: 0.10; fill: #444444; fill-opacity: 0.10;' />
<circle cx='376.81' cy='90.57' r='2.13' style='stroke-width: 0.00; stroke: #444444; stroke-opacity: 0.10; fill: #444444; fill-opacity: 0.10;' />
<circle cx='361.06' cy='93.57' r='2.13' style='stroke-width: 0.00; stroke: #444444; stroke-opacity: 0.10; fill: #444444; fill-opacity: 0.10;' />
<circle cx='390.81' cy='85.42' r='2.13' style='stroke-width: 0.00; stroke: #444444; stroke-opacity: 0.10; fill: #444444; fill-opacity: 0.10;' />
<circle cx='388.11' cy='89.07' r='2.13' style='stroke-width: 0.00; stroke: #444444; stroke-opacity: 0.10; fill: #444444; fill-opacity: 0.10;' />
<circle cx='365.99' cy='80.50' r='2.13' style='stroke-width: 0.00; stroke: #444444; stroke-opacity: 0.10; fill: #444444; fill-opacity: 0.10;' />
<circle cx='349.55' cy='79.84' r='2.13' style='stroke-width: 0.00; stroke: #444444; stroke-opacity: 0.10; fill: #444444; fill-opacity: 0.10;' />
<circle cx='377.15' cy='88.73' r='2.13' style='stroke-width: 0.00; stroke: #444444; stroke-opacity: 0.10; fill: #444444; fill-opacity: 0.10;' />
<circle cx='390.49' cy='86.40' r='2.13' style='stroke-width: 0.00; stroke: #444444; stroke-opacity: 0.10; fill: #444444; fill-opacity: 0.10;' />
<circle cx='388.22' cy='91.40' r='2.13' style='stroke-width: 0.00; stroke: #444444; stroke-opacity: 0.10; fill: #444444; fill-opacity: 0.10;' />
<circle cx='373.68' cy='91.41' r='2.13' style='stroke-width: 0.00; stroke: #444444; stroke-opacity: 0.10; fill: #444444; fill-opacity: 0.10;' />
<circle cx='388.60' cy='85.48' r='2.13' style='stroke-width: 0.00; stroke: #444444; stroke-opacity: 0.10; fill: #444444; fill-opacity: 0.10;' />
<circle cx='383.40' cy='88.96' r='2.13' style='stroke-width: 0.00; stroke: #444444; stroke-opacity: 0.10; fill: #444444; fill-opacity: 0.10;' />
<circle cx='388.33' cy='87.27' r='2.13' style='stroke-width: 0.00; stroke: #444444; stroke-opacity: 0.10; fill: #444444; fill-opacity: 0.10;' />
<circle cx='383.09' cy='88.33' r='2.13' style='stroke-width: 0.00; stroke: #444444; stroke-opacity: 0.10; fill: #444444; fill-opacity: 0.10;' />
<circle cx='390.33' cy='84.53' r='2.13' style='stroke-width: 0.00; stroke: #444444; stroke-opacity: 0.10; fill: #444444; fill-opacity: 0.10;' />
<circle cx='379.71' cy='88.51' r='2.13' style='stroke-width: 0.00; stroke: #444444; stroke-opacity: 0.10; fill: #444444; fill-opacity: 0.10;' />
<circle cx='388.89' cy='84.29' r='2.13' style='stroke-width: 0.00; stroke: #444444; stroke-opacity: 0.10; fill: #444444; fill-opacity: 0.10;' />
<circle cx='366.82' cy='83.52' r='2.13' style='stroke-width: 0.00; stroke: #444444; stroke-opacity: 0.10; fill: #444444; fill-opacity: 0.10;' />
<circle cx='362.82' cy='79.17' r='2.13' style='stroke-width: 0.00; stroke: #444444; stroke-opacity: 0.10; fill: #444444; fill-opacity: 0.10;' />
<circle cx='390.22' cy='88.09' r='2.13' style='stroke-width: 0.00; stroke: #444444; stroke-opacity: 0.10; fill: #444444; fill-opacity: 0.10;' />
<circle cx='373.69' cy='54.11' r='2.13' style='stroke-width: 0.00; stroke: #444444; stroke-opacity: 0.10; fill: #444444; fill-opacity: 0.10;' />
<circle cx='362.59' cy='53.29' r='2.13' style='stroke-width: 0.00; stroke: #444444; stroke-opacity: 0.10; fill: #444444; fill-opacity: 0.10;' />
<circle cx='353.33' cy='57.11' r='2.13' style='stroke-width: 0.00; stroke: #444444; stroke-opacity: 0.10; fill: #444444; fill-opacity: 0.10;' />
<circle cx='349.06' cy='64.71' r='2.13' style='stroke-width: 0.00; stroke: #444444; stroke-opacity: 0.10; fill: #444444; fill-opacity: 0.10;' />
<circle cx='371.46' cy='65.43' r='2.13' style='stroke-width: 0.00; stroke: #444444; stroke-opacity: 0.10; fill: #444444; fill-opacity: 0.10;' />
<circle cx='390.29' cy='54.22' r='2.13' style='stroke-width: 0.00; stroke: #444444; stroke-opacity: 0.10; fill: #444444; fill-opacity: 0.10;' />
<circle cx='387.59' cy='68.16' r='2.13' style='stroke-width: 0.00; stroke: #444444; stroke-opacity: 0.10; fill: #444444; fill-opacity: 0.10;' />
<circle cx='391.20' cy='61.04' r='2.13' style='stroke-width: 0.00; stroke: #444444; stroke-opacity: 0.10; fill: #444444; fill-opacity: 0.10;' />
<circle cx='384.91' cy='64.99' r='2.13' style='stroke-width: 0.00; stroke: #444444; stroke-opacity: 0.10; fill: #444444; fill-opacity: 0.10;' />
<circle cx='392.40' cy='61.61' r='2.13' style='stroke-width: 0.00; stroke: #444444; stroke-opacity: 0.10; fill: #444444; fill-opacity: 0.10;' />
<circle cx='388.17' cy='58.34' r='2.13' style='stroke-width: 0.00; stroke: #444444; stroke-opacity: 0.10; fill: #444444; fill-opacity: 0.10;' />
<circle cx='386.03' cy='58.37' r='2.13' style='stroke-width: 0.00; stroke: #444444; stroke-opacity: 0.10; fill: #444444; fill-opacity: 0.10;' />
<circle cx='390.90' cy='59.60' r='2.13' style='stroke-width: 0.00; stroke: #444444; stroke-opacity: 0.10; fill: #444444; fill-opacity: 0.10;' />
<circle cx='391.27' cy='54.33' r='2.13' style='stroke-width: 0.00; stroke: #444444; stroke-opacity: 0.10; fill: #444444; fill-opacity: 0.10;' />
<circle cx='389.50' cy='58.53' r='2.13' style='stroke-width: 0.00; stroke: #444444; stroke-opacity: 0.10; fill: #444444; fill-opacity: 0.10;' />
<circle cx='355.25' cy='67.03' r='2.13' style='stroke-width: 0.00; stroke: #444444; stroke-opacity: 0.10; fill: #444444; fill-opacity: 0.10;' />
<circle cx='390.67' cy='68.18' r='2.13' style='stroke-width: 0.00; stroke: #444444; stroke-opacity: 0.10; fill: #444444; fill-opacity: 0.10;' />
<circle cx='383.37' cy='56.56' r='2.13' style='stroke-width: 0.00; stroke: #444444; stroke-opacity: 0.10; fill: #444444; fill-opacity: 0.10;' />
<circle cx='390.08' cy='59.45' r='2.13' style='stroke-width: 0.00; stroke: #444444; stroke-opacity: 0.10; fill: #444444; fill-opacity: 0.10;' />
<circle cx='385.52' cy='59.37' r='2.13' style='stroke-width: 0.00; stroke: #444444; stroke-opacity: 0.10; fill: #444444; fill-opacity: 0.10;' />
<circle cx='374.74' cy='62.53' r='2.13' style='stroke-width: 0.00; stroke: #444444; stroke-opacity: 0.10; fill: #444444; fill-opacity: 0.10;' />
<circle cx='390.11' cy='64.53' r='2.13' style='stroke-width: 0.00; stroke: #444444; stroke-opacity: 0.10; fill: #444444; fill-opacity: 0.10;' />
<circle cx='378.76' cy='64.24' r='2.13' style='stroke-width: 0.00; stroke: #444444; stroke-opacity: 0.10; fill: #444444; fill-opacity: 0.10;' />
<circle cx='390.10' cy='33.04' r='2.13' style='stroke-width: 0.00; stroke: #444444; stroke-opacity: 0.10; fill: #444444; fill-opacity: 0.10;' />
<circle cx='364.73' cy='32.52' r='2.13' style='stroke-width: 0.00; stroke: #444444; stroke-opacity: 0.10; fill: #444444; fill-opacity: 0.10;' />
<circle cx='388.69' cy='27.80' r='2.13' style='stroke-width: 0.00; stroke: #444444; stroke-opacity: 0.10; fill: #444444; fill-opacity: 0.10;' />
<circle cx='363.82' cy='41.13' r='2.13' style='stroke-width: 0.00; stroke: #444444; stroke-opacity: 0.10; fill: #444444; fill-opacity: 0.10;' />
<circle cx='361.24' cy='32.24' r='2.13' style='stroke-width: 0.00; stroke: #444444; stroke-opacity: 0.10; fill: #444444; fill-opacity: 0.10;' />
<circle cx='357.50' cy='34.60' r='2.13' style='stroke-width: 0.00; stroke: #444444; stroke-opacity: 0.10; fill: #444444; fill-opacity: 0.10;' />
<circle cx='356.31' cy='33.01' r='2.13' style='stroke-width: 0.00; stroke: #444444; stroke-opacity: 0.10; fill: #444444; fill-opacity: 0.10;' />
<circle cx='354.28' cy='39.12' r='2.13' style='stroke-width: 0.00; stroke: #444444; stroke-opacity: 0.10; fill: #444444; fill-opacity: 0.10;' />
<circle cx='354.10' cy='31.92' r='2.13' style='stroke-width: 0.00; stroke: #444444; stroke-opacity: 0.10; fill: #444444; fill-opacity: 0.10;' />
<circle cx='389.54' cy='35.86' r='2.13' style='stroke-width: 0.00; stroke: #444444; stroke-opacity: 0.10; fill: #444444; fill-opacity: 0.10;' />
<circle cx='377.21' cy='41.86' r='2.13' style='stroke-width: 0.00; stroke: #444444; stroke-opacity: 0.10; fill: #444444; fill-opacity: 0.10;' />
<circle cx='391.99' cy='40.09' r='2.13' style='stroke-width: 0.00; stroke: #444444; stroke-opacity: 0.10; fill: #444444; fill-opacity: 0.10;' />
<circle cx='362.59' cy='34.17' r='2.13' style='stroke-width: 0.00; stroke: #444444; stroke-opacity: 0.10; fill: #444444; fill-opacity: 0.10;' />
<circle cx='387.51' cy='40.76' r='2.13' style='stroke-width: 0.00; stroke: #444444; stroke-opacity: 0.10; fill: #444444; fill-opacity: 0.10;' />
<circle cx='386.50' cy='29.23' r='2.13' style='stroke-width: 0.00; stroke: #444444; stroke-opacity: 0.10; fill: #444444; fill-opacity: 0.10;' />
<circle cx='391.95' cy='42.46' r='2.13' style='stroke-width: 0.00; stroke: #444444; stroke-opacity: 0.10; fill: #444444; fill-opacity: 0.10;' />
<circle cx='377.36' cy='34.98' r='2.13' style='stroke-width: 0.00; stroke: #444444; stroke-opacity: 0.10; fill: #444444; fill-opacity: 0.10;' />
<circle cx='389.15' cy='38.94' r='2.13' style='stroke-width: 0.00; stroke: #444444; stroke-opacity: 0.10; fill: #444444; fill-opacity: 0.10;' />
<circle cx='388.76' cy='30.61' r='2.13' style='stroke-width: 0.00; stroke: #444444; stroke-opacity: 0.10; fill: #444444; fill-opacity: 0.10;' />
<circle cx='368.09' cy='39.36' r='2.13' style='stroke-width: 0.00; stroke: #444444; stroke-opacity: 0.10; fill: #444444; fill-opacity: 0.10;' />
<circle cx='390.50' cy='39.28' r='2.13' style='stroke-width: 0.00; stroke: #444444; stroke-opacity: 0.10; fill: #444444; fill-opacity: 0.10;' />
<circle cx='353.53' cy='41.35' r='2.13' style='stroke-width: 0.00; stroke: #444444; stroke-opacity: 0.10; fill: #444444; fill-opacity: 0.10;' />
<circle cx='363.91' cy='40.03' r='2.13' style='stroke-width: 0.00; stroke: #444444; stroke-opacity: 0.10; fill: #444444; fill-opacity: 0.10;' />
<circle cx='357.50' cy='33.93' r='2.13' style='stroke-width: 0.00; stroke: #444444; stroke-opacity: 0.10; fill: #444444; fill-opacity: 0.10;' />
<polygon points='355.33,136.84 365.68,140.65 376.03,136.84 365.68,133.03 355.33,136.84 ' style='stroke-width: 1.07; stroke: #524855; stroke-linecap: butt; fill: #524855;' />
<polygon points='351.83,111.46 365.37,115.27 378.92,111.46 365.37,107.66 351.83,111.46 ' style='stroke-width: 1.07; stroke: #524955; stroke-linecap: butt; fill: #524955;' />
<polygon points='367.97,86.09 377.35,89.90 386.73,86.09 377.35,82.28 367.97,86.09 ' style='stroke-width: 1.07; stroke: #4B2654; stroke-linecap: butt; fill: #4B2654;' />
<polygon points='366.89,60.71 380.10,64.52 393.31,60.71 380.10,56.91 366.89,60.71 ' style='stroke-width: 1.07; stroke: #4A1E54; stroke-linecap: butt; fill: #4A1E54;' />
<polygon points='359.60,35.34 373.83,39.15 388.06,35.34 373.83,31.53 359.60,35.34 ' style='stroke-width: 1.07; stroke: #4D3054; stroke-linecap: butt; fill: #4D3054;' />
<rect x='328.26' y='21.99' width='68.15' height='127.85' style='stroke-width: 0.78; stroke: #333333;' />
</g>
<g clip-path='url(#cpMC4wMHw1MTAuMjR8MC4wMHwxNzIuNjM=)'>
<text x='324.67' y='139.13' text-anchor='end' style='font-size: 6.40px;fill: #4D4D4D; font-family: "Arial";' textLength='45.50px' lengthAdjust='spacingAndGlyphs'>very improbable</text>
<text x='324.67' y='113.75' text-anchor='end' style='font-size: 6.40px;fill: #4D4D4D; font-family: "Arial";' textLength='45.50px' lengthAdjust='spacingAndGlyphs'>very improbable</text>
<text x='324.67' y='88.38' text-anchor='end' style='font-size: 6.40px;fill: #4D4D4D; font-family: "Arial";' textLength='45.50px' lengthAdjust='spacingAndGlyphs'>very improbable</text>
<text x='324.67' y='63.00' text-anchor='end' style='font-size: 6.40px;fill: #4D4D4D; font-family: "Arial";' textLength='45.50px' lengthAdjust='spacingAndGlyphs'>very improbable</text>
<text x='324.67' y='37.63' text-anchor='end' style='font-size: 6.40px;fill: #4D4D4D; font-family: "Arial";' textLength='45.50px' lengthAdjust='spacingAndGlyphs'>very improbable</text>
<polyline points='326.27,136.84 328.26,136.84 ' style='stroke-width: 0.78; stroke: #333333; stroke-linecap: butt;' />
<polyline points='326.27,111.46 328.26,111.46 ' style='stroke-width: 0.78; stroke: #333333; stroke-linecap: butt;' />
<polyline points='326.27,86.09 328.26,86.09 ' style='stroke-width: 0.78; stroke: #333333; stroke-linecap: butt;' />
<polyline points='326.27,60.71 328.26,60.71 ' style='stroke-width: 0.78; stroke: #333333; stroke-linecap: butt;' />
<polyline points='326.27,35.34 328.26,35.34 ' style='stroke-width: 0.78; stroke: #333333; stroke-linecap: butt;' />
<polyline points='398.40,136.84 396.41,136.84 ' style='stroke-width: 0.78; stroke: #333333; stroke-linecap: butt;' />
<polyline points='398.40,111.46 396.41,111.46 ' style='stroke-width: 0.78; stroke: #333333; stroke-linecap: butt;' />
<polyline points='398.40,86.09 396.41,86.09 ' style='stroke-width: 0.78; stroke: #333333; stroke-linecap: butt;' />
<polyline points='398.40,60.71 396.41,60.71 ' style='stroke-width: 0.78; stroke: #333333; stroke-linecap: butt;' />
<polyline points='398.40,35.34 396.41,35.34 ' style='stroke-width: 0.78; stroke: #333333; stroke-linecap: butt;' />
<text x='400.00' y='139.13' style='font-size: 6.40px;fill: #4D4D4D; font-family: "Arial";' textLength='38.75px' lengthAdjust='spacingAndGlyphs'>very probable</text>
<text x='400.00' y='113.75' style='font-size: 6.40px;fill: #4D4D4D; font-family: "Arial";' textLength='38.75px' lengthAdjust='spacingAndGlyphs'>very probable</text>
<text x='400.00' y='88.38' style='font-size: 6.40px;fill: #4D4D4D; font-family: "Arial";' textLength='38.75px' lengthAdjust='spacingAndGlyphs'>very probable</text>
<text x='400.00' y='63.00' style='font-size: 6.40px;fill: #4D4D4D; font-family: "Arial";' textLength='38.75px' lengthAdjust='spacingAndGlyphs'>very probable</text>
<text x='400.00' y='37.63' style='font-size: 6.40px;fill: #4D4D4D; font-family: "Arial";' textLength='38.75px' lengthAdjust='spacingAndGlyphs'>very probable</text>
<polyline points='332.78,151.83 332.78,149.83 ' style='stroke-width: 0.78; stroke: #333333; stroke-linecap: butt;' />
<polyline points='338.51,151.83 338.51,149.83 ' style='stroke-width: 0.78; stroke: #333333; stroke-linecap: butt;' />
<polyline points='344.24,151.83 344.24,149.83 ' style='stroke-width: 0.78; stroke: #333333; stroke-linecap: butt;' />
<polyline points='349.97,151.83 349.97,149.83 ' style='stroke-width: 0.78; stroke: #333333; stroke-linecap: butt;' />
<polyline points='355.70,151.83 355.70,149.83 ' style='stroke-width: 0.78; stroke: #333333; stroke-linecap: butt;' />
<polyline points='361.42,151.83 361.42,149.83 ' style='stroke-width: 0.78; stroke: #333333; stroke-linecap: butt;' />
<polyline points='367.15,151.83 367.15,149.83 ' style='stroke-width: 0.78; stroke: #333333; stroke-linecap: butt;' />
<polyline points='372.88,151.83 372.88,149.83 ' style='stroke-width: 0.78; stroke: #333333; stroke-linecap: butt;' />
<polyline points='378.61,151.83 378.61,149.83 ' style='stroke-width: 0.78; stroke: #333333; stroke-linecap: butt;' />
<polyline points='384.34,151.83 384.34,149.83 ' style='stroke-width: 0.78; stroke: #333333; stroke-linecap: butt;' />
<polyline points='390.06,151.83 390.06,149.83 ' style='stroke-width: 0.78; stroke: #333333; stroke-linecap: butt;' />
<text x='332.78' y='158.00' text-anchor='middle' style='font-size: 6.40px;fill: #4D4D4D; font-family: "Arial";' textLength='5.69px' lengthAdjust='spacingAndGlyphs'>-5</text>
<text x='338.51' y='158.00' text-anchor='middle' style='font-size: 6.40px;fill: #4D4D4D; font-family: "Arial";' textLength='5.69px' lengthAdjust='spacingAndGlyphs'>-4</text>
<text x='344.24' y='158.00' text-anchor='middle' style='font-size: 6.40px;fill: #4D4D4D; font-family: "Arial";' textLength='5.69px' lengthAdjust='spacingAndGlyphs'>-3</text>
<text x='349.97' y='158.00' text-anchor='middle' style='font-size: 6.40px;fill: #4D4D4D; font-family: "Arial";' textLength='5.69px' lengthAdjust='spacingAndGlyphs'>-2</text>
<text x='355.70' y='158.00' text-anchor='middle' style='font-size: 6.40px;fill: #4D4D4D; font-family: "Arial";' textLength='5.69px' lengthAdjust='spacingAndGlyphs'>-1</text>
<text x='361.42' y='158.00' text-anchor='middle' style='font-size: 6.40px;fill: #4D4D4D; font-family: "Arial";' textLength='3.56px' lengthAdjust='spacingAndGlyphs'>0</text>
<text x='367.15' y='158.00' text-anchor='middle' style='font-size: 6.40px;fill: #4D4D4D; font-family: "Arial";' textLength='3.56px' lengthAdjust='spacingAndGlyphs'>1</text>
<text x='372.88' y='158.00' text-anchor='middle' style='font-size: 6.40px;fill: #4D4D4D; font-family: "Arial";' textLength='3.56px' lengthAdjust='spacingAndGlyphs'>2</text>
<text x='378.61' y='158.00' text-anchor='middle' style='font-size: 6.40px;fill: #4D4D4D; font-family: "Arial";' textLength='3.56px' lengthAdjust='spacingAndGlyphs'>3</text>
<text x='384.34' y='158.00' text-anchor='middle' style='font-size: 6.40px;fill: #4D4D4D; font-family: "Arial";' textLength='3.56px' lengthAdjust='spacingAndGlyphs'>4</text>
<text x='390.06' y='158.00' text-anchor='middle' style='font-size: 6.40px;fill: #4D4D4D; font-family: "Arial";' textLength='3.56px' lengthAdjust='spacingAndGlyphs'>5</text>
<text x='362.33' y='167.14' text-anchor='middle' style='font-size: 8.00px; font-family: "Arial";' textLength='84.07px' lengthAdjust='spacingAndGlyphs'>Scores and 99.99% CIs</text>
</g>
<defs>
  <clipPath id='cpMC4wMHwyNzYuMjl8MjEuOTl8MTQ5Ljgz'>
    <rect x='0.00' y='21.99' width='276.29' height='127.85' />
  </clipPath>
</defs>
<g clip-path='url(#cpMC4wMHwyNzYuMjl8MjEuOTl8MTQ5Ljgz)'>
</g>
<g clip-path='url(#cpMC4wMHw1MTAuMjR8MC4wMHwxNzIuNjM=)'>
<text x='3.59' y='131.08' style='font-size: 8.00px; font-family: "Arial";' textLength='255.25px' lengthAdjust='spacingAndGlyphs'>NrmDeBehOther * NrmDeIdOther [How likely do you think it is that other</text>
<text x='3.59' y='139.72' style='font-size: 8.00px; font-family: "Arial";' textLength='187.28px' lengthAdjust='spacingAndGlyphs'>people keep at least {distRec} distance from others?]</text>
<text x='3.59' y='148.36' style='font-size: 8.00px; font-family: "Arial";' textLength='54.23px' lengthAdjust='spacingAndGlyphs'>[NrmDe_Other]</text>
<text x='3.59' y='105.35' style='font-size: 8.00px; font-family: "Arial";' textLength='265.92px' lengthAdjust='spacingAndGlyphs'>NrmDeBehFriends * NrmDeIdFriends [How likely do you think it is that your</text>
<text x='3.59' y='113.99' style='font-size: 8.00px; font-family: "Arial";' textLength='187.27px' lengthAdjust='spacingAndGlyphs'>friends keep at least {distRec} distance from others?]</text>
<text x='3.59' y='122.63' style='font-size: 8.00px; font-family: "Arial";' textLength='60.90px' lengthAdjust='spacingAndGlyphs'>[NrmDe_Friends]</text>
<text x='3.59' y='79.62' style='font-size: 8.00px; font-family: "Arial";' textLength='259.68px' lengthAdjust='spacingAndGlyphs'>NrmDeBehFamily * NrmDeIdFamily [How likely do you think it is that your</text>
<text x='3.59' y='88.26' style='font-size: 8.00px; font-family: "Arial";' textLength='219.71px' lengthAdjust='spacingAndGlyphs'>family members keep at least {distRec} distance from others?]</text>
<text x='3.59' y='96.90' style='font-size: 8.00px; font-family: "Arial";' textLength='57.78px' lengthAdjust='spacingAndGlyphs'>[NrmDe_Family]</text>
<text x='3.59' y='53.89' style='font-size: 8.00px; font-family: "Arial";' textLength='261.03px' lengthAdjust='spacingAndGlyphs'>NrmDeBehRole * NrmDeIdRole [How likely do you think it is that your role</text>
<text x='3.59' y='62.53' style='font-size: 8.00px; font-family: "Arial";' textLength='189.04px' lengthAdjust='spacingAndGlyphs'>models keep at least {distRec} distance from others?]</text>
<text x='3.59' y='71.17' style='font-size: 8.00px; font-family: "Arial";' textLength='50.67px' lengthAdjust='spacingAndGlyphs'>[NrmDe_Role]</text>
<text x='3.59' y='28.16' style='font-size: 8.00px; font-family: "Arial";' textLength='259.69px' lengthAdjust='spacingAndGlyphs'>NrmDeBehDoctor * NrmDeIdDoctor [How likely do you think it is that your</text>
<text x='3.59' y='36.80' style='font-size: 8.00px; font-family: "Arial";' textLength='189.50px' lengthAdjust='spacingAndGlyphs'>doctor keeps at least {distRec} distance from others?]</text>
<text x='3.59' y='45.44' style='font-size: 8.00px; font-family: "Arial";' textLength='57.79px' lengthAdjust='spacingAndGlyphs'>[NrmDe_Doctor]</text>
</g>
<g clip-path='url(#cpMC4wMHwyNzYuMjl8MjEuOTl8MTQ5Ljgz)'>
</g>
<g clip-path='url(#cpMC4wMHw1MTAuMjR8MC4wMHwxNzIuNjM=)'>
</g>
<defs>
  <clipPath id='cpNDQyLjA4fDUxMC4yNHwxOC4wMHwxNzIuNjM='>
    <rect x='442.08' y='18.00' width='68.15' height='154.63' />
  </clipPath>
</defs>
<g clip-path='url(#cpNDQyLjA4fDUxMC4yNHwxOC4wMHwxNzIuNjM=)'>
<rect x='442.08' y='18.00' width='68.15' height='154.63' style='stroke-width: 0.78; stroke: #FFFFFF; fill: #FFFFFF;' />
</g>
<defs>
  <clipPath id='cpNDQ2LjA3fDUwNi4yNXwyMS45OXwxNDkuODM='>
    <rect x='446.07' y='21.99' width='60.18' height='127.85' />
  </clipPath>
</defs>
<g clip-path='url(#cpNDQ2LjA3fDUwNi4yNXwyMS45OXwxNDkuODM=)'>
<rect x='446.07' y='21.99' width='60.18' height='127.85' style='stroke-width: 0.78; stroke: none; fill: #FFFFFF;' />
<polyline points='455.64,149.83 455.64,21.99 ' style='stroke-width: 0.39; stroke: #EBEBEB; stroke-linecap: butt;' />
<polyline points='469.32,149.83 469.32,21.99 ' style='stroke-width: 0.39; stroke: #EBEBEB; stroke-linecap: butt;' />
<polyline points='483.00,149.83 483.00,21.99 ' style='stroke-width: 0.39; stroke: #EBEBEB; stroke-linecap: butt;' />
<polyline points='496.68,149.83 496.68,21.99 ' style='stroke-width: 0.39; stroke: #EBEBEB; stroke-linecap: butt;' />
<polyline points='448.80,149.83 448.80,21.99 ' style='stroke-width: 0.78; stroke: #EBEBEB; stroke-linecap: butt;' />
<polyline points='462.48,149.83 462.48,21.99 ' style='stroke-width: 0.78; stroke: #EBEBEB; stroke-linecap: butt;' />
<polyline points='476.16,149.83 476.16,21.99 ' style='stroke-width: 0.78; stroke: #EBEBEB; stroke-linecap: butt;' />
<polyline points='489.84,149.83 489.84,21.99 ' style='stroke-width: 0.78; stroke: #EBEBEB; stroke-linecap: butt;' />
<polyline points='503.52,149.83 503.52,21.99 ' style='stroke-width: 0.78; stroke: #EBEBEB; stroke-linecap: butt;' />
<line x1='462.48' y1='149.83' x2='462.48' y2='21.99' style='stroke-width: 1.07; stroke: #BEBEBE; stroke-linecap: butt;' />
<line x1='476.16' y1='149.83' x2='476.16' y2='21.99' style='stroke-width: 1.07; stroke: #BEBEBE; stroke-linecap: butt;' />
<line x1='489.84' y1='149.83' x2='489.84' y2='21.99' style='stroke-width: 1.07; stroke: #BEBEBE; stroke-linecap: butt;' />
<polygon points='461.02,139.97 468.77,144.02 478.06,139.97 468.77,135.91 461.02,139.97 ' style='stroke-width: 2.13; stroke-linecap: butt; fill: #476563; fill-opacity: 0.50;' />
<polygon points='464.01,112.94 473.83,116.99 484.30,112.94 473.83,108.88 464.01,112.94 ' style='stroke-width: 2.13; stroke-linecap: butt; fill: #505A59; fill-opacity: 0.50;' />
<polygon points='473.42,85.91 482.37,89.96 490.10,85.91 482.37,81.86 473.42,85.91 ' style='stroke-width: 2.13; stroke-linecap: butt; fill: #514254; fill-opacity: 0.50;' />
<polygon points='476.27,58.88 487.78,62.93 495.80,58.88 487.78,54.83 476.27,58.88 ' style='stroke-width: 2.13; stroke-linecap: butt; fill: #4D3154; fill-opacity: 0.50;' />
<polygon points='479.36,31.85 489.75,35.91 496.68,31.85 489.75,27.80 479.36,31.85 ' style='stroke-width: 2.13; stroke-linecap: butt; fill: #4C2B54; fill-opacity: 0.50;' />
<rect x='446.07' y='21.99' width='60.18' height='127.85' style='stroke-width: 0.78; stroke: #333333;' />
</g>
<g clip-path='url(#cpNDQyLjA4fDUxMC4yNHwxOC4wMHwxNzIuNjM=)'>
</g>
<g clip-path='url(#cpMC4wMHw1MTAuMjR8MC4wMHwxNzIuNjM=)'>
</g>
<g clip-path='url(#cpNDQyLjA4fDUxMC4yNHwxOC4wMHwxNzIuNjM=)'>
</g>
<g clip-path='url(#cpMC4wMHw1MTAuMjR8MC4wMHwxNzIuNjM=)'>
</g>
<g clip-path='url(#cpNDQyLjA4fDUxMC4yNHwxOC4wMHwxNzIuNjM=)'>
</g>
<g clip-path='url(#cpMC4wMHw1MTAuMjR8MC4wMHwxNzIuNjM=)'>
</g>
<g clip-path='url(#cpNDQyLjA4fDUxMC4yNHwxOC4wMHwxNzIuNjM=)'>
</g>
<g clip-path='url(#cpMC4wMHw1MTAuMjR8MC4wMHwxNzIuNjM=)'>
</g>
<g clip-path='url(#cpNDQyLjA4fDUxMC4yNHwxOC4wMHwxNzIuNjM=)'>
</g>
<g clip-path='url(#cpMC4wMHw1MTAuMjR8MC4wMHwxNzIuNjM=)'>
</g>
<g clip-path='url(#cpNDQyLjA4fDUxMC4yNHwxOC4wMHwxNzIuNjM=)'>
</g>
<g clip-path='url(#cpMC4wMHw1MTAuMjR8MC4wMHwxNzIuNjM=)'>
</g>
<g clip-path='url(#cpNDQyLjA4fDUxMC4yNHwxOC4wMHwxNzIuNjM=)'>
</g>
<g clip-path='url(#cpMC4wMHw1MTAuMjR8MC4wMHwxNzIuNjM=)'>
</g>
<g clip-path='url(#cpNDQyLjA4fDUxMC4yNHwxOC4wMHwxNzIuNjM=)'>
</g>
<g clip-path='url(#cpMC4wMHw1MTAuMjR8MC4wMHwxNzIuNjM=)'>
<polyline points='448.80,151.83 448.80,149.83 ' style='stroke-width: 0.78; stroke: #333333; stroke-linecap: butt;' />
<polyline points='462.48,151.83 462.48,149.83 ' style='stroke-width: 0.78; stroke: #333333; stroke-linecap: butt;' />
<polyline points='476.16,151.83 476.16,149.83 ' style='stroke-width: 0.78; stroke: #333333; stroke-linecap: butt;' />
<polyline points='489.84,151.83 489.84,149.83 ' style='stroke-width: 0.78; stroke: #333333; stroke-linecap: butt;' />
<polyline points='503.52,151.83 503.52,149.83 ' style='stroke-width: 0.78; stroke: #333333; stroke-linecap: butt;' />
<text x='448.80' y='158.00' text-anchor='middle' style='font-size: 6.40px;fill: #4D4D4D; font-family: "Arial";' textLength='11.02px' lengthAdjust='spacingAndGlyphs'>-1.0</text>
<text x='462.48' y='158.00' text-anchor='middle' style='font-size: 6.40px;fill: #4D4D4D; font-family: "Arial";' textLength='11.02px' lengthAdjust='spacingAndGlyphs'>-0.5</text>
<text x='476.16' y='158.00' text-anchor='middle' style='font-size: 6.40px;fill: #4D4D4D; font-family: "Arial";' textLength='8.89px' lengthAdjust='spacingAndGlyphs'>0.0</text>
<text x='489.84' y='158.00' text-anchor='middle' style='font-size: 6.40px;fill: #4D4D4D; font-family: "Arial";' textLength='8.89px' lengthAdjust='spacingAndGlyphs'>0.5</text>
<text x='503.52' y='158.00' text-anchor='middle' style='font-size: 6.40px;fill: #4D4D4D; font-family: "Arial";' textLength='8.89px' lengthAdjust='spacingAndGlyphs'>1.0</text>
</g>
<g clip-path='url(#cpNDQyLjA4fDUxMC4yNHwxOC4wMHwxNzIuNjM=)'>
</g>
<g clip-path='url(#cpMC4wMHw1MTAuMjR8MC4wMHwxNzIuNjM=)'>
</g>
<g clip-path='url(#cpNDQyLjA4fDUxMC4yNHwxOC4wMHwxNzIuNjM=)'>
</g>
<g clip-path='url(#cpMC4wMHw1MTAuMjR8MC4wMHwxNzIuNjM=)'>
<text x='476.16' y='167.14' text-anchor='middle' style='font-size: 8.00px; font-family: "Arial";' textLength='85.41px' lengthAdjust='spacingAndGlyphs'>95% CIs of associations</text>
</g>
<g clip-path='url(#cpNDQyLjA4fDUxMC4yNHwxOC4wMHwxNzIuNjM=)'>
</g>
<g clip-path='url(#cpMC4wMHw1MTAuMjR8MC4wMHwxNzIuNjM=)'>
</g>
<g clip-path='url(#cpNDQyLjA4fDUxMC4yNHwxOC4wMHwxNzIuNjM=)'>
</g>
<g clip-path='url(#cpMC4wMHw1MTAuMjR8MC4wMHwxNzIuNjM=)'>
</g>
<g clip-path='url(#cpNDQyLjA4fDUxMC4yNHwxOC4wMHwxNzIuNjM=)'>
</g>
<g clip-path='url(#cpMC4wMHw1MTAuMjR8MC4wMHwxNzIuNjM=)'>
</g>
<g clip-path='url(#cpNDQyLjA4fDUxMC4yNHwxOC4wMHwxNzIuNjM=)'>
</g>
<g clip-path='url(#cpMC4wMHw1MTAuMjR8MC4wMHwxNzIuNjM=)'>
</g>
<g clip-path='url(#cpNDQyLjA4fDUxMC4yNHwxOC4wMHwxNzIuNjM=)'>
</g>
<g clip-path='url(#cpMC4wMHw1MTAuMjR8MC4wMHwxNzIuNjM=)'>
</g>
<g clip-path='url(#cpNDQyLjA4fDUxMC4yNHwxOC4wMHwxNzIuNjM=)'>
</g>
<g clip-path='url(#cpMC4wMHw1MTAuMjR8MC4wMHwxNzIuNjM=)'>
</g>
<g clip-path='url(#cpNDQyLjA4fDUxMC4yNHwxOC4wMHwxNzIuNjM=)'>
</g>
<g clip-path='url(#cpMC4wMHw1MTAuMjR8MC4wMHwxNzIuNjM=)'>
</g>
<g clip-path='url(#cpNDQyLjA4fDUxMC4yNHwxOC4wMHwxNzIuNjM=)'>
</g>
<g clip-path='url(#cpMC4wMHw1MTAuMjR8MC4wMHwxNzIuNjM=)'>
</g>
<g clip-path='url(#cpNDQyLjA4fDUxMC4yNHwxOC4wMHwxNzIuNjM=)'>
</g>
<g clip-path='url(#cpMC4wMHw1MTAuMjR8MC4wMHwxNzIuNjM=)'>
</g>
<g clip-path='url(#cpNDQyLjA4fDUxMC4yNHwxOC4wMHwxNzIuNjM=)'>
</g>
<g clip-path='url(#cpMC4wMHw1MTAuMjR8MC4wMHwxNzIuNjM=)'>
</g>
<g clip-path='url(#cpNDQyLjA4fDUxMC4yNHwxOC4wMHwxNzIuNjM=)'>
</g>
<g clip-path='url(#cpMC4wMHw1MTAuMjR8MC4wMHwxNzIuNjM=)'>
<text x='2.30' y='8.78' style='font-size: 9.60px; font-weight: bold; font-family: "Arial";' textLength='147.66px' lengthAdjust='spacingAndGlyphs'>Means and associations (r) with </text>
<text x='149.96' y='8.78' style='font-size: 9.60px; font-weight: bold; font-family: "Arial";' textLength='43.17px' lengthAdjust='spacingAndGlyphs'>proximity</text>
<text x='193.13' y='8.78' style='font-size: 9.60px; font-weight: bold; font-family: "Arial";' textLength='2.66px' lengthAdjust='spacingAndGlyphs'> </text>
</g>
</svg>
