<?xml version='1.0' encoding='UTF-8' ?>
<svg xmlns='http://www.w3.org/2000/svg' xmlns:xlink='http://www.w3.org/1999/xlink' class='svglite' width='510.24pt' height='113.10pt' viewBox='0 0 510.24 113.10'>
<defs>
  <style type='text/css'><![CDATA[
    .svglite line, .svglite polyline, .svglite polygon, .svglite path, .svglite rect, .svglite circle {
      fill: none;
      stroke: #000000;
      stroke-linecap: round;
      stroke-linejoin: round;
      stroke-miterlimit: 10.00;
    }
    .svglite text {
      white-space: pre;
    }
  ]]></style>
</defs>
<rect width='100%' height='100%' style='stroke: none; fill: none;'/>
<defs>
  <clipPath id='cpMC4wMHw1MTAuMjR8MC4wMHwxMTMuMTA='>
    <rect x='0.00' y='0.00' width='510.24' height='113.10' />
  </clipPath>
</defs>
<g clip-path='url(#cpMC4wMHw1MTAuMjR8MC4wMHwxMTMuMTA=)'>
</g>
<defs>
  <clipPath id='cpMjIxLjY5fDQ0NC43OHwxOC4wMHwxMTMuMTA='>
    <rect x='221.69' y='18.00' width='223.10' height='95.10' />
  </clipPath>
</defs>
<g clip-path='url(#cpMjIxLjY5fDQ0NC43OHwxOC4wMHwxMTMuMTA=)'>
<rect x='221.69' y='18.00' width='223.10' height='95.10' style='stroke-width: 0.78; stroke: #FFFFFF; fill: #FFFFFF;' />
</g>
<g clip-path='url(#cpMC4wMHw1MTAuMjR8MC4wMHwxMTMuMTA=)'>
</g>
<defs>
  <clipPath id='cpMzAwLjk2fDM2Ni40MXwyMS45OXw5MC4zMQ=='>
    <rect x='300.96' y='21.99' width='65.45' height='68.32' />
  </clipPath>
</defs>
<g clip-path='url(#cpMzAwLjk2fDM2Ni40MXwyMS45OXw5MC4zMQ==)'>
<rect x='300.96' y='21.99' width='65.45' height='68.32' style='stroke-width: 0.78; stroke: none; fill: #FFFFFF;' />
<polyline points='302.51,90.31 302.51,21.99 ' style='stroke-width: 0.39; stroke: #EBEBEB; stroke-linecap: butt;' />
<polyline points='311.29,90.31 311.29,21.99 ' style='stroke-width: 0.39; stroke: #EBEBEB; stroke-linecap: butt;' />
<polyline points='320.07,90.31 320.07,21.99 ' style='stroke-width: 0.39; stroke: #EBEBEB; stroke-linecap: butt;' />
<polyline points='328.85,90.31 328.85,21.99 ' style='stroke-width: 0.39; stroke: #EBEBEB; stroke-linecap: butt;' />
<polyline points='337.63,90.31 337.63,21.99 ' style='stroke-width: 0.39; stroke: #EBEBEB; stroke-linecap: butt;' />
<polyline points='346.41,90.31 346.41,21.99 ' style='stroke-width: 0.39; stroke: #EBEBEB; stroke-linecap: butt;' />
<polyline points='355.19,90.31 355.19,21.99 ' style='stroke-width: 0.39; stroke: #EBEBEB; stroke-linecap: butt;' />
<polyline points='363.97,90.31 363.97,21.99 ' style='stroke-width: 0.39; stroke: #EBEBEB; stroke-linecap: butt;' />
<polyline points='300.96,80.01 366.41,80.01 ' style='stroke-width: 0.78; stroke: #EBEBEB; stroke-linecap: butt;' />
<polyline points='300.96,56.03 366.41,56.03 ' style='stroke-width: 0.78; stroke: #EBEBEB; stroke-linecap: butt;' />
<polyline points='300.96,32.04 366.41,32.04 ' style='stroke-width: 0.78; stroke: #EBEBEB; stroke-linecap: butt;' />
<polyline points='306.90,90.31 306.90,21.99 ' style='stroke-width: 0.78; stroke: #EBEBEB; stroke-linecap: butt;' />
<polyline points='315.68,90.31 315.68,21.99 ' style='stroke-width: 0.78; stroke: #EBEBEB; stroke-linecap: butt;' />
<polyline points='324.46,90.31 324.46,21.99 ' style='stroke-width: 0.78; stroke: #EBEBEB; stroke-linecap: butt;' />
<polyline points='333.24,90.31 333.24,21.99 ' style='stroke-width: 0.78; stroke: #EBEBEB; stroke-linecap: butt;' />
<polyline points='342.02,90.31 342.02,21.99 ' style='stroke-width: 0.78; stroke: #EBEBEB; stroke-linecap: butt;' />
<polyline points='350.80,90.31 350.80,21.99 ' style='stroke-width: 0.78; stroke: #EBEBEB; stroke-linecap: butt;' />
<polyline points='359.58,90.31 359.58,21.99 ' style='stroke-width: 0.78; stroke: #EBEBEB; stroke-linecap: butt;' />
<circle cx='356.35' cy='77.28' r='2.13' style='stroke-width: 0.00; stroke: #444444; stroke-opacity: 0.10; fill: #444444; fill-opacity: 0.10;' />
<circle cx='348.20' cy='84.77' r='2.13' style='stroke-width: 0.00; stroke: #444444; stroke-opacity: 0.10; fill: #444444; fill-opacity: 0.10;' />
<circle cx='356.25' cy='72.87' r='2.13' style='stroke-width: 0.00; stroke: #444444; stroke-opacity: 0.10; fill: #444444; fill-opacity: 0.10;' />
<circle cx='356.98' cy='75.21' r='2.13' style='stroke-width: 0.00; stroke: #444444; stroke-opacity: 0.10; fill: #444444; fill-opacity: 0.10;' />
<circle cx='361.48' cy='73.45' r='2.13' style='stroke-width: 0.00; stroke: #444444; stroke-opacity: 0.10; fill: #444444; fill-opacity: 0.10;' />
<circle cx='352.40' cy='76.32' r='2.13' style='stroke-width: 0.00; stroke: #444444; stroke-opacity: 0.10; fill: #444444; fill-opacity: 0.10;' />
<circle cx='326.71' cy='75.61' r='2.13' style='stroke-width: 0.00; stroke: #444444; stroke-opacity: 0.10; fill: #444444; fill-opacity: 0.10;' />
<circle cx='363.00' cy='75.43' r='2.13' style='stroke-width: 0.00; stroke: #444444; stroke-opacity: 0.10; fill: #444444; fill-opacity: 0.10;' />
<circle cx='341.34' cy='86.93' r='2.13' style='stroke-width: 0.00; stroke: #444444; stroke-opacity: 0.10; fill: #444444; fill-opacity: 0.10;' />
<circle cx='360.13' cy='79.34' r='2.13' style='stroke-width: 0.00; stroke: #444444; stroke-opacity: 0.10; fill: #444444; fill-opacity: 0.10;' />
<circle cx='356.41' cy='81.30' r='2.13' style='stroke-width: 0.00; stroke: #444444; stroke-opacity: 0.10; fill: #444444; fill-opacity: 0.10;' />
<circle cx='333.60' cy='85.80' r='2.13' style='stroke-width: 0.00; stroke: #444444; stroke-opacity: 0.10; fill: #444444; fill-opacity: 0.10;' />
<circle cx='356.93' cy='77.88' r='2.13' style='stroke-width: 0.00; stroke: #444444; stroke-opacity: 0.10; fill: #444444; fill-opacity: 0.10;' />
<circle cx='359.29' cy='77.83' r='2.13' style='stroke-width: 0.00; stroke: #444444; stroke-opacity: 0.10; fill: #444444; fill-opacity: 0.10;' />
<circle cx='362.12' cy='81.73' r='2.13' style='stroke-width: 0.00; stroke: #444444; stroke-opacity: 0.10; fill: #444444; fill-opacity: 0.10;' />
<circle cx='357.10' cy='75.11' r='2.13' style='stroke-width: 0.00; stroke: #444444; stroke-opacity: 0.10; fill: #444444; fill-opacity: 0.10;' />
<circle cx='360.55' cy='78.62' r='2.13' style='stroke-width: 0.00; stroke: #444444; stroke-opacity: 0.10; fill: #444444; fill-opacity: 0.10;' />
<circle cx='363.07' cy='76.55' r='2.13' style='stroke-width: 0.00; stroke: #444444; stroke-opacity: 0.10; fill: #444444; fill-opacity: 0.10;' />
<circle cx='357.93' cy='83.79' r='2.13' style='stroke-width: 0.00; stroke: #444444; stroke-opacity: 0.10; fill: #444444; fill-opacity: 0.10;' />
<circle cx='358.51' cy='85.95' r='2.13' style='stroke-width: 0.00; stroke: #444444; stroke-opacity: 0.10; fill: #444444; fill-opacity: 0.10;' />
<circle cx='356.46' cy='83.69' r='2.13' style='stroke-width: 0.00; stroke: #444444; stroke-opacity: 0.10; fill: #444444; fill-opacity: 0.10;' />
<circle cx='357.35' cy='74.40' r='2.13' style='stroke-width: 0.00; stroke: #444444; stroke-opacity: 0.10; fill: #444444; fill-opacity: 0.10;' />
<circle cx='362.32' cy='79.47' r='2.13' style='stroke-width: 0.00; stroke: #444444; stroke-opacity: 0.10; fill: #444444; fill-opacity: 0.10;' />
<circle cx='353.60' cy='83.61' r='2.13' style='stroke-width: 0.00; stroke: #444444; stroke-opacity: 0.10; fill: #444444; fill-opacity: 0.10;' />
<circle cx='360.53' cy='77.06' r='2.13' style='stroke-width: 0.00; stroke: #444444; stroke-opacity: 0.10; fill: #444444; fill-opacity: 0.10;' />
<circle cx='353.18' cy='78.39' r='2.13' style='stroke-width: 0.00; stroke: #444444; stroke-opacity: 0.10; fill: #444444; fill-opacity: 0.10;' />
<circle cx='359.24' cy='79.82' r='2.13' style='stroke-width: 0.00; stroke: #444444; stroke-opacity: 0.10; fill: #444444; fill-opacity: 0.10;' />
<circle cx='363.27' cy='87.20' r='2.13' style='stroke-width: 0.00; stroke: #444444; stroke-opacity: 0.10; fill: #444444; fill-opacity: 0.10;' />
<circle cx='363.42' cy='75.42' r='2.13' style='stroke-width: 0.00; stroke: #444444; stroke-opacity: 0.10; fill: #444444; fill-opacity: 0.10;' />
<circle cx='359.47' cy='86.70' r='2.13' style='stroke-width: 0.00; stroke: #444444; stroke-opacity: 0.10; fill: #444444; fill-opacity: 0.10;' />
<circle cx='358.48' cy='74.12' r='2.13' style='stroke-width: 0.00; stroke: #444444; stroke-opacity: 0.10; fill: #444444; fill-opacity: 0.10;' />
<circle cx='362.02' cy='83.78' r='2.13' style='stroke-width: 0.00; stroke: #444444; stroke-opacity: 0.10; fill: #444444; fill-opacity: 0.10;' />
<circle cx='341.10' cy='74.61' r='2.13' style='stroke-width: 0.00; stroke: #444444; stroke-opacity: 0.10; fill: #444444; fill-opacity: 0.10;' />
<circle cx='352.10' cy='73.46' r='2.13' style='stroke-width: 0.00; stroke: #444444; stroke-opacity: 0.10; fill: #444444; fill-opacity: 0.10;' />
<circle cx='360.83' cy='77.25' r='2.13' style='stroke-width: 0.00; stroke: #444444; stroke-opacity: 0.10; fill: #444444; fill-opacity: 0.10;' />
<circle cx='353.95' cy='84.27' r='2.13' style='stroke-width: 0.00; stroke: #444444; stroke-opacity: 0.10; fill: #444444; fill-opacity: 0.10;' />
<circle cx='360.66' cy='83.10' r='2.13' style='stroke-width: 0.00; stroke: #444444; stroke-opacity: 0.10; fill: #444444; fill-opacity: 0.10;' />
<circle cx='357.46' cy='81.61' r='2.13' style='stroke-width: 0.00; stroke: #444444; stroke-opacity: 0.10; fill: #444444; fill-opacity: 0.10;' />
<circle cx='350.50' cy='84.27' r='2.13' style='stroke-width: 0.00; stroke: #444444; stroke-opacity: 0.10; fill: #444444; fill-opacity: 0.10;' />
<circle cx='357.43' cy='81.05' r='2.13' style='stroke-width: 0.00; stroke: #444444; stroke-opacity: 0.10; fill: #444444; fill-opacity: 0.10;' />
<circle cx='358.75' cy='75.16' r='2.13' style='stroke-width: 0.00; stroke: #444444; stroke-opacity: 0.10; fill: #444444; fill-opacity: 0.10;' />
<circle cx='358.30' cy='83.37' r='2.13' style='stroke-width: 0.00; stroke: #444444; stroke-opacity: 0.10; fill: #444444; fill-opacity: 0.10;' />
<circle cx='358.53' cy='75.70' r='2.13' style='stroke-width: 0.00; stroke: #444444; stroke-opacity: 0.10; fill: #444444; fill-opacity: 0.10;' />
<circle cx='359.45' cy='72.95' r='2.13' style='stroke-width: 0.00; stroke: #444444; stroke-opacity: 0.10; fill: #444444; fill-opacity: 0.10;' />
<circle cx='357.74' cy='82.48' r='2.13' style='stroke-width: 0.00; stroke: #444444; stroke-opacity: 0.10; fill: #444444; fill-opacity: 0.10;' />
<circle cx='361.32' cy='86.40' r='2.13' style='stroke-width: 0.00; stroke: #444444; stroke-opacity: 0.10; fill: #444444; fill-opacity: 0.10;' />
<circle cx='356.80' cy='78.44' r='2.13' style='stroke-width: 0.00; stroke: #444444; stroke-opacity: 0.10; fill: #444444; fill-opacity: 0.10;' />
<circle cx='361.02' cy='82.57' r='2.13' style='stroke-width: 0.00; stroke: #444444; stroke-opacity: 0.10; fill: #444444; fill-opacity: 0.10;' />
<circle cx='363.44' cy='84.04' r='2.13' style='stroke-width: 0.00; stroke: #444444; stroke-opacity: 0.10; fill: #444444; fill-opacity: 0.10;' />
<circle cx='359.32' cy='80.36' r='2.13' style='stroke-width: 0.00; stroke: #444444; stroke-opacity: 0.10; fill: #444444; fill-opacity: 0.10;' />
<circle cx='356.56' cy='80.18' r='2.13' style='stroke-width: 0.00; stroke: #444444; stroke-opacity: 0.10; fill: #444444; fill-opacity: 0.10;' />
<circle cx='361.41' cy='81.26' r='2.13' style='stroke-width: 0.00; stroke: #444444; stroke-opacity: 0.10; fill: #444444; fill-opacity: 0.10;' />
<circle cx='362.39' cy='85.47' r='2.13' style='stroke-width: 0.00; stroke: #444444; stroke-opacity: 0.10; fill: #444444; fill-opacity: 0.10;' />
<circle cx='352.90' cy='53.39' r='2.13' style='stroke-width: 0.00; stroke: #444444; stroke-opacity: 0.10; fill: #444444; fill-opacity: 0.10;' />
<circle cx='331.96' cy='58.36' r='2.13' style='stroke-width: 0.00; stroke: #444444; stroke-opacity: 0.10; fill: #444444; fill-opacity: 0.10;' />
<circle cx='358.14' cy='60.00' r='2.13' style='stroke-width: 0.00; stroke: #444444; stroke-opacity: 0.10; fill: #444444; fill-opacity: 0.10;' />
<circle cx='353.92' cy='58.48' r='2.13' style='stroke-width: 0.00; stroke: #444444; stroke-opacity: 0.10; fill: #444444; fill-opacity: 0.10;' />
<circle cx='356.58' cy='61.80' r='2.13' style='stroke-width: 0.00; stroke: #444444; stroke-opacity: 0.10; fill: #444444; fill-opacity: 0.10;' />
<circle cx='305.22' cy='61.27' r='2.13' style='stroke-width: 0.00; stroke: #444444; stroke-opacity: 0.10; fill: #444444; fill-opacity: 0.10;' />
<circle cx='327.42' cy='48.95' r='2.13' style='stroke-width: 0.00; stroke: #444444; stroke-opacity: 0.10; fill: #444444; fill-opacity: 0.10;' />
<circle cx='356.17' cy='60.22' r='2.13' style='stroke-width: 0.00; stroke: #444444; stroke-opacity: 0.10; fill: #444444; fill-opacity: 0.10;' />
<circle cx='318.79' cy='51.50' r='2.13' style='stroke-width: 0.00; stroke: #444444; stroke-opacity: 0.10; fill: #444444; fill-opacity: 0.10;' />
<circle cx='320.75' cy='63.05' r='2.13' style='stroke-width: 0.00; stroke: #444444; stroke-opacity: 0.10; fill: #444444; fill-opacity: 0.10;' />
<circle cx='342.39' cy='55.82' r='2.13' style='stroke-width: 0.00; stroke: #444444; stroke-opacity: 0.10; fill: #444444; fill-opacity: 0.10;' />
<circle cx='332.78' cy='55.54' r='2.13' style='stroke-width: 0.00; stroke: #444444; stroke-opacity: 0.10; fill: #444444; fill-opacity: 0.10;' />
<circle cx='344.06' cy='56.49' r='2.13' style='stroke-width: 0.00; stroke: #444444; stroke-opacity: 0.10; fill: #444444; fill-opacity: 0.10;' />
<circle cx='335.08' cy='56.38' r='2.13' style='stroke-width: 0.00; stroke: #444444; stroke-opacity: 0.10; fill: #444444; fill-opacity: 0.10;' />
<circle cx='359.50' cy='49.81' r='2.13' style='stroke-width: 0.00; stroke: #444444; stroke-opacity: 0.10; fill: #444444; fill-opacity: 0.10;' />
<circle cx='320.87' cy='60.78' r='2.13' style='stroke-width: 0.00; stroke: #444444; stroke-opacity: 0.10; fill: #444444; fill-opacity: 0.10;' />
<circle cx='341.18' cy='54.28' r='2.13' style='stroke-width: 0.00; stroke: #444444; stroke-opacity: 0.10; fill: #444444; fill-opacity: 0.10;' />
<circle cx='342.47' cy='54.06' r='2.13' style='stroke-width: 0.00; stroke: #444444; stroke-opacity: 0.10; fill: #444444; fill-opacity: 0.10;' />
<circle cx='351.14' cy='51.31' r='2.13' style='stroke-width: 0.00; stroke: #444444; stroke-opacity: 0.10; fill: #444444; fill-opacity: 0.10;' />
<circle cx='346.98' cy='60.64' r='2.13' style='stroke-width: 0.00; stroke: #444444; stroke-opacity: 0.10; fill: #444444; fill-opacity: 0.10;' />
<circle cx='360.43' cy='54.47' r='2.13' style='stroke-width: 0.00; stroke: #444444; stroke-opacity: 0.10; fill: #444444; fill-opacity: 0.10;' />
<circle cx='359.41' cy='58.39' r='2.13' style='stroke-width: 0.00; stroke: #444444; stroke-opacity: 0.10; fill: #444444; fill-opacity: 0.10;' />
<circle cx='358.56' cy='59.62' r='2.13' style='stroke-width: 0.00; stroke: #444444; stroke-opacity: 0.10; fill: #444444; fill-opacity: 0.10;' />
<circle cx='304.26' cy='57.80' r='2.13' style='stroke-width: 0.00; stroke: #444444; stroke-opacity: 0.10; fill: #444444; fill-opacity: 0.10;' />
<circle cx='350.47' cy='54.17' r='2.13' style='stroke-width: 0.00; stroke: #444444; stroke-opacity: 0.10; fill: #444444; fill-opacity: 0.10;' />
<circle cx='321.88' cy='52.81' r='2.13' style='stroke-width: 0.00; stroke: #444444; stroke-opacity: 0.10; fill: #444444; fill-opacity: 0.10;' />
<circle cx='341.53' cy='58.77' r='2.13' style='stroke-width: 0.00; stroke: #444444; stroke-opacity: 0.10; fill: #444444; fill-opacity: 0.10;' />
<circle cx='326.31' cy='61.55' r='2.13' style='stroke-width: 0.00; stroke: #444444; stroke-opacity: 0.10; fill: #444444; fill-opacity: 0.10;' />
<circle cx='335.23' cy='49.73' r='2.13' style='stroke-width: 0.00; stroke: #444444; stroke-opacity: 0.10; fill: #444444; fill-opacity: 0.10;' />
<circle cx='331.81' cy='60.88' r='2.13' style='stroke-width: 0.00; stroke: #444444; stroke-opacity: 0.10; fill: #444444; fill-opacity: 0.10;' />
<circle cx='362.73' cy='53.85' r='2.13' style='stroke-width: 0.00; stroke: #444444; stroke-opacity: 0.10; fill: #444444; fill-opacity: 0.10;' />
<circle cx='311.88' cy='60.13' r='2.13' style='stroke-width: 0.00; stroke: #444444; stroke-opacity: 0.10; fill: #444444; fill-opacity: 0.10;' />
<circle cx='305.28' cy='56.13' r='2.13' style='stroke-width: 0.00; stroke: #444444; stroke-opacity: 0.10; fill: #444444; fill-opacity: 0.10;' />
<circle cx='306.44' cy='51.77' r='2.13' style='stroke-width: 0.00; stroke: #444444; stroke-opacity: 0.10; fill: #444444; fill-opacity: 0.10;' />
<circle cx='338.13' cy='60.54' r='2.13' style='stroke-width: 0.00; stroke: #444444; stroke-opacity: 0.10; fill: #444444; fill-opacity: 0.10;' />
<circle cx='352.41' cy='62.79' r='2.13' style='stroke-width: 0.00; stroke: #444444; stroke-opacity: 0.10; fill: #444444; fill-opacity: 0.10;' />
<circle cx='331.17' cy='49.47' r='2.13' style='stroke-width: 0.00; stroke: #444444; stroke-opacity: 0.10; fill: #444444; fill-opacity: 0.10;' />
<circle cx='320.73' cy='58.60' r='2.13' style='stroke-width: 0.00; stroke: #444444; stroke-opacity: 0.10; fill: #444444; fill-opacity: 0.10;' />
<circle cx='353.08' cy='60.54' r='2.13' style='stroke-width: 0.00; stroke: #444444; stroke-opacity: 0.10; fill: #444444; fill-opacity: 0.10;' />
<circle cx='362.65' cy='50.71' r='2.13' style='stroke-width: 0.00; stroke: #444444; stroke-opacity: 0.10; fill: #444444; fill-opacity: 0.10;' />
<circle cx='340.49' cy='54.75' r='2.13' style='stroke-width: 0.00; stroke: #444444; stroke-opacity: 0.10; fill: #444444; fill-opacity: 0.10;' />
<circle cx='352.33' cy='51.57' r='2.13' style='stroke-width: 0.00; stroke: #444444; stroke-opacity: 0.10; fill: #444444; fill-opacity: 0.10;' />
<circle cx='332.40' cy='62.84' r='2.13' style='stroke-width: 0.00; stroke: #444444; stroke-opacity: 0.10; fill: #444444; fill-opacity: 0.10;' />
<circle cx='331.22' cy='59.47' r='2.13' style='stroke-width: 0.00; stroke: #444444; stroke-opacity: 0.10; fill: #444444; fill-opacity: 0.10;' />
<circle cx='357.57' cy='63.19' r='2.13' style='stroke-width: 0.00; stroke: #444444; stroke-opacity: 0.10; fill: #444444; fill-opacity: 0.10;' />
<circle cx='326.61' cy='50.15' r='2.13' style='stroke-width: 0.00; stroke: #444444; stroke-opacity: 0.10; fill: #444444; fill-opacity: 0.10;' />
<circle cx='325.93' cy='58.50' r='2.13' style='stroke-width: 0.00; stroke: #444444; stroke-opacity: 0.10; fill: #444444; fill-opacity: 0.10;' />
<circle cx='314.03' cy='62.10' r='2.13' style='stroke-width: 0.00; stroke: #444444; stroke-opacity: 0.10; fill: #444444; fill-opacity: 0.10;' />
<circle cx='358.05' cy='52.13' r='2.13' style='stroke-width: 0.00; stroke: #444444; stroke-opacity: 0.10; fill: #444444; fill-opacity: 0.10;' />
<circle cx='361.35' cy='53.54' r='2.13' style='stroke-width: 0.00; stroke: #444444; stroke-opacity: 0.10; fill: #444444; fill-opacity: 0.10;' />
<circle cx='335.55' cy='62.76' r='2.13' style='stroke-width: 0.00; stroke: #444444; stroke-opacity: 0.10; fill: #444444; fill-opacity: 0.10;' />
<circle cx='303.93' cy='52.94' r='2.13' style='stroke-width: 0.00; stroke: #444444; stroke-opacity: 0.10; fill: #444444; fill-opacity: 0.10;' />
<circle cx='335.15' cy='58.26' r='2.13' style='stroke-width: 0.00; stroke: #444444; stroke-opacity: 0.10; fill: #444444; fill-opacity: 0.10;' />
<circle cx='361.37' cy='59.99' r='2.13' style='stroke-width: 0.00; stroke: #444444; stroke-opacity: 0.10; fill: #444444; fill-opacity: 0.10;' />
<circle cx='327.72' cy='61.92' r='2.13' style='stroke-width: 0.00; stroke: #444444; stroke-opacity: 0.10; fill: #444444; fill-opacity: 0.10;' />
<circle cx='360.56' cy='56.60' r='2.13' style='stroke-width: 0.00; stroke: #444444; stroke-opacity: 0.10; fill: #444444; fill-opacity: 0.10;' />
<circle cx='354.71' cy='51.46' r='2.13' style='stroke-width: 0.00; stroke: #444444; stroke-opacity: 0.10; fill: #444444; fill-opacity: 0.10;' />
<circle cx='331.19' cy='59.42' r='2.13' style='stroke-width: 0.00; stroke: #444444; stroke-opacity: 0.10; fill: #444444; fill-opacity: 0.10;' />
<circle cx='352.72' cy='35.78' r='2.13' style='stroke-width: 0.00; stroke: #444444; stroke-opacity: 0.10; fill: #444444; fill-opacity: 0.10;' />
<circle cx='353.04' cy='39.03' r='2.13' style='stroke-width: 0.00; stroke: #444444; stroke-opacity: 0.10; fill: #444444; fill-opacity: 0.10;' />
<circle cx='358.18' cy='33.05' r='2.13' style='stroke-width: 0.00; stroke: #444444; stroke-opacity: 0.10; fill: #444444; fill-opacity: 0.10;' />
<circle cx='306.42' cy='38.74' r='2.13' style='stroke-width: 0.00; stroke: #444444; stroke-opacity: 0.10; fill: #444444; fill-opacity: 0.10;' />
<circle cx='360.08' cy='36.64' r='2.13' style='stroke-width: 0.00; stroke: #444444; stroke-opacity: 0.10; fill: #444444; fill-opacity: 0.10;' />
<circle cx='353.62' cy='36.26' r='2.13' style='stroke-width: 0.00; stroke: #444444; stroke-opacity: 0.10; fill: #444444; fill-opacity: 0.10;' />
<circle cx='356.34' cy='27.67' r='2.13' style='stroke-width: 0.00; stroke: #444444; stroke-opacity: 0.10; fill: #444444; fill-opacity: 0.10;' />
<circle cx='345.90' cy='37.01' r='2.13' style='stroke-width: 0.00; stroke: #444444; stroke-opacity: 0.10; fill: #444444; fill-opacity: 0.10;' />
<circle cx='360.97' cy='32.57' r='2.13' style='stroke-width: 0.00; stroke: #444444; stroke-opacity: 0.10; fill: #444444; fill-opacity: 0.10;' />
<circle cx='357.39' cy='36.11' r='2.13' style='stroke-width: 0.00; stroke: #444444; stroke-opacity: 0.10; fill: #444444; fill-opacity: 0.10;' />
<circle cx='348.58' cy='27.34' r='2.13' style='stroke-width: 0.00; stroke: #444444; stroke-opacity: 0.10; fill: #444444; fill-opacity: 0.10;' />
<circle cx='356.08' cy='25.48' r='2.13' style='stroke-width: 0.00; stroke: #444444; stroke-opacity: 0.10; fill: #444444; fill-opacity: 0.10;' />
<circle cx='357.89' cy='35.56' r='2.13' style='stroke-width: 0.00; stroke: #444444; stroke-opacity: 0.10; fill: #444444; fill-opacity: 0.10;' />
<circle cx='331.20' cy='38.12' r='2.13' style='stroke-width: 0.00; stroke: #444444; stroke-opacity: 0.10; fill: #444444; fill-opacity: 0.10;' />
<circle cx='362.40' cy='27.79' r='2.13' style='stroke-width: 0.00; stroke: #444444; stroke-opacity: 0.10; fill: #444444; fill-opacity: 0.10;' />
<circle cx='350.68' cy='30.75' r='2.13' style='stroke-width: 0.00; stroke: #444444; stroke-opacity: 0.10; fill: #444444; fill-opacity: 0.10;' />
<circle cx='354.49' cy='30.95' r='2.13' style='stroke-width: 0.00; stroke: #444444; stroke-opacity: 0.10; fill: #444444; fill-opacity: 0.10;' />
<circle cx='340.80' cy='37.62' r='2.13' style='stroke-width: 0.00; stroke: #444444; stroke-opacity: 0.10; fill: #444444; fill-opacity: 0.10;' />
<circle cx='333.57' cy='31.20' r='2.13' style='stroke-width: 0.00; stroke: #444444; stroke-opacity: 0.10; fill: #444444; fill-opacity: 0.10;' />
<circle cx='348.56' cy='29.01' r='2.13' style='stroke-width: 0.00; stroke: #444444; stroke-opacity: 0.10; fill: #444444; fill-opacity: 0.10;' />
<circle cx='349.98' cy='33.12' r='2.13' style='stroke-width: 0.00; stroke: #444444; stroke-opacity: 0.10; fill: #444444; fill-opacity: 0.10;' />
<circle cx='362.83' cy='36.45' r='2.13' style='stroke-width: 0.00; stroke: #444444; stroke-opacity: 0.10; fill: #444444; fill-opacity: 0.10;' />
<circle cx='350.08' cy='31.10' r='2.13' style='stroke-width: 0.00; stroke: #444444; stroke-opacity: 0.10; fill: #444444; fill-opacity: 0.10;' />
<circle cx='350.27' cy='35.89' r='2.13' style='stroke-width: 0.00; stroke: #444444; stroke-opacity: 0.10; fill: #444444; fill-opacity: 0.10;' />
<circle cx='359.96' cy='36.34' r='2.13' style='stroke-width: 0.00; stroke: #444444; stroke-opacity: 0.10; fill: #444444; fill-opacity: 0.10;' />
<circle cx='356.57' cy='36.28' r='2.13' style='stroke-width: 0.00; stroke: #444444; stroke-opacity: 0.10; fill: #444444; fill-opacity: 0.10;' />
<circle cx='360.89' cy='31.87' r='2.13' style='stroke-width: 0.00; stroke: #444444; stroke-opacity: 0.10; fill: #444444; fill-opacity: 0.10;' />
<circle cx='343.49' cy='27.12' r='2.13' style='stroke-width: 0.00; stroke: #444444; stroke-opacity: 0.10; fill: #444444; fill-opacity: 0.10;' />
<circle cx='356.09' cy='37.39' r='2.13' style='stroke-width: 0.00; stroke: #444444; stroke-opacity: 0.10; fill: #444444; fill-opacity: 0.10;' />
<circle cx='361.64' cy='36.69' r='2.13' style='stroke-width: 0.00; stroke: #444444; stroke-opacity: 0.10; fill: #444444; fill-opacity: 0.10;' />
<circle cx='350.95' cy='37.13' r='2.13' style='stroke-width: 0.00; stroke: #444444; stroke-opacity: 0.10; fill: #444444; fill-opacity: 0.10;' />
<circle cx='342.04' cy='33.20' r='2.13' style='stroke-width: 0.00; stroke: #444444; stroke-opacity: 0.10; fill: #444444; fill-opacity: 0.10;' />
<circle cx='353.63' cy='34.35' r='2.13' style='stroke-width: 0.00; stroke: #444444; stroke-opacity: 0.10; fill: #444444; fill-opacity: 0.10;' />
<circle cx='357.59' cy='33.17' r='2.13' style='stroke-width: 0.00; stroke: #444444; stroke-opacity: 0.10; fill: #444444; fill-opacity: 0.10;' />
<circle cx='359.28' cy='30.98' r='2.13' style='stroke-width: 0.00; stroke: #444444; stroke-opacity: 0.10; fill: #444444; fill-opacity: 0.10;' />
<circle cx='347.91' cy='31.24' r='2.13' style='stroke-width: 0.00; stroke: #444444; stroke-opacity: 0.10; fill: #444444; fill-opacity: 0.10;' />
<circle cx='359.15' cy='37.55' r='2.13' style='stroke-width: 0.00; stroke: #444444; stroke-opacity: 0.10; fill: #444444; fill-opacity: 0.10;' />
<circle cx='347.20' cy='26.04' r='2.13' style='stroke-width: 0.00; stroke: #444444; stroke-opacity: 0.10; fill: #444444; fill-opacity: 0.10;' />
<circle cx='356.30' cy='39.15' r='2.13' style='stroke-width: 0.00; stroke: #444444; stroke-opacity: 0.10; fill: #444444; fill-opacity: 0.10;' />
<circle cx='363.29' cy='25.09' r='2.13' style='stroke-width: 0.00; stroke: #444444; stroke-opacity: 0.10; fill: #444444; fill-opacity: 0.10;' />
<circle cx='359.07' cy='38.46' r='2.13' style='stroke-width: 0.00; stroke: #444444; stroke-opacity: 0.10; fill: #444444; fill-opacity: 0.10;' />
<circle cx='343.23' cy='38.86' r='2.13' style='stroke-width: 0.00; stroke: #444444; stroke-opacity: 0.10; fill: #444444; fill-opacity: 0.10;' />
<polygon points='352.50,80.01 356.60,83.61 360.70,80.01 356.60,76.41 352.50,80.01 ' style='stroke-width: 1.07; stroke: #460A54; stroke-linecap: butt; fill: #460A54;' />
<polygon points='329.55,56.03 338.84,59.62 348.13,56.03 338.84,52.43 329.55,56.03 ' style='stroke-width: 1.07; stroke: #514354; stroke-linecap: butt; fill: #514354;' />
<polygon points='345.16,32.04 352.05,35.64 358.95,32.04 352.05,28.44 345.16,32.04 ' style='stroke-width: 1.07; stroke: #491954; stroke-linecap: butt; fill: #491954;' />
<rect x='300.96' y='21.99' width='65.45' height='68.32' style='stroke-width: 0.78; stroke: #333333;' />
</g>
<g clip-path='url(#cpMC4wMHw1MTAuMjR8MC4wMHwxMTMuMTA=)'>
<text x='297.37' y='82.30' text-anchor='end' style='font-size: 6.40px;fill: #4D4D4D; font-family: "Arial";' textLength='10.67px' lengthAdjust='spacingAndGlyphs'>bad</text>
<text x='297.37' y='58.32' text-anchor='end' style='font-size: 6.40px;fill: #4D4D4D; font-family: "Arial";' textLength='31.29px' lengthAdjust='spacingAndGlyphs'>unpleasant</text>
<text x='297.37' y='27.42' text-anchor='end' style='font-size: 6.40px;fill: #4D4D4D; font-family: "Arial";' textLength='73.24px' lengthAdjust='spacingAndGlyphs'>disapprove of me keeping</text>
<text x='297.37' y='34.33' text-anchor='end' style='font-size: 6.40px;fill: #4D4D4D; font-family: "Arial";' textLength='48.00px' lengthAdjust='spacingAndGlyphs'>at least {distRec}</text>
<text x='297.37' y='41.24' text-anchor='end' style='font-size: 6.40px;fill: #4D4D4D; font-family: "Arial";' textLength='57.95px' lengthAdjust='spacingAndGlyphs'>distance from others</text>
<polyline points='298.97,80.01 300.96,80.01 ' style='stroke-width: 0.78; stroke: #333333; stroke-linecap: butt;' />
<polyline points='298.97,56.03 300.96,56.03 ' style='stroke-width: 0.78; stroke: #333333; stroke-linecap: butt;' />
<polyline points='298.97,32.04 300.96,32.04 ' style='stroke-width: 0.78; stroke: #333333; stroke-linecap: butt;' />
<polyline points='368.40,80.01 366.41,80.01 ' style='stroke-width: 0.78; stroke: #333333; stroke-linecap: butt;' />
<polyline points='368.40,56.03 366.41,56.03 ' style='stroke-width: 0.78; stroke: #333333; stroke-linecap: butt;' />
<polyline points='368.40,32.04 366.41,32.04 ' style='stroke-width: 0.78; stroke: #333333; stroke-linecap: butt;' />
<text x='370.00' y='82.30' style='font-size: 6.40px;fill: #4D4D4D; font-family: "Arial";' textLength='14.23px' lengthAdjust='spacingAndGlyphs'>good</text>
<text x='370.00' y='58.32' style='font-size: 6.40px;fill: #4D4D4D; font-family: "Arial";' textLength='24.18px' lengthAdjust='spacingAndGlyphs'>pleasant</text>
<text x='370.00' y='27.42' style='font-size: 6.40px;fill: #4D4D4D; font-family: "Arial";' textLength='72.18px' lengthAdjust='spacingAndGlyphs'>approve of me keeping at</text>
<text x='370.00' y='34.33' style='font-size: 6.40px;fill: #4D4D4D; font-family: "Arial";' textLength='66.48px' lengthAdjust='spacingAndGlyphs'>least {distRec} distance</text>
<text x='370.00' y='41.24' style='font-size: 6.40px;fill: #4D4D4D; font-family: "Arial";' textLength='32.35px' lengthAdjust='spacingAndGlyphs'>from others</text>
<polyline points='306.90,92.30 306.90,90.31 ' style='stroke-width: 0.78; stroke: #333333; stroke-linecap: butt;' />
<polyline points='315.68,92.30 315.68,90.31 ' style='stroke-width: 0.78; stroke: #333333; stroke-linecap: butt;' />
<polyline points='324.46,92.30 324.46,90.31 ' style='stroke-width: 0.78; stroke: #333333; stroke-linecap: butt;' />
<polyline points='333.24,92.30 333.24,90.31 ' style='stroke-width: 0.78; stroke: #333333; stroke-linecap: butt;' />
<polyline points='342.02,92.30 342.02,90.31 ' style='stroke-width: 0.78; stroke: #333333; stroke-linecap: butt;' />
<polyline points='350.80,92.30 350.80,90.31 ' style='stroke-width: 0.78; stroke: #333333; stroke-linecap: butt;' />
<polyline points='359.58,92.30 359.58,90.31 ' style='stroke-width: 0.78; stroke: #333333; stroke-linecap: butt;' />
<text x='306.90' y='98.47' text-anchor='middle' style='font-size: 6.40px;fill: #4D4D4D; font-family: "Arial";' textLength='5.69px' lengthAdjust='spacingAndGlyphs'>-3</text>
<text x='315.68' y='98.47' text-anchor='middle' style='font-size: 6.40px;fill: #4D4D4D; font-family: "Arial";' textLength='5.69px' lengthAdjust='spacingAndGlyphs'>-2</text>
<text x='324.46' y='98.47' text-anchor='middle' style='font-size: 6.40px;fill: #4D4D4D; font-family: "Arial";' textLength='5.69px' lengthAdjust='spacingAndGlyphs'>-1</text>
<text x='333.24' y='98.47' text-anchor='middle' style='font-size: 6.40px;fill: #4D4D4D; font-family: "Arial";' textLength='3.56px' lengthAdjust='spacingAndGlyphs'>0</text>
<text x='342.02' y='98.47' text-anchor='middle' style='font-size: 6.40px;fill: #4D4D4D; font-family: "Arial";' textLength='3.56px' lengthAdjust='spacingAndGlyphs'>1</text>
<text x='350.80' y='98.47' text-anchor='middle' style='font-size: 6.40px;fill: #4D4D4D; font-family: "Arial";' textLength='3.56px' lengthAdjust='spacingAndGlyphs'>2</text>
<text x='359.58' y='98.47' text-anchor='middle' style='font-size: 6.40px;fill: #4D4D4D; font-family: "Arial";' textLength='3.56px' lengthAdjust='spacingAndGlyphs'>3</text>
<text x='333.68' y='107.62' text-anchor='middle' style='font-size: 8.00px; font-family: "Arial";' textLength='84.07px' lengthAdjust='spacingAndGlyphs'>Scores and 99.99% CIs</text>
</g>
<defs>
  <clipPath id='cpMC4wMHwyMjEuNjl8MjEuOTl8OTAuMzE='>
    <rect x='0.00' y='21.99' width='221.69' height='68.32' />
  </clipPath>
</defs>
<g clip-path='url(#cpMC4wMHwyMjEuNjl8MjEuOTl8OTAuMzE=)'>
</g>
<g clip-path='url(#cpMC4wMHw1MTAuMjR8MC4wMHwxMTMuMTA=)'>
<text x='3.59' y='78.95' style='font-size: 8.00px; font-family: "Arial";' textLength='211.72px' lengthAdjust='spacingAndGlyphs'>For me, keeping at least {distRec} distance from others is ...</text>
<text x='3.59' y='87.59' style='font-size: 8.00px; font-family: "Arial";' textLength='83.17px' lengthAdjust='spacingAndGlyphs'>[CIBERliteAttIns_clean]</text>
<text x='3.59' y='54.84' style='font-size: 8.00px; font-family: "Arial";' textLength='211.72px' lengthAdjust='spacingAndGlyphs'>For me, keeping at least {distRec} distance from others is ...</text>
<text x='3.59' y='63.48' style='font-size: 8.00px; font-family: "Arial";' textLength='86.28px' lengthAdjust='spacingAndGlyphs'>[CIBERliteAttExp_clean]</text>
<text x='3.59' y='30.72' style='font-size: 8.00px; font-family: "Arial";' textLength='158.80px' lengthAdjust='spacingAndGlyphs'>Most people whose opinions I value would ...</text>
<text x='3.59' y='39.36' style='font-size: 8.00px; font-family: "Arial";' textLength='80.94px' lengthAdjust='spacingAndGlyphs'>[CIBERlitePnInj_clean]</text>
</g>
<g clip-path='url(#cpMC4wMHwyMjEuNjl8MjEuOTl8OTAuMzE=)'>
</g>
<g clip-path='url(#cpMC4wMHw1MTAuMjR8MC4wMHwxMTMuMTA=)'>
</g>
<defs>
  <clipPath id='cpNDQ0Ljc4fDUxMC4yNHwxOC4wMHwxMTMuMTA='>
    <rect x='444.78' y='18.00' width='65.45' height='95.10' />
  </clipPath>
</defs>
<g clip-path='url(#cpNDQ0Ljc4fDUxMC4yNHwxOC4wMHwxMTMuMTA=)'>
<rect x='444.78' y='18.00' width='65.45' height='95.10' style='stroke-width: 0.78; stroke: #FFFFFF; fill: #FFFFFF;' />
</g>
<defs>
  <clipPath id='cpNDQ4Ljc3fDUwNi4yNXwyMS45OXw5MC4zMQ=='>
    <rect x='448.77' y='21.99' width='57.48' height='68.32' />
  </clipPath>
</defs>
<g clip-path='url(#cpNDQ4Ljc3fDUwNi4yNXwyMS45OXw5MC4zMQ==)'>
<rect x='448.77' y='21.99' width='57.48' height='68.32' style='stroke-width: 0.78; stroke: none; fill: #FFFFFF;' />
<polyline points='457.91,90.31 457.91,21.99 ' style='stroke-width: 0.39; stroke: #EBEBEB; stroke-linecap: butt;' />
<polyline points='470.98,90.31 470.98,21.99 ' style='stroke-width: 0.39; stroke: #EBEBEB; stroke-linecap: butt;' />
<polyline points='484.04,90.31 484.04,21.99 ' style='stroke-width: 0.39; stroke: #EBEBEB; stroke-linecap: butt;' />
<polyline points='497.11,90.31 497.11,21.99 ' style='stroke-width: 0.39; stroke: #EBEBEB; stroke-linecap: butt;' />
<polyline points='451.38,90.31 451.38,21.99 ' style='stroke-width: 0.78; stroke: #EBEBEB; stroke-linecap: butt;' />
<polyline points='464.45,90.31 464.45,21.99 ' style='stroke-width: 0.78; stroke: #EBEBEB; stroke-linecap: butt;' />
<polyline points='477.51,90.31 477.51,21.99 ' style='stroke-width: 0.78; stroke: #EBEBEB; stroke-linecap: butt;' />
<polyline points='490.57,90.31 490.57,21.99 ' style='stroke-width: 0.78; stroke: #EBEBEB; stroke-linecap: butt;' />
<polyline points='503.64,90.31 503.64,21.99 ' style='stroke-width: 0.78; stroke: #EBEBEB; stroke-linecap: butt;' />
<line x1='464.45' y1='90.31' x2='464.45' y2='21.99' style='stroke-width: 1.07; stroke: #BEBEBE; stroke-linecap: butt;' />
<line x1='477.51' y1='90.31' x2='477.51' y2='21.99' style='stroke-width: 1.07; stroke: #BEBEBE; stroke-linecap: butt;' />
<line x1='490.57' y1='90.31' x2='490.57' y2='21.99' style='stroke-width: 1.07; stroke: #BEBEBE; stroke-linecap: butt;' />
<polygon points='470.53,83.15 477.60,87.20 484.65,83.15 477.60,79.10 470.53,83.15 ' style='stroke-width: 2.13; stroke-linecap: butt; fill: #555455; fill-opacity: 0.50;' />
<polygon points='483.65,56.15 489.66,60.20 494.38,56.15 489.66,52.10 483.65,56.15 ' style='stroke-width: 2.13; stroke-linecap: butt; fill: #4D2E54; fill-opacity: 0.50;' />
<polygon points='483.59,29.14 490.60,33.19 495.76,29.14 490.60,25.09 483.59,29.14 ' style='stroke-width: 2.13; stroke-linecap: butt; fill: #4C2B54; fill-opacity: 0.50;' />
<rect x='448.77' y='21.99' width='57.48' height='68.32' style='stroke-width: 0.78; stroke: #333333;' />
</g>
<g clip-path='url(#cpNDQ0Ljc4fDUxMC4yNHwxOC4wMHwxMTMuMTA=)'>
</g>
<g clip-path='url(#cpMC4wMHw1MTAuMjR8MC4wMHwxMTMuMTA=)'>
</g>
<g clip-path='url(#cpNDQ0Ljc4fDUxMC4yNHwxOC4wMHwxMTMuMTA=)'>
</g>
<g clip-path='url(#cpMC4wMHw1MTAuMjR8MC4wMHwxMTMuMTA=)'>
</g>
<g clip-path='url(#cpNDQ0Ljc4fDUxMC4yNHwxOC4wMHwxMTMuMTA=)'>
</g>
<g clip-path='url(#cpMC4wMHw1MTAuMjR8MC4wMHwxMTMuMTA=)'>
</g>
<g clip-path='url(#cpNDQ0Ljc4fDUxMC4yNHwxOC4wMHwxMTMuMTA=)'>
</g>
<g clip-path='url(#cpMC4wMHw1MTAuMjR8MC4wMHwxMTMuMTA=)'>
</g>
<g clip-path='url(#cpNDQ0Ljc4fDUxMC4yNHwxOC4wMHwxMTMuMTA=)'>
</g>
<g clip-path='url(#cpMC4wMHw1MTAuMjR8MC4wMHwxMTMuMTA=)'>
</g>
<g clip-path='url(#cpNDQ0Ljc4fDUxMC4yNHwxOC4wMHwxMTMuMTA=)'>
</g>
<g clip-path='url(#cpMC4wMHw1MTAuMjR8MC4wMHwxMTMuMTA=)'>
</g>
<g clip-path='url(#cpNDQ0Ljc4fDUxMC4yNHwxOC4wMHwxMTMuMTA=)'>
</g>
<g clip-path='url(#cpMC4wMHw1MTAuMjR8MC4wMHwxMTMuMTA=)'>
</g>
<g clip-path='url(#cpNDQ0Ljc4fDUxMC4yNHwxOC4wMHwxMTMuMTA=)'>
</g>
<g clip-path='url(#cpMC4wMHw1MTAuMjR8MC4wMHwxMTMuMTA=)'>
<polyline points='451.38,92.30 451.38,90.31 ' style='stroke-width: 0.78; stroke: #333333; stroke-linecap: butt;' />
<polyline points='464.45,92.30 464.45,90.31 ' style='stroke-width: 0.78; stroke: #333333; stroke-linecap: butt;' />
<polyline points='477.51,92.30 477.51,90.31 ' style='stroke-width: 0.78; stroke: #333333; stroke-linecap: butt;' />
<polyline points='490.57,92.30 490.57,90.31 ' style='stroke-width: 0.78; stroke: #333333; stroke-linecap: butt;' />
<polyline points='503.64,92.30 503.64,90.31 ' style='stroke-width: 0.78; stroke: #333333; stroke-linecap: butt;' />
<text x='451.38' y='98.47' text-anchor='middle' style='font-size: 6.40px;fill: #4D4D4D; font-family: "Arial";' textLength='11.02px' lengthAdjust='spacingAndGlyphs'>-1.0</text>
<text x='464.45' y='98.47' text-anchor='middle' style='font-size: 6.40px;fill: #4D4D4D; font-family: "Arial";' textLength='11.02px' lengthAdjust='spacingAndGlyphs'>-0.5</text>
<text x='477.51' y='98.47' text-anchor='middle' style='font-size: 6.40px;fill: #4D4D4D; font-family: "Arial";' textLength='8.89px' lengthAdjust='spacingAndGlyphs'>0.0</text>
<text x='490.57' y='98.47' text-anchor='middle' style='font-size: 6.40px;fill: #4D4D4D; font-family: "Arial";' textLength='8.89px' lengthAdjust='spacingAndGlyphs'>0.5</text>
<text x='503.64' y='98.47' text-anchor='middle' style='font-size: 6.40px;fill: #4D4D4D; font-family: "Arial";' textLength='8.89px' lengthAdjust='spacingAndGlyphs'>1.0</text>
</g>
<g clip-path='url(#cpNDQ0Ljc4fDUxMC4yNHwxOC4wMHwxMTMuMTA=)'>
</g>
<g clip-path='url(#cpMC4wMHw1MTAuMjR8MC4wMHwxMTMuMTA=)'>
</g>
<g clip-path='url(#cpNDQ0Ljc4fDUxMC4yNHwxOC4wMHwxMTMuMTA=)'>
</g>
<g clip-path='url(#cpMC4wMHw1MTAuMjR8MC4wMHwxMTMuMTA=)'>
<text x='477.51' y='107.62' text-anchor='middle' style='font-size: 8.00px; font-family: "Arial";' textLength='85.41px' lengthAdjust='spacingAndGlyphs'>95% CIs of associations</text>
</g>
<g clip-path='url(#cpNDQ0Ljc4fDUxMC4yNHwxOC4wMHwxMTMuMTA=)'>
</g>
<g clip-path='url(#cpMC4wMHw1MTAuMjR8MC4wMHwxMTMuMTA=)'>
</g>
<g clip-path='url(#cpNDQ0Ljc4fDUxMC4yNHwxOC4wMHwxMTMuMTA=)'>
</g>
<g clip-path='url(#cpMC4wMHw1MTAuMjR8MC4wMHwxMTMuMTA=)'>
</g>
<g clip-path='url(#cpNDQ0Ljc4fDUxMC4yNHwxOC4wMHwxMTMuMTA=)'>
</g>
<g clip-path='url(#cpMC4wMHw1MTAuMjR8MC4wMHwxMTMuMTA=)'>
</g>
<g clip-path='url(#cpNDQ0Ljc4fDUxMC4yNHwxOC4wMHwxMTMuMTA=)'>
</g>
<g clip-path='url(#cpMC4wMHw1MTAuMjR8MC4wMHwxMTMuMTA=)'>
</g>
<g clip-path='url(#cpNDQ0Ljc4fDUxMC4yNHwxOC4wMHwxMTMuMTA=)'>
</g>
<g clip-path='url(#cpMC4wMHw1MTAuMjR8MC4wMHwxMTMuMTA=)'>
</g>
<g clip-path='url(#cpNDQ0Ljc4fDUxMC4yNHwxOC4wMHwxMTMuMTA=)'>
</g>
<g clip-path='url(#cpMC4wMHw1MTAuMjR8MC4wMHwxMTMuMTA=)'>
</g>
<g clip-path='url(#cpNDQ0Ljc4fDUxMC4yNHwxOC4wMHwxMTMuMTA=)'>
</g>
<g clip-path='url(#cpMC4wMHw1MTAuMjR8MC4wMHwxMTMuMTA=)'>
</g>
<g clip-path='url(#cpNDQ0Ljc4fDUxMC4yNHwxOC4wMHwxMTMuMTA=)'>
</g>
<g clip-path='url(#cpMC4wMHw1MTAuMjR8MC4wMHwxMTMuMTA=)'>
</g>
<g clip-path='url(#cpNDQ0Ljc4fDUxMC4yNHwxOC4wMHwxMTMuMTA=)'>
</g>
<g clip-path='url(#cpMC4wMHw1MTAuMjR8MC4wMHwxMTMuMTA=)'>
</g>
<g clip-path='url(#cpNDQ0Ljc4fDUxMC4yNHwxOC4wMHwxMTMuMTA=)'>
</g>
<g clip-path='url(#cpMC4wMHw1MTAuMjR8MC4wMHwxMTMuMTA=)'>
</g>
<g clip-path='url(#cpNDQ0Ljc4fDUxMC4yNHwxOC4wMHwxMTMuMTA=)'>
</g>
<g clip-path='url(#cpMC4wMHw1MTAuMjR8MC4wMHwxMTMuMTA=)'>
<text x='2.30' y='8.78' style='font-size: 9.60px; font-weight: bold; font-family: "Arial";' textLength='147.66px' lengthAdjust='spacingAndGlyphs'>Means and associations (r) with </text>
<text x='149.96' y='8.78' style='font-size: 9.60px; font-weight: bold; font-family: "Arial";' textLength='43.17px' lengthAdjust='spacingAndGlyphs'>proximity</text>
<text x='193.13' y='8.78' style='font-size: 9.60px; font-weight: bold; font-family: "Arial";' textLength='2.66px' lengthAdjust='spacingAndGlyphs'> </text>
</g>
</svg>
