<?xml version='1.0' encoding='UTF-8' ?>
<svg xmlns='http://www.w3.org/2000/svg' xmlns:xlink='http://www.w3.org/1999/xlink' class='svglite' width='510.24pt' height='68.46pt' viewBox='0 0 510.24 68.46'>
<defs>
  <style type='text/css'><![CDATA[
    .svglite line, .svglite polyline, .svglite polygon, .svglite path, .svglite rect, .svglite circle {
      fill: none;
      stroke: #000000;
      stroke-linecap: round;
      stroke-linejoin: round;
      stroke-miterlimit: 10.00;
    }
    .svglite text {
      white-space: pre;
    }
  ]]></style>
</defs>
<rect width='100%' height='100%' style='stroke: none; fill: none;'/>
<defs>
  <clipPath id='cpMC4wMHw1MTAuMjR8MC4wMHw2OC40Ng=='>
    <rect x='0.00' y='0.00' width='510.24' height='68.46' />
  </clipPath>
</defs>
<g clip-path='url(#cpMC4wMHw1MTAuMjR8MC4wMHw2OC40Ng==)'>
</g>
<defs>
  <clipPath id='cpODIuNzl8MzM0Ljk4fDE4LjAwfDY4LjQ2'>
    <rect x='82.79' y='18.00' width='252.20' height='50.46' />
  </clipPath>
</defs>
<g clip-path='url(#cpODIuNzl8MzM0Ljk4fDE4LjAwfDY4LjQ2)'>
<rect x='82.79' y='18.00' width='252.20' height='50.46' style='stroke-width: 0.78; stroke: #FFFFFF; fill: #FFFFFF;' />
</g>
<g clip-path='url(#cpMC4wMHw1MTAuMjR8MC4wMHw2OC40Ng==)'>
</g>
<defs>
  <clipPath id='cpMTIzLjA2fDI5OC4zMXwyMS45OXw0NS42Ng=='>
    <rect x='123.06' y='21.99' width='175.25' height='23.68' />
  </clipPath>
</defs>
<g clip-path='url(#cpMTIzLjA2fDI5OC4zMXwyMS45OXw0NS42Ng==)'>
<rect x='123.06' y='21.99' width='175.25' height='23.68' style='stroke-width: 0.78; stroke: none; fill: #FFFFFF;' />
<polyline points='128.62,45.66 128.62,21.99 ' style='stroke-width: 0.39; stroke: #EBEBEB; stroke-linecap: butt;' />
<polyline points='164.26,45.66 164.26,21.99 ' style='stroke-width: 0.39; stroke: #EBEBEB; stroke-linecap: butt;' />
<polyline points='199.90,45.66 199.90,21.99 ' style='stroke-width: 0.39; stroke: #EBEBEB; stroke-linecap: butt;' />
<polyline points='235.54,45.66 235.54,21.99 ' style='stroke-width: 0.39; stroke: #EBEBEB; stroke-linecap: butt;' />
<polyline points='271.18,45.66 271.18,21.99 ' style='stroke-width: 0.39; stroke: #EBEBEB; stroke-linecap: butt;' />
<polyline points='123.06,33.78 298.31,33.78 ' style='stroke-width: 0.78; stroke: #EBEBEB; stroke-linecap: butt;' />
<polyline points='146.44,45.66 146.44,21.99 ' style='stroke-width: 0.78; stroke: #EBEBEB; stroke-linecap: butt;' />
<polyline points='182.08,45.66 182.08,21.99 ' style='stroke-width: 0.78; stroke: #EBEBEB; stroke-linecap: butt;' />
<polyline points='217.72,45.66 217.72,21.99 ' style='stroke-width: 0.78; stroke: #EBEBEB; stroke-linecap: butt;' />
<polyline points='253.36,45.66 253.36,21.99 ' style='stroke-width: 0.78; stroke: #EBEBEB; stroke-linecap: butt;' />
<polyline points='289.00,45.66 289.00,21.99 ' style='stroke-width: 0.78; stroke: #EBEBEB; stroke-linecap: butt;' />
<circle cx='152.56' cy='26.91' r='2.13' style='stroke-width: 0.00; stroke: #444444; stroke-opacity: 0.10; fill: #444444; fill-opacity: 0.10;' />
<circle cx='262.26' cy='41.13' r='2.13' style='stroke-width: 0.00; stroke: #444444; stroke-opacity: 0.10; fill: #444444; fill-opacity: 0.10;' />
<circle cx='223.33' cy='30.40' r='2.13' style='stroke-width: 0.00; stroke: #444444; stroke-opacity: 0.10; fill: #444444; fill-opacity: 0.10;' />
<circle cx='190.48' cy='30.79' r='2.13' style='stroke-width: 0.00; stroke: #444444; stroke-opacity: 0.10; fill: #444444; fill-opacity: 0.10;' />
<circle cx='141.31' cy='39.98' r='2.13' style='stroke-width: 0.00; stroke: #444444; stroke-opacity: 0.10; fill: #444444; fill-opacity: 0.10;' />
<circle cx='138.08' cy='35.62' r='2.13' style='stroke-width: 0.00; stroke: #444444; stroke-opacity: 0.10; fill: #444444; fill-opacity: 0.10;' />
<circle cx='283.62' cy='26.25' r='2.13' style='stroke-width: 0.00; stroke: #444444; stroke-opacity: 0.10; fill: #444444; fill-opacity: 0.10;' />
<circle cx='131.64' cy='36.07' r='2.13' style='stroke-width: 0.00; stroke: #444444; stroke-opacity: 0.10; fill: #444444; fill-opacity: 0.10;' />
<circle cx='173.02' cy='24.95' r='2.13' style='stroke-width: 0.00; stroke: #444444; stroke-opacity: 0.10; fill: #444444; fill-opacity: 0.10;' />
<circle cx='166.04' cy='34.43' r='2.13' style='stroke-width: 0.00; stroke: #444444; stroke-opacity: 0.10; fill: #444444; fill-opacity: 0.10;' />
<circle cx='172.09' cy='31.21' r='2.13' style='stroke-width: 0.00; stroke: #444444; stroke-opacity: 0.10; fill: #444444; fill-opacity: 0.10;' />
<circle cx='176.42' cy='23.11' r='2.13' style='stroke-width: 0.00; stroke: #444444; stroke-opacity: 0.10; fill: #444444; fill-opacity: 0.10;' />
<circle cx='216.08' cy='43.15' r='2.13' style='stroke-width: 0.00; stroke: #444444; stroke-opacity: 0.10; fill: #444444; fill-opacity: 0.10;' />
<circle cx='265.78' cy='37.67' r='2.13' style='stroke-width: 0.00; stroke: #444444; stroke-opacity: 0.10; fill: #444444; fill-opacity: 0.10;' />
<circle cx='290.35' cy='28.04' r='2.13' style='stroke-width: 0.00; stroke: #444444; stroke-opacity: 0.10; fill: #444444; fill-opacity: 0.10;' />
<circle cx='141.19' cy='29.82' r='2.13' style='stroke-width: 0.00; stroke: #444444; stroke-opacity: 0.10; fill: #444444; fill-opacity: 0.10;' />
<circle cx='147.23' cy='28.27' r='2.13' style='stroke-width: 0.00; stroke: #444444; stroke-opacity: 0.10; fill: #444444; fill-opacity: 0.10;' />
<circle cx='226.71' cy='34.08' r='2.13' style='stroke-width: 0.00; stroke: #444444; stroke-opacity: 0.10; fill: #444444; fill-opacity: 0.10;' />
<circle cx='153.88' cy='32.90' r='2.13' style='stroke-width: 0.00; stroke: #444444; stroke-opacity: 0.10; fill: #444444; fill-opacity: 0.10;' />
<circle cx='276.81' cy='36.51' r='2.13' style='stroke-width: 0.00; stroke: #444444; stroke-opacity: 0.10; fill: #444444; fill-opacity: 0.10;' />
<circle cx='142.45' cy='39.15' r='2.13' style='stroke-width: 0.00; stroke: #444444; stroke-opacity: 0.10; fill: #444444; fill-opacity: 0.10;' />
<circle cx='146.52' cy='42.80' r='2.13' style='stroke-width: 0.00; stroke: #444444; stroke-opacity: 0.10; fill: #444444; fill-opacity: 0.10;' />
<circle cx='144.03' cy='37.52' r='2.13' style='stroke-width: 0.00; stroke: #444444; stroke-opacity: 0.10; fill: #444444; fill-opacity: 0.10;' />
<circle cx='161.38' cy='39.24' r='2.13' style='stroke-width: 0.00; stroke: #444444; stroke-opacity: 0.10; fill: #444444; fill-opacity: 0.10;' />
<circle cx='232.66' cy='28.64' r='2.13' style='stroke-width: 0.00; stroke: #444444; stroke-opacity: 0.10; fill: #444444; fill-opacity: 0.10;' />
<circle cx='141.90' cy='23.73' r='2.13' style='stroke-width: 0.00; stroke: #444444; stroke-opacity: 0.10; fill: #444444; fill-opacity: 0.10;' />
<circle cx='131.02' cy='28.35' r='2.13' style='stroke-width: 0.00; stroke: #444444; stroke-opacity: 0.10; fill: #444444; fill-opacity: 0.10;' />
<circle cx='136.29' cy='26.54' r='2.13' style='stroke-width: 0.00; stroke: #444444; stroke-opacity: 0.10; fill: #444444; fill-opacity: 0.10;' />
<circle cx='144.75' cy='29.68' r='2.13' style='stroke-width: 0.00; stroke: #444444; stroke-opacity: 0.10; fill: #444444; fill-opacity: 0.10;' />
<circle cx='138.40' cy='23.06' r='2.13' style='stroke-width: 0.00; stroke: #444444; stroke-opacity: 0.10; fill: #444444; fill-opacity: 0.10;' />
<circle cx='152.06' cy='32.39' r='2.13' style='stroke-width: 0.00; stroke: #444444; stroke-opacity: 0.10; fill: #444444; fill-opacity: 0.10;' />
<circle cx='210.42' cy='26.35' r='2.13' style='stroke-width: 0.00; stroke: #444444; stroke-opacity: 0.10; fill: #444444; fill-opacity: 0.10;' />
<circle cx='168.49' cy='37.13' r='2.13' style='stroke-width: 0.00; stroke: #444444; stroke-opacity: 0.10; fill: #444444; fill-opacity: 0.10;' />
<circle cx='144.21' cy='24.47' r='2.13' style='stroke-width: 0.00; stroke: #444444; stroke-opacity: 0.10; fill: #444444; fill-opacity: 0.10;' />
<circle cx='135.51' cy='42.18' r='2.13' style='stroke-width: 0.00; stroke: #444444; stroke-opacity: 0.10; fill: #444444; fill-opacity: 0.10;' />
<circle cx='260.52' cy='23.16' r='2.13' style='stroke-width: 0.00; stroke: #444444; stroke-opacity: 0.10; fill: #444444; fill-opacity: 0.10;' />
<circle cx='160.08' cy='28.67' r='2.13' style='stroke-width: 0.00; stroke: #444444; stroke-opacity: 0.10; fill: #444444; fill-opacity: 0.10;' />
<circle cx='140.28' cy='36.54' r='2.13' style='stroke-width: 0.00; stroke: #444444; stroke-opacity: 0.10; fill: #444444; fill-opacity: 0.10;' />
<circle cx='227.50' cy='35.90' r='2.13' style='stroke-width: 0.00; stroke: #444444; stroke-opacity: 0.10; fill: #444444; fill-opacity: 0.10;' />
<circle cx='147.27' cy='37.17' r='2.13' style='stroke-width: 0.00; stroke: #444444; stroke-opacity: 0.10; fill: #444444; fill-opacity: 0.10;' />
<circle cx='197.15' cy='37.44' r='2.13' style='stroke-width: 0.00; stroke: #444444; stroke-opacity: 0.10; fill: #444444; fill-opacity: 0.10;' />
<circle cx='135.11' cy='41.63' r='2.13' style='stroke-width: 0.00; stroke: #444444; stroke-opacity: 0.10; fill: #444444; fill-opacity: 0.10;' />
<circle cx='146.90' cy='38.95' r='2.13' style='stroke-width: 0.00; stroke: #444444; stroke-opacity: 0.10; fill: #444444; fill-opacity: 0.10;' />
<circle cx='211.92' cy='44.59' r='2.13' style='stroke-width: 0.00; stroke: #444444; stroke-opacity: 0.10; fill: #444444; fill-opacity: 0.10;' />
<polygon points='151.08,33.78 180.46,39.45 209.84,33.78 180.46,28.11 151.08,33.78 ' style='stroke-width: 1.07; stroke: #524455; stroke-linecap: butt; fill: #524455;' />
<rect x='123.06' y='21.99' width='175.25' height='23.68' style='stroke-width: 0.78; stroke: #333333;' />
</g>
<g clip-path='url(#cpMC4wMHw1MTAuMjR8MC4wMHw2OC40Ng==)'>
<text x='119.47' y='36.07' text-anchor='end' style='font-size: 6.40px;fill: #4D4D4D; font-family: "Arial";' textLength='33.41px' lengthAdjust='spacingAndGlyphs'>very normal</text>
<polyline points='121.07,33.78 123.06,33.78 ' style='stroke-width: 0.78; stroke: #333333; stroke-linecap: butt;' />
<polyline points='300.30,33.78 298.31,33.78 ' style='stroke-width: 0.78; stroke: #333333; stroke-linecap: butt;' />
<text x='301.90' y='36.07' style='font-size: 6.40px;fill: #4D4D4D; font-family: "Arial";' textLength='29.14px' lengthAdjust='spacingAndGlyphs'>very weird</text>
<polyline points='146.44,47.65 146.44,45.66 ' style='stroke-width: 0.78; stroke: #333333; stroke-linecap: butt;' />
<polyline points='182.08,47.65 182.08,45.66 ' style='stroke-width: 0.78; stroke: #333333; stroke-linecap: butt;' />
<polyline points='217.72,47.65 217.72,45.66 ' style='stroke-width: 0.78; stroke: #333333; stroke-linecap: butt;' />
<polyline points='253.36,47.65 253.36,45.66 ' style='stroke-width: 0.78; stroke: #333333; stroke-linecap: butt;' />
<polyline points='289.00,47.65 289.00,45.66 ' style='stroke-width: 0.78; stroke: #333333; stroke-linecap: butt;' />
<text x='146.44' y='53.83' text-anchor='middle' style='font-size: 6.40px;fill: #4D4D4D; font-family: "Arial";' textLength='3.56px' lengthAdjust='spacingAndGlyphs'>1</text>
<text x='182.08' y='53.83' text-anchor='middle' style='font-size: 6.40px;fill: #4D4D4D; font-family: "Arial";' textLength='3.56px' lengthAdjust='spacingAndGlyphs'>2</text>
<text x='217.72' y='53.83' text-anchor='middle' style='font-size: 6.40px;fill: #4D4D4D; font-family: "Arial";' textLength='3.56px' lengthAdjust='spacingAndGlyphs'>3</text>
<text x='253.36' y='53.83' text-anchor='middle' style='font-size: 6.40px;fill: #4D4D4D; font-family: "Arial";' textLength='3.56px' lengthAdjust='spacingAndGlyphs'>4</text>
<text x='289.00' y='53.83' text-anchor='middle' style='font-size: 6.40px;fill: #4D4D4D; font-family: "Arial";' textLength='3.56px' lengthAdjust='spacingAndGlyphs'>5</text>
<text x='210.68' y='62.97' text-anchor='middle' style='font-size: 8.00px; font-family: "Arial";' textLength='84.07px' lengthAdjust='spacingAndGlyphs'>Scores and 99.99% CIs</text>
</g>
<defs>
  <clipPath id='cpMC4wMHw4Mi43OXwyMS45OXw0NS42Ng=='>
    <rect x='0.00' y='21.99' width='82.79' height='23.68' />
  </clipPath>
</defs>
<g clip-path='url(#cpMC4wMHw4Mi43OXwyMS45OXw0NS42Ng==)'>
</g>
<g clip-path='url(#cpMC4wMHw1MTAuMjR8MC4wMHw2OC40Ng==)'>
<text x='3.59' y='32.17' style='font-size: 8.00px; font-family: "Arial";' textLength='60.06px' lengthAdjust='spacingAndGlyphs'>I prefer feeling ...</text>
<text x='3.59' y='40.81' style='font-size: 8.00px; font-family: "Arial";' textLength='77.24px' lengthAdjust='spacingAndGlyphs'>[AttExEvWeird_clean]</text>
</g>
<g clip-path='url(#cpMC4wMHw4Mi43OXwyMS45OXw0NS42Ng==)'>
</g>
<g clip-path='url(#cpMC4wMHw1MTAuMjR8MC4wMHw2OC40Ng==)'>
</g>
<defs>
  <clipPath id='cpMzM0Ljk4fDUxMC4yNHwxOC4wMHw2OC40Ng=='>
    <rect x='334.98' y='18.00' width='175.25' height='50.46' />
  </clipPath>
</defs>
<g clip-path='url(#cpMzM0Ljk4fDUxMC4yNHwxOC4wMHw2OC40Ng==)'>
<rect x='334.98' y='18.00' width='175.25' height='50.46' style='stroke-width: 0.78; stroke: #FFFFFF; fill: #FFFFFF;' />
</g>
<defs>
  <clipPath id='cpMzM4Ljk3fDUwNi4yNXwyMS45OXw0NS42Ng=='>
    <rect x='338.97' y='21.99' width='167.28' height='23.68' />
  </clipPath>
</defs>
<g clip-path='url(#cpMzM4Ljk3fDUwNi4yNXwyMS45OXw0NS42Ng==)'>
<rect x='338.97' y='21.99' width='167.28' height='23.68' style='stroke-width: 0.78; stroke: none; fill: #FFFFFF;' />
<polyline points='365.58,45.66 365.58,21.99 ' style='stroke-width: 0.39; stroke: #EBEBEB; stroke-linecap: butt;' />
<polyline points='403.60,45.66 403.60,21.99 ' style='stroke-width: 0.39; stroke: #EBEBEB; stroke-linecap: butt;' />
<polyline points='441.62,45.66 441.62,21.99 ' style='stroke-width: 0.39; stroke: #EBEBEB; stroke-linecap: butt;' />
<polyline points='479.64,45.66 479.64,21.99 ' style='stroke-width: 0.39; stroke: #EBEBEB; stroke-linecap: butt;' />
<polyline points='346.57,45.66 346.57,21.99 ' style='stroke-width: 0.78; stroke: #EBEBEB; stroke-linecap: butt;' />
<polyline points='384.59,45.66 384.59,21.99 ' style='stroke-width: 0.78; stroke: #EBEBEB; stroke-linecap: butt;' />
<polyline points='422.61,45.66 422.61,21.99 ' style='stroke-width: 0.78; stroke: #EBEBEB; stroke-linecap: butt;' />
<polyline points='460.63,45.66 460.63,21.99 ' style='stroke-width: 0.78; stroke: #EBEBEB; stroke-linecap: butt;' />
<polyline points='498.65,45.66 498.65,21.99 ' style='stroke-width: 0.78; stroke: #EBEBEB; stroke-linecap: butt;' />
<line x1='384.59' y1='45.66' x2='384.59' y2='21.99' style='stroke-width: 1.07; stroke: #BEBEBE; stroke-linecap: butt;' />
<line x1='422.61' y1='45.66' x2='422.61' y2='21.99' style='stroke-width: 1.07; stroke: #BEBEBE; stroke-linecap: butt;' />
<line x1='460.63' y1='45.66' x2='460.63' y2='21.99' style='stroke-width: 1.07; stroke: #BEBEBE; stroke-linecap: butt;' />
<polygon points='399.42,33.82 422.22,44.59 445.10,33.82 422.22,23.06 399.42,33.82 ' style='stroke-width: 2.13; stroke-linecap: butt; fill: #545555; fill-opacity: 0.50;' />
<rect x='338.97' y='21.99' width='167.28' height='23.68' style='stroke-width: 0.78; stroke: #333333;' />
</g>
<g clip-path='url(#cpMzM0Ljk4fDUxMC4yNHwxOC4wMHw2OC40Ng==)'>
</g>
<g clip-path='url(#cpMC4wMHw1MTAuMjR8MC4wMHw2OC40Ng==)'>
</g>
<g clip-path='url(#cpMzM0Ljk4fDUxMC4yNHwxOC4wMHw2OC40Ng==)'>
</g>
<g clip-path='url(#cpMC4wMHw1MTAuMjR8MC4wMHw2OC40Ng==)'>
</g>
<g clip-path='url(#cpMzM0Ljk4fDUxMC4yNHwxOC4wMHw2OC40Ng==)'>
</g>
<g clip-path='url(#cpMC4wMHw1MTAuMjR8MC4wMHw2OC40Ng==)'>
</g>
<g clip-path='url(#cpMzM0Ljk4fDUxMC4yNHwxOC4wMHw2OC40Ng==)'>
</g>
<g clip-path='url(#cpMC4wMHw1MTAuMjR8MC4wMHw2OC40Ng==)'>
</g>
<g clip-path='url(#cpMzM0Ljk4fDUxMC4yNHwxOC4wMHw2OC40Ng==)'>
</g>
<g clip-path='url(#cpMC4wMHw1MTAuMjR8MC4wMHw2OC40Ng==)'>
</g>
<g clip-path='url(#cpMzM0Ljk4fDUxMC4yNHwxOC4wMHw2OC40Ng==)'>
</g>
<g clip-path='url(#cpMC4wMHw1MTAuMjR8MC4wMHw2OC40Ng==)'>
</g>
<g clip-path='url(#cpMzM0Ljk4fDUxMC4yNHwxOC4wMHw2OC40Ng==)'>
</g>
<g clip-path='url(#cpMC4wMHw1MTAuMjR8MC4wMHw2OC40Ng==)'>
</g>
<g clip-path='url(#cpMzM0Ljk4fDUxMC4yNHwxOC4wMHw2OC40Ng==)'>
</g>
<g clip-path='url(#cpMC4wMHw1MTAuMjR8MC4wMHw2OC40Ng==)'>
<polyline points='346.57,47.65 346.57,45.66 ' style='stroke-width: 0.78; stroke: #333333; stroke-linecap: butt;' />
<polyline points='384.59,47.65 384.59,45.66 ' style='stroke-width: 0.78; stroke: #333333; stroke-linecap: butt;' />
<polyline points='422.61,47.65 422.61,45.66 ' style='stroke-width: 0.78; stroke: #333333; stroke-linecap: butt;' />
<polyline points='460.63,47.65 460.63,45.66 ' style='stroke-width: 0.78; stroke: #333333; stroke-linecap: butt;' />
<polyline points='498.65,47.65 498.65,45.66 ' style='stroke-width: 0.78; stroke: #333333; stroke-linecap: butt;' />
<text x='346.57' y='53.83' text-anchor='middle' style='font-size: 6.40px;fill: #4D4D4D; font-family: "Arial";' textLength='11.02px' lengthAdjust='spacingAndGlyphs'>-1.0</text>
<text x='384.59' y='53.83' text-anchor='middle' style='font-size: 6.40px;fill: #4D4D4D; font-family: "Arial";' textLength='11.02px' lengthAdjust='spacingAndGlyphs'>-0.5</text>
<text x='422.61' y='53.83' text-anchor='middle' style='font-size: 6.40px;fill: #4D4D4D; font-family: "Arial";' textLength='8.89px' lengthAdjust='spacingAndGlyphs'>0.0</text>
<text x='460.63' y='53.83' text-anchor='middle' style='font-size: 6.40px;fill: #4D4D4D; font-family: "Arial";' textLength='8.89px' lengthAdjust='spacingAndGlyphs'>0.5</text>
<text x='498.65' y='53.83' text-anchor='middle' style='font-size: 6.40px;fill: #4D4D4D; font-family: "Arial";' textLength='8.89px' lengthAdjust='spacingAndGlyphs'>1.0</text>
</g>
<g clip-path='url(#cpMzM0Ljk4fDUxMC4yNHwxOC4wMHw2OC40Ng==)'>
</g>
<g clip-path='url(#cpMC4wMHw1MTAuMjR8MC4wMHw2OC40Ng==)'>
</g>
<g clip-path='url(#cpMzM0Ljk4fDUxMC4yNHwxOC4wMHw2OC40Ng==)'>
</g>
<g clip-path='url(#cpMC4wMHw1MTAuMjR8MC4wMHw2OC40Ng==)'>
<text x='422.61' y='62.97' text-anchor='middle' style='font-size: 8.00px; font-family: "Arial";' textLength='85.41px' lengthAdjust='spacingAndGlyphs'>95% CIs of associations</text>
</g>
<g clip-path='url(#cpMzM0Ljk4fDUxMC4yNHwxOC4wMHw2OC40Ng==)'>
</g>
<g clip-path='url(#cpMC4wMHw1MTAuMjR8MC4wMHw2OC40Ng==)'>
</g>
<g clip-path='url(#cpMzM0Ljk4fDUxMC4yNHwxOC4wMHw2OC40Ng==)'>
</g>
<g clip-path='url(#cpMC4wMHw1MTAuMjR8MC4wMHw2OC40Ng==)'>
</g>
<g clip-path='url(#cpMzM0Ljk4fDUxMC4yNHwxOC4wMHw2OC40Ng==)'>
</g>
<g clip-path='url(#cpMC4wMHw1MTAuMjR8MC4wMHw2OC40Ng==)'>
</g>
<g clip-path='url(#cpMzM0Ljk4fDUxMC4yNHwxOC4wMHw2OC40Ng==)'>
</g>
<g clip-path='url(#cpMC4wMHw1MTAuMjR8MC4wMHw2OC40Ng==)'>
</g>
<g clip-path='url(#cpMzM0Ljk4fDUxMC4yNHwxOC4wMHw2OC40Ng==)'>
</g>
<g clip-path='url(#cpMC4wMHw1MTAuMjR8MC4wMHw2OC40Ng==)'>
</g>
<g clip-path='url(#cpMzM0Ljk4fDUxMC4yNHwxOC4wMHw2OC40Ng==)'>
</g>
<g clip-path='url(#cpMC4wMHw1MTAuMjR8MC4wMHw2OC40Ng==)'>
</g>
<g clip-path='url(#cpMzM0Ljk4fDUxMC4yNHwxOC4wMHw2OC40Ng==)'>
</g>
<g clip-path='url(#cpMC4wMHw1MTAuMjR8MC4wMHw2OC40Ng==)'>
</g>
<g clip-path='url(#cpMzM0Ljk4fDUxMC4yNHwxOC4wMHw2OC40Ng==)'>
</g>
<g clip-path='url(#cpMC4wMHw1MTAuMjR8MC4wMHw2OC40Ng==)'>
</g>
<g clip-path='url(#cpMzM0Ljk4fDUxMC4yNHwxOC4wMHw2OC40Ng==)'>
</g>
<g clip-path='url(#cpMC4wMHw1MTAuMjR8MC4wMHw2OC40Ng==)'>
</g>
<g clip-path='url(#cpMzM0Ljk4fDUxMC4yNHwxOC4wMHw2OC40Ng==)'>
</g>
<g clip-path='url(#cpMC4wMHw1MTAuMjR8MC4wMHw2OC40Ng==)'>
</g>
<g clip-path='url(#cpMzM0Ljk4fDUxMC4yNHwxOC4wMHw2OC40Ng==)'>
</g>
<g clip-path='url(#cpMC4wMHw1MTAuMjR8MC4wMHw2OC40Ng==)'>
<text x='2.30' y='8.78' style='font-size: 9.60px; font-weight: bold; font-family: "Arial";' textLength='147.66px' lengthAdjust='spacingAndGlyphs'>Means and associations (r) with </text>
<text x='149.96' y='8.78' style='font-size: 9.60px; font-weight: bold; font-family: "Arial";' textLength='43.17px' lengthAdjust='spacingAndGlyphs'>proximity</text>
<text x='193.13' y='8.78' style='font-size: 9.60px; font-weight: bold; font-family: "Arial";' textLength='2.66px' lengthAdjust='spacingAndGlyphs'> </text>
</g>
</svg>
