<?xml version='1.0' encoding='UTF-8' ?>
<svg xmlns='http://www.w3.org/2000/svg' xmlns:xlink='http://www.w3.org/1999/xlink' class='svglite' width='510.24pt' height='261.92pt' viewBox='0 0 510.24 261.92'>
<defs>
  <style type='text/css'><![CDATA[
    .svglite line, .svglite polyline, .svglite polygon, .svglite path, .svglite rect, .svglite circle {
      fill: none;
      stroke: #000000;
      stroke-linecap: round;
      stroke-linejoin: round;
      stroke-miterlimit: 10.00;
    }
    .svglite text {
      white-space: pre;
    }
  ]]></style>
</defs>
<rect width='100%' height='100%' style='stroke: none; fill: none;'/>
<defs>
  <clipPath id='cpMC4wMHw1MTAuMjR8MC4wMHwyNjEuOTI='>
    <rect x='0.00' y='0.00' width='510.24' height='261.92' />
  </clipPath>
</defs>
<g clip-path='url(#cpMC4wMHw1MTAuMjR8MC4wMHwyNjEuOTI=)'>
</g>
<defs>
  <clipPath id='cpMjY2LjM5fDQ1MS4wOHwxOC4wMHwyNjEuOTI='>
    <rect x='266.39' y='18.00' width='184.70' height='243.92' />
  </clipPath>
</defs>
<g clip-path='url(#cpMjY2LjM5fDQ1MS4wOHwxOC4wMHwyNjEuOTI=)'>
<rect x='266.39' y='18.00' width='184.70' height='243.92' style='stroke-width: 0.78; stroke: #FFFFFF; fill: #FFFFFF;' />
</g>
<g clip-path='url(#cpMC4wMHw1MTAuMjR8MC4wMHwyNjEuOTI=)'>
</g>
<defs>
  <clipPath id='cpMzI3LjM2fDM4Ni41MXwyMS45OXwyMzkuMTM='>
    <rect x='327.36' y='21.99' width='59.15' height='217.14' />
  </clipPath>
</defs>
<g clip-path='url(#cpMzI3LjM2fDM4Ni41MXwyMS45OXwyMzkuMTM=)'>
<rect x='327.36' y='21.99' width='59.15' height='217.14' style='stroke-width: 0.78; stroke: none; fill: #FFFFFF;' />
<polyline points='329.60,239.13 329.60,21.99 ' style='stroke-width: 0.39; stroke: #EBEBEB; stroke-linecap: butt;' />
<polyline points='337.43,239.13 337.43,21.99 ' style='stroke-width: 0.39; stroke: #EBEBEB; stroke-linecap: butt;' />
<polyline points='345.25,239.13 345.25,21.99 ' style='stroke-width: 0.39; stroke: #EBEBEB; stroke-linecap: butt;' />
<polyline points='353.07,239.13 353.07,21.99 ' style='stroke-width: 0.39; stroke: #EBEBEB; stroke-linecap: butt;' />
<polyline points='360.89,239.13 360.89,21.99 ' style='stroke-width: 0.39; stroke: #EBEBEB; stroke-linecap: butt;' />
<polyline points='368.71,239.13 368.71,21.99 ' style='stroke-width: 0.39; stroke: #EBEBEB; stroke-linecap: butt;' />
<polyline points='376.53,239.13 376.53,21.99 ' style='stroke-width: 0.39; stroke: #EBEBEB; stroke-linecap: butt;' />
<polyline points='384.35,239.13 384.35,21.99 ' style='stroke-width: 0.39; stroke: #EBEBEB; stroke-linecap: butt;' />
<polyline points='327.36,221.61 386.51,221.61 ' style='stroke-width: 0.78; stroke: #EBEBEB; stroke-linecap: butt;' />
<polyline points='327.36,195.61 386.51,195.61 ' style='stroke-width: 0.78; stroke: #EBEBEB; stroke-linecap: butt;' />
<polyline points='327.36,169.61 386.51,169.61 ' style='stroke-width: 0.78; stroke: #EBEBEB; stroke-linecap: butt;' />
<polyline points='327.36,143.61 386.51,143.61 ' style='stroke-width: 0.78; stroke: #EBEBEB; stroke-linecap: butt;' />
<polyline points='327.36,117.61 386.51,117.61 ' style='stroke-width: 0.78; stroke: #EBEBEB; stroke-linecap: butt;' />
<polyline points='327.36,91.61 386.51,91.61 ' style='stroke-width: 0.78; stroke: #EBEBEB; stroke-linecap: butt;' />
<polyline points='327.36,65.61 386.51,65.61 ' style='stroke-width: 0.78; stroke: #EBEBEB; stroke-linecap: butt;' />
<polyline points='327.36,39.60 386.51,39.60 ' style='stroke-width: 0.78; stroke: #EBEBEB; stroke-linecap: butt;' />
<polyline points='333.52,239.13 333.52,21.99 ' style='stroke-width: 0.78; stroke: #EBEBEB; stroke-linecap: butt;' />
<polyline points='341.34,239.13 341.34,21.99 ' style='stroke-width: 0.78; stroke: #EBEBEB; stroke-linecap: butt;' />
<polyline points='349.16,239.13 349.16,21.99 ' style='stroke-width: 0.78; stroke: #EBEBEB; stroke-linecap: butt;' />
<polyline points='356.98,239.13 356.98,21.99 ' style='stroke-width: 0.78; stroke: #EBEBEB; stroke-linecap: butt;' />
<polyline points='364.80,239.13 364.80,21.99 ' style='stroke-width: 0.78; stroke: #EBEBEB; stroke-linecap: butt;' />
<polyline points='372.62,239.13 372.62,21.99 ' style='stroke-width: 0.78; stroke: #EBEBEB; stroke-linecap: butt;' />
<polyline points='380.44,239.13 380.44,21.99 ' style='stroke-width: 0.78; stroke: #EBEBEB; stroke-linecap: butt;' />
<circle cx='379.15' cy='226.25' r='2.13' style='stroke-width: 0.00; stroke: #444444; stroke-opacity: 0.10; fill: #444444; fill-opacity: 0.10;' />
<circle cx='380.88' cy='216.22' r='2.13' style='stroke-width: 0.00; stroke: #444444; stroke-opacity: 0.10; fill: #444444; fill-opacity: 0.10;' />
<circle cx='348.91' cy='222.11' r='2.13' style='stroke-width: 0.00; stroke: #444444; stroke-opacity: 0.10; fill: #444444; fill-opacity: 0.10;' />
<circle cx='335.19' cy='218.60' r='2.13' style='stroke-width: 0.00; stroke: #444444; stroke-opacity: 0.10; fill: #444444; fill-opacity: 0.10;' />
<circle cx='354.79' cy='213.94' r='2.13' style='stroke-width: 0.00; stroke: #444444; stroke-opacity: 0.10; fill: #444444; fill-opacity: 0.10;' />
<circle cx='377.78' cy='214.86' r='2.13' style='stroke-width: 0.00; stroke: #444444; stroke-opacity: 0.10; fill: #444444; fill-opacity: 0.10;' />
<circle cx='349.17' cy='223.03' r='2.13' style='stroke-width: 0.00; stroke: #444444; stroke-opacity: 0.10; fill: #444444; fill-opacity: 0.10;' />
<circle cx='375.97' cy='221.74' r='2.13' style='stroke-width: 0.00; stroke: #444444; stroke-opacity: 0.10; fill: #444444; fill-opacity: 0.10;' />
<circle cx='363.50' cy='220.26' r='2.13' style='stroke-width: 0.00; stroke: #444444; stroke-opacity: 0.10; fill: #444444; fill-opacity: 0.10;' />
<circle cx='364.66' cy='227.36' r='2.13' style='stroke-width: 0.00; stroke: #444444; stroke-opacity: 0.10; fill: #444444; fill-opacity: 0.10;' />
<circle cx='335.03' cy='226.56' r='2.13' style='stroke-width: 0.00; stroke: #444444; stroke-opacity: 0.10; fill: #444444; fill-opacity: 0.10;' />
<circle cx='359.49' cy='227.97' r='2.13' style='stroke-width: 0.00; stroke: #444444; stroke-opacity: 0.10; fill: #444444; fill-opacity: 0.10;' />
<circle cx='334.39' cy='222.81' r='2.13' style='stroke-width: 0.00; stroke: #444444; stroke-opacity: 0.10; fill: #444444; fill-opacity: 0.10;' />
<circle cx='357.14' cy='217.28' r='2.13' style='stroke-width: 0.00; stroke: #444444; stroke-opacity: 0.10; fill: #444444; fill-opacity: 0.10;' />
<circle cx='382.92' cy='221.55' r='2.13' style='stroke-width: 0.00; stroke: #444444; stroke-opacity: 0.10; fill: #444444; fill-opacity: 0.10;' />
<circle cx='357.59' cy='219.51' r='2.13' style='stroke-width: 0.00; stroke: #444444; stroke-opacity: 0.10; fill: #444444; fill-opacity: 0.10;' />
<circle cx='377.12' cy='224.60' r='2.13' style='stroke-width: 0.00; stroke: #444444; stroke-opacity: 0.10; fill: #444444; fill-opacity: 0.10;' />
<circle cx='335.41' cy='223.43' r='2.13' style='stroke-width: 0.00; stroke: #444444; stroke-opacity: 0.10; fill: #444444; fill-opacity: 0.10;' />
<circle cx='336.97' cy='227.95' r='2.13' style='stroke-width: 0.00; stroke: #444444; stroke-opacity: 0.10; fill: #444444; fill-opacity: 0.10;' />
<circle cx='355.09' cy='227.67' r='2.13' style='stroke-width: 0.00; stroke: #444444; stroke-opacity: 0.10; fill: #444444; fill-opacity: 0.10;' />
<circle cx='356.36' cy='215.53' r='2.13' style='stroke-width: 0.00; stroke: #444444; stroke-opacity: 0.10; fill: #444444; fill-opacity: 0.10;' />
<circle cx='341.22' cy='224.24' r='2.13' style='stroke-width: 0.00; stroke: #444444; stroke-opacity: 0.10; fill: #444444; fill-opacity: 0.10;' />
<circle cx='371.97' cy='225.88' r='2.13' style='stroke-width: 0.00; stroke: #444444; stroke-opacity: 0.10; fill: #444444; fill-opacity: 0.10;' />
<circle cx='356.93' cy='214.74' r='2.13' style='stroke-width: 0.00; stroke: #444444; stroke-opacity: 0.10; fill: #444444; fill-opacity: 0.10;' />
<circle cx='356.67' cy='226.35' r='2.13' style='stroke-width: 0.00; stroke: #444444; stroke-opacity: 0.10; fill: #444444; fill-opacity: 0.10;' />
<circle cx='379.74' cy='218.64' r='2.13' style='stroke-width: 0.00; stroke: #444444; stroke-opacity: 0.10; fill: #444444; fill-opacity: 0.10;' />
<circle cx='370.21' cy='222.72' r='2.13' style='stroke-width: 0.00; stroke: #444444; stroke-opacity: 0.10; fill: #444444; fill-opacity: 0.10;' />
<circle cx='360.44' cy='227.21' r='2.13' style='stroke-width: 0.00; stroke: #444444; stroke-opacity: 0.10; fill: #444444; fill-opacity: 0.10;' />
<circle cx='359.36' cy='226.13' r='2.13' style='stroke-width: 0.00; stroke: #444444; stroke-opacity: 0.10; fill: #444444; fill-opacity: 0.10;' />
<circle cx='354.72' cy='226.03' r='2.13' style='stroke-width: 0.00; stroke: #444444; stroke-opacity: 0.10; fill: #444444; fill-opacity: 0.10;' />
<circle cx='358.28' cy='218.82' r='2.13' style='stroke-width: 0.00; stroke: #444444; stroke-opacity: 0.10; fill: #444444; fill-opacity: 0.10;' />
<circle cx='378.60' cy='220.99' r='2.13' style='stroke-width: 0.00; stroke: #444444; stroke-opacity: 0.10; fill: #444444; fill-opacity: 0.10;' />
<circle cx='367.01' cy='215.18' r='2.13' style='stroke-width: 0.00; stroke: #444444; stroke-opacity: 0.10; fill: #444444; fill-opacity: 0.10;' />
<circle cx='367.74' cy='227.30' r='2.13' style='stroke-width: 0.00; stroke: #444444; stroke-opacity: 0.10; fill: #444444; fill-opacity: 0.10;' />
<circle cx='367.96' cy='213.93' r='2.13' style='stroke-width: 0.00; stroke: #444444; stroke-opacity: 0.10; fill: #444444; fill-opacity: 0.10;' />
<circle cx='346.98' cy='216.81' r='2.13' style='stroke-width: 0.00; stroke: #444444; stroke-opacity: 0.10; fill: #444444; fill-opacity: 0.10;' />
<circle cx='359.45' cy='215.46' r='2.13' style='stroke-width: 0.00; stroke: #444444; stroke-opacity: 0.10; fill: #444444; fill-opacity: 0.10;' />
<circle cx='360.36' cy='226.75' r='2.13' style='stroke-width: 0.00; stroke: #444444; stroke-opacity: 0.10; fill: #444444; fill-opacity: 0.10;' />
<circle cx='348.51' cy='221.82' r='2.13' style='stroke-width: 0.00; stroke: #444444; stroke-opacity: 0.10; fill: #444444; fill-opacity: 0.10;' />
<circle cx='357.34' cy='229.26' r='2.13' style='stroke-width: 0.00; stroke: #444444; stroke-opacity: 0.10; fill: #444444; fill-opacity: 0.10;' />
<circle cx='372.35' cy='202.08' r='2.13' style='stroke-width: 0.00; stroke: #444444; stroke-opacity: 0.10; fill: #444444; fill-opacity: 0.10;' />
<circle cx='383.39' cy='196.51' r='2.13' style='stroke-width: 0.00; stroke: #444444; stroke-opacity: 0.10; fill: #444444; fill-opacity: 0.10;' />
<circle cx='339.32' cy='199.45' r='2.13' style='stroke-width: 0.00; stroke: #444444; stroke-opacity: 0.10; fill: #444444; fill-opacity: 0.10;' />
<circle cx='370.63' cy='203.32' r='2.13' style='stroke-width: 0.00; stroke: #444444; stroke-opacity: 0.10; fill: #444444; fill-opacity: 0.10;' />
<circle cx='372.97' cy='198.69' r='2.13' style='stroke-width: 0.00; stroke: #444444; stroke-opacity: 0.10; fill: #444444; fill-opacity: 0.10;' />
<circle cx='340.02' cy='190.54' r='2.13' style='stroke-width: 0.00; stroke: #444444; stroke-opacity: 0.10; fill: #444444; fill-opacity: 0.10;' />
<circle cx='379.00' cy='188.47' r='2.13' style='stroke-width: 0.00; stroke: #444444; stroke-opacity: 0.10; fill: #444444; fill-opacity: 0.10;' />
<circle cx='331.13' cy='195.67' r='2.13' style='stroke-width: 0.00; stroke: #444444; stroke-opacity: 0.10; fill: #444444; fill-opacity: 0.10;' />
<circle cx='349.17' cy='199.15' r='2.13' style='stroke-width: 0.00; stroke: #444444; stroke-opacity: 0.10; fill: #444444; fill-opacity: 0.10;' />
<circle cx='354.11' cy='194.41' r='2.13' style='stroke-width: 0.00; stroke: #444444; stroke-opacity: 0.10; fill: #444444; fill-opacity: 0.10;' />
<circle cx='336.62' cy='191.36' r='2.13' style='stroke-width: 0.00; stroke: #444444; stroke-opacity: 0.10; fill: #444444; fill-opacity: 0.10;' />
<circle cx='382.26' cy='199.80' r='2.13' style='stroke-width: 0.00; stroke: #444444; stroke-opacity: 0.10; fill: #444444; fill-opacity: 0.10;' />
<circle cx='354.69' cy='198.48' r='2.13' style='stroke-width: 0.00; stroke: #444444; stroke-opacity: 0.10; fill: #444444; fill-opacity: 0.10;' />
<circle cx='359.83' cy='190.27' r='2.13' style='stroke-width: 0.00; stroke: #444444; stroke-opacity: 0.10; fill: #444444; fill-opacity: 0.10;' />
<circle cx='369.41' cy='194.06' r='2.13' style='stroke-width: 0.00; stroke: #444444; stroke-opacity: 0.10; fill: #444444; fill-opacity: 0.10;' />
<circle cx='363.35' cy='203.16' r='2.13' style='stroke-width: 0.00; stroke: #444444; stroke-opacity: 0.10; fill: #444444; fill-opacity: 0.10;' />
<circle cx='359.62' cy='202.59' r='2.13' style='stroke-width: 0.00; stroke: #444444; stroke-opacity: 0.10; fill: #444444; fill-opacity: 0.10;' />
<circle cx='375.59' cy='200.85' r='2.13' style='stroke-width: 0.00; stroke: #444444; stroke-opacity: 0.10; fill: #444444; fill-opacity: 0.10;' />
<circle cx='351.21' cy='188.56' r='2.13' style='stroke-width: 0.00; stroke: #444444; stroke-opacity: 0.10; fill: #444444; fill-opacity: 0.10;' />
<circle cx='336.18' cy='200.78' r='2.13' style='stroke-width: 0.00; stroke: #444444; stroke-opacity: 0.10; fill: #444444; fill-opacity: 0.10;' />
<circle cx='356.36' cy='196.88' r='2.13' style='stroke-width: 0.00; stroke: #444444; stroke-opacity: 0.10; fill: #444444; fill-opacity: 0.10;' />
<circle cx='358.32' cy='196.29' r='2.13' style='stroke-width: 0.00; stroke: #444444; stroke-opacity: 0.10; fill: #444444; fill-opacity: 0.10;' />
<circle cx='353.59' cy='192.96' r='2.13' style='stroke-width: 0.00; stroke: #444444; stroke-opacity: 0.10; fill: #444444; fill-opacity: 0.10;' />
<circle cx='367.18' cy='190.12' r='2.13' style='stroke-width: 0.00; stroke: #444444; stroke-opacity: 0.10; fill: #444444; fill-opacity: 0.10;' />
<circle cx='373.16' cy='196.41' r='2.13' style='stroke-width: 0.00; stroke: #444444; stroke-opacity: 0.10; fill: #444444; fill-opacity: 0.10;' />
<circle cx='357.10' cy='190.73' r='2.13' style='stroke-width: 0.00; stroke: #444444; stroke-opacity: 0.10; fill: #444444; fill-opacity: 0.10;' />
<circle cx='372.80' cy='189.55' r='2.13' style='stroke-width: 0.00; stroke: #444444; stroke-opacity: 0.10; fill: #444444; fill-opacity: 0.10;' />
<circle cx='363.87' cy='195.87' r='2.13' style='stroke-width: 0.00; stroke: #444444; stroke-opacity: 0.10; fill: #444444; fill-opacity: 0.10;' />
<circle cx='364.68' cy='192.68' r='2.13' style='stroke-width: 0.00; stroke: #444444; stroke-opacity: 0.10; fill: #444444; fill-opacity: 0.10;' />
<circle cx='359.41' cy='201.81' r='2.13' style='stroke-width: 0.00; stroke: #444444; stroke-opacity: 0.10; fill: #444444; fill-opacity: 0.10;' />
<circle cx='361.34' cy='198.90' r='2.13' style='stroke-width: 0.00; stroke: #444444; stroke-opacity: 0.10; fill: #444444; fill-opacity: 0.10;' />
<circle cx='336.28' cy='189.22' r='2.13' style='stroke-width: 0.00; stroke: #444444; stroke-opacity: 0.10; fill: #444444; fill-opacity: 0.10;' />
<circle cx='380.30' cy='197.66' r='2.13' style='stroke-width: 0.00; stroke: #444444; stroke-opacity: 0.10; fill: #444444; fill-opacity: 0.10;' />
<circle cx='341.35' cy='190.62' r='2.13' style='stroke-width: 0.00; stroke: #444444; stroke-opacity: 0.10; fill: #444444; fill-opacity: 0.10;' />
<circle cx='342.67' cy='196.27' r='2.13' style='stroke-width: 0.00; stroke: #444444; stroke-opacity: 0.10; fill: #444444; fill-opacity: 0.10;' />
<circle cx='377.94' cy='194.72' r='2.13' style='stroke-width: 0.00; stroke: #444444; stroke-opacity: 0.10; fill: #444444; fill-opacity: 0.10;' />
<circle cx='356.68' cy='191.36' r='2.13' style='stroke-width: 0.00; stroke: #444444; stroke-opacity: 0.10; fill: #444444; fill-opacity: 0.10;' />
<circle cx='332.48' cy='198.74' r='2.13' style='stroke-width: 0.00; stroke: #444444; stroke-opacity: 0.10; fill: #444444; fill-opacity: 0.10;' />
<circle cx='365.08' cy='190.22' r='2.13' style='stroke-width: 0.00; stroke: #444444; stroke-opacity: 0.10; fill: #444444; fill-opacity: 0.10;' />
<circle cx='348.19' cy='190.71' r='2.13' style='stroke-width: 0.00; stroke: #444444; stroke-opacity: 0.10; fill: #444444; fill-opacity: 0.10;' />
<circle cx='371.63' cy='192.99' r='2.13' style='stroke-width: 0.00; stroke: #444444; stroke-opacity: 0.10; fill: #444444; fill-opacity: 0.10;' />
<circle cx='335.12' cy='191.05' r='2.13' style='stroke-width: 0.00; stroke: #444444; stroke-opacity: 0.10; fill: #444444; fill-opacity: 0.10;' />
<circle cx='356.57' cy='198.14' r='2.13' style='stroke-width: 0.00; stroke: #444444; stroke-opacity: 0.10; fill: #444444; fill-opacity: 0.10;' />
<circle cx='355.82' cy='195.97' r='2.13' style='stroke-width: 0.00; stroke: #444444; stroke-opacity: 0.10; fill: #444444; fill-opacity: 0.10;' />
<circle cx='336.53' cy='192.19' r='2.13' style='stroke-width: 0.00; stroke: #444444; stroke-opacity: 0.10; fill: #444444; fill-opacity: 0.10;' />
<circle cx='370.18' cy='194.60' r='2.13' style='stroke-width: 0.00; stroke: #444444; stroke-opacity: 0.10; fill: #444444; fill-opacity: 0.10;' />
<circle cx='379.91' cy='194.69' r='2.13' style='stroke-width: 0.00; stroke: #444444; stroke-opacity: 0.10; fill: #444444; fill-opacity: 0.10;' />
<circle cx='378.52' cy='197.56' r='2.13' style='stroke-width: 0.00; stroke: #444444; stroke-opacity: 0.10; fill: #444444; fill-opacity: 0.10;' />
<circle cx='330.43' cy='193.04' r='2.13' style='stroke-width: 0.00; stroke: #444444; stroke-opacity: 0.10; fill: #444444; fill-opacity: 0.10;' />
<circle cx='377.09' cy='190.75' r='2.13' style='stroke-width: 0.00; stroke: #444444; stroke-opacity: 0.10; fill: #444444; fill-opacity: 0.10;' />
<circle cx='358.62' cy='187.86' r='2.13' style='stroke-width: 0.00; stroke: #444444; stroke-opacity: 0.10; fill: #444444; fill-opacity: 0.10;' />
<circle cx='345.76' cy='201.27' r='2.13' style='stroke-width: 0.00; stroke: #444444; stroke-opacity: 0.10; fill: #444444; fill-opacity: 0.10;' />
<circle cx='356.77' cy='167.02' r='2.13' style='stroke-width: 0.00; stroke: #444444; stroke-opacity: 0.10; fill: #444444; fill-opacity: 0.10;' />
<circle cx='382.29' cy='177.18' r='2.13' style='stroke-width: 0.00; stroke: #444444; stroke-opacity: 0.10; fill: #444444; fill-opacity: 0.10;' />
<circle cx='365.95' cy='169.74' r='2.13' style='stroke-width: 0.00; stroke: #444444; stroke-opacity: 0.10; fill: #444444; fill-opacity: 0.10;' />
<circle cx='378.19' cy='165.11' r='2.13' style='stroke-width: 0.00; stroke: #444444; stroke-opacity: 0.10; fill: #444444; fill-opacity: 0.10;' />
<circle cx='347.52' cy='166.33' r='2.13' style='stroke-width: 0.00; stroke: #444444; stroke-opacity: 0.10; fill: #444444; fill-opacity: 0.10;' />
<circle cx='360.09' cy='162.72' r='2.13' style='stroke-width: 0.00; stroke: #444444; stroke-opacity: 0.10; fill: #444444; fill-opacity: 0.10;' />
<circle cx='353.70' cy='162.18' r='2.13' style='stroke-width: 0.00; stroke: #444444; stroke-opacity: 0.10; fill: #444444; fill-opacity: 0.10;' />
<circle cx='370.32' cy='169.74' r='2.13' style='stroke-width: 0.00; stroke: #444444; stroke-opacity: 0.10; fill: #444444; fill-opacity: 0.10;' />
<circle cx='359.35' cy='167.90' r='2.13' style='stroke-width: 0.00; stroke: #444444; stroke-opacity: 0.10; fill: #444444; fill-opacity: 0.10;' />
<circle cx='380.17' cy='175.49' r='2.13' style='stroke-width: 0.00; stroke: #444444; stroke-opacity: 0.10; fill: #444444; fill-opacity: 0.10;' />
<circle cx='363.96' cy='163.38' r='2.13' style='stroke-width: 0.00; stroke: #444444; stroke-opacity: 0.10; fill: #444444; fill-opacity: 0.10;' />
<circle cx='377.03' cy='173.22' r='2.13' style='stroke-width: 0.00; stroke: #444444; stroke-opacity: 0.10; fill: #444444; fill-opacity: 0.10;' />
<circle cx='381.08' cy='174.47' r='2.13' style='stroke-width: 0.00; stroke: #444444; stroke-opacity: 0.10; fill: #444444; fill-opacity: 0.10;' />
<circle cx='362.41' cy='168.43' r='2.13' style='stroke-width: 0.00; stroke: #444444; stroke-opacity: 0.10; fill: #444444; fill-opacity: 0.10;' />
<circle cx='377.97' cy='163.40' r='2.13' style='stroke-width: 0.00; stroke: #444444; stroke-opacity: 0.10; fill: #444444; fill-opacity: 0.10;' />
<circle cx='354.86' cy='162.75' r='2.13' style='stroke-width: 0.00; stroke: #444444; stroke-opacity: 0.10; fill: #444444; fill-opacity: 0.10;' />
<circle cx='382.13' cy='170.51' r='2.13' style='stroke-width: 0.00; stroke: #444444; stroke-opacity: 0.10; fill: #444444; fill-opacity: 0.10;' />
<circle cx='360.00' cy='170.08' r='2.13' style='stroke-width: 0.00; stroke: #444444; stroke-opacity: 0.10; fill: #444444; fill-opacity: 0.10;' />
<circle cx='380.24' cy='173.06' r='2.13' style='stroke-width: 0.00; stroke: #444444; stroke-opacity: 0.10; fill: #444444; fill-opacity: 0.10;' />
<circle cx='371.17' cy='166.60' r='2.13' style='stroke-width: 0.00; stroke: #444444; stroke-opacity: 0.10; fill: #444444; fill-opacity: 0.10;' />
<circle cx='354.20' cy='169.02' r='2.13' style='stroke-width: 0.00; stroke: #444444; stroke-opacity: 0.10; fill: #444444; fill-opacity: 0.10;' />
<circle cx='357.27' cy='167.08' r='2.13' style='stroke-width: 0.00; stroke: #444444; stroke-opacity: 0.10; fill: #444444; fill-opacity: 0.10;' />
<circle cx='380.33' cy='164.24' r='2.13' style='stroke-width: 0.00; stroke: #444444; stroke-opacity: 0.10; fill: #444444; fill-opacity: 0.10;' />
<circle cx='381.41' cy='176.59' r='2.13' style='stroke-width: 0.00; stroke: #444444; stroke-opacity: 0.10; fill: #444444; fill-opacity: 0.10;' />
<circle cx='380.36' cy='163.05' r='2.13' style='stroke-width: 0.00; stroke: #444444; stroke-opacity: 0.10; fill: #444444; fill-opacity: 0.10;' />
<circle cx='377.86' cy='165.45' r='2.13' style='stroke-width: 0.00; stroke: #444444; stroke-opacity: 0.10; fill: #444444; fill-opacity: 0.10;' />
<circle cx='361.43' cy='172.02' r='2.13' style='stroke-width: 0.00; stroke: #444444; stroke-opacity: 0.10; fill: #444444; fill-opacity: 0.10;' />
<circle cx='335.84' cy='177.09' r='2.13' style='stroke-width: 0.00; stroke: #444444; stroke-opacity: 0.10; fill: #444444; fill-opacity: 0.10;' />
<circle cx='365.87' cy='163.45' r='2.13' style='stroke-width: 0.00; stroke: #444444; stroke-opacity: 0.10; fill: #444444; fill-opacity: 0.10;' />
<circle cx='381.57' cy='163.46' r='2.13' style='stroke-width: 0.00; stroke: #444444; stroke-opacity: 0.10; fill: #444444; fill-opacity: 0.10;' />
<circle cx='374.16' cy='176.73' r='2.13' style='stroke-width: 0.00; stroke: #444444; stroke-opacity: 0.10; fill: #444444; fill-opacity: 0.10;' />
<circle cx='369.89' cy='174.29' r='2.13' style='stroke-width: 0.00; stroke: #444444; stroke-opacity: 0.10; fill: #444444; fill-opacity: 0.10;' />
<circle cx='375.39' cy='175.36' r='2.13' style='stroke-width: 0.00; stroke: #444444; stroke-opacity: 0.10; fill: #444444; fill-opacity: 0.10;' />
<circle cx='353.57' cy='148.99' r='2.13' style='stroke-width: 0.00; stroke: #444444; stroke-opacity: 0.10; fill: #444444; fill-opacity: 0.10;' />
<circle cx='365.91' cy='136.76' r='2.13' style='stroke-width: 0.00; stroke: #444444; stroke-opacity: 0.10; fill: #444444; fill-opacity: 0.10;' />
<circle cx='372.87' cy='150.00' r='2.13' style='stroke-width: 0.00; stroke: #444444; stroke-opacity: 0.10; fill: #444444; fill-opacity: 0.10;' />
<circle cx='336.84' cy='137.83' r='2.13' style='stroke-width: 0.00; stroke: #444444; stroke-opacity: 0.10; fill: #444444; fill-opacity: 0.10;' />
<circle cx='355.15' cy='147.07' r='2.13' style='stroke-width: 0.00; stroke: #444444; stroke-opacity: 0.10; fill: #444444; fill-opacity: 0.10;' />
<circle cx='367.25' cy='136.80' r='2.13' style='stroke-width: 0.00; stroke: #444444; stroke-opacity: 0.10; fill: #444444; fill-opacity: 0.10;' />
<circle cx='353.98' cy='142.81' r='2.13' style='stroke-width: 0.00; stroke: #444444; stroke-opacity: 0.10; fill: #444444; fill-opacity: 0.10;' />
<circle cx='375.99' cy='140.93' r='2.13' style='stroke-width: 0.00; stroke: #444444; stroke-opacity: 0.10; fill: #444444; fill-opacity: 0.10;' />
<circle cx='355.58' cy='142.86' r='2.13' style='stroke-width: 0.00; stroke: #444444; stroke-opacity: 0.10; fill: #444444; fill-opacity: 0.10;' />
<circle cx='359.70' cy='136.04' r='2.13' style='stroke-width: 0.00; stroke: #444444; stroke-opacity: 0.10; fill: #444444; fill-opacity: 0.10;' />
<circle cx='373.72' cy='143.30' r='2.13' style='stroke-width: 0.00; stroke: #444444; stroke-opacity: 0.10; fill: #444444; fill-opacity: 0.10;' />
<circle cx='379.25' cy='140.79' r='2.13' style='stroke-width: 0.00; stroke: #444444; stroke-opacity: 0.10; fill: #444444; fill-opacity: 0.10;' />
<circle cx='382.16' cy='144.76' r='2.13' style='stroke-width: 0.00; stroke: #444444; stroke-opacity: 0.10; fill: #444444; fill-opacity: 0.10;' />
<circle cx='361.29' cy='143.54' r='2.13' style='stroke-width: 0.00; stroke: #444444; stroke-opacity: 0.10; fill: #444444; fill-opacity: 0.10;' />
<circle cx='383.60' cy='141.91' r='2.13' style='stroke-width: 0.00; stroke: #444444; stroke-opacity: 0.10; fill: #444444; fill-opacity: 0.10;' />
<circle cx='379.88' cy='136.22' r='2.13' style='stroke-width: 0.00; stroke: #444444; stroke-opacity: 0.10; fill: #444444; fill-opacity: 0.10;' />
<circle cx='359.87' cy='143.66' r='2.13' style='stroke-width: 0.00; stroke: #444444; stroke-opacity: 0.10; fill: #444444; fill-opacity: 0.10;' />
<circle cx='355.38' cy='149.83' r='2.13' style='stroke-width: 0.00; stroke: #444444; stroke-opacity: 0.10; fill: #444444; fill-opacity: 0.10;' />
<circle cx='354.96' cy='146.90' r='2.13' style='stroke-width: 0.00; stroke: #444444; stroke-opacity: 0.10; fill: #444444; fill-opacity: 0.10;' />
<circle cx='358.12' cy='135.95' r='2.13' style='stroke-width: 0.00; stroke: #444444; stroke-opacity: 0.10; fill: #444444; fill-opacity: 0.10;' />
<circle cx='365.29' cy='148.09' r='2.13' style='stroke-width: 0.00; stroke: #444444; stroke-opacity: 0.10; fill: #444444; fill-opacity: 0.10;' />
<circle cx='373.39' cy='136.24' r='2.13' style='stroke-width: 0.00; stroke: #444444; stroke-opacity: 0.10; fill: #444444; fill-opacity: 0.10;' />
<circle cx='357.11' cy='147.66' r='2.13' style='stroke-width: 0.00; stroke: #444444; stroke-opacity: 0.10; fill: #444444; fill-opacity: 0.10;' />
<circle cx='357.82' cy='143.20' r='2.13' style='stroke-width: 0.00; stroke: #444444; stroke-opacity: 0.10; fill: #444444; fill-opacity: 0.10;' />
<circle cx='359.86' cy='136.19' r='2.13' style='stroke-width: 0.00; stroke: #444444; stroke-opacity: 0.10; fill: #444444; fill-opacity: 0.10;' />
<circle cx='373.60' cy='150.82' r='2.13' style='stroke-width: 0.00; stroke: #444444; stroke-opacity: 0.10; fill: #444444; fill-opacity: 0.10;' />
<circle cx='360.22' cy='135.93' r='2.13' style='stroke-width: 0.00; stroke: #444444; stroke-opacity: 0.10; fill: #444444; fill-opacity: 0.10;' />
<circle cx='353.84' cy='146.86' r='2.13' style='stroke-width: 0.00; stroke: #444444; stroke-opacity: 0.10; fill: #444444; fill-opacity: 0.10;' />
<circle cx='370.60' cy='149.46' r='2.13' style='stroke-width: 0.00; stroke: #444444; stroke-opacity: 0.10; fill: #444444; fill-opacity: 0.10;' />
<circle cx='382.35' cy='146.51' r='2.13' style='stroke-width: 0.00; stroke: #444444; stroke-opacity: 0.10; fill: #444444; fill-opacity: 0.10;' />
<circle cx='353.76' cy='140.66' r='2.13' style='stroke-width: 0.00; stroke: #444444; stroke-opacity: 0.10; fill: #444444; fill-opacity: 0.10;' />
<circle cx='354.00' cy='146.31' r='2.13' style='stroke-width: 0.00; stroke: #444444; stroke-opacity: 0.10; fill: #444444; fill-opacity: 0.10;' />
<circle cx='374.31' cy='144.09' r='2.13' style='stroke-width: 0.00; stroke: #444444; stroke-opacity: 0.10; fill: #444444; fill-opacity: 0.10;' />
<circle cx='333.99' cy='145.91' r='2.13' style='stroke-width: 0.00; stroke: #444444; stroke-opacity: 0.10; fill: #444444; fill-opacity: 0.10;' />
<circle cx='331.94' cy='147.97' r='2.13' style='stroke-width: 0.00; stroke: #444444; stroke-opacity: 0.10; fill: #444444; fill-opacity: 0.10;' />
<circle cx='363.96' cy='138.36' r='2.13' style='stroke-width: 0.00; stroke: #444444; stroke-opacity: 0.10; fill: #444444; fill-opacity: 0.10;' />
<circle cx='357.42' cy='147.17' r='2.13' style='stroke-width: 0.00; stroke: #444444; stroke-opacity: 0.10; fill: #444444; fill-opacity: 0.10;' />
<circle cx='379.82' cy='141.00' r='2.13' style='stroke-width: 0.00; stroke: #444444; stroke-opacity: 0.10; fill: #444444; fill-opacity: 0.10;' />
<circle cx='380.77' cy='149.80' r='2.13' style='stroke-width: 0.00; stroke: #444444; stroke-opacity: 0.10; fill: #444444; fill-opacity: 0.10;' />
<circle cx='377.54' cy='148.34' r='2.13' style='stroke-width: 0.00; stroke: #444444; stroke-opacity: 0.10; fill: #444444; fill-opacity: 0.10;' />
<circle cx='357.54' cy='145.98' r='2.13' style='stroke-width: 0.00; stroke: #444444; stroke-opacity: 0.10; fill: #444444; fill-opacity: 0.10;' />
<circle cx='333.20' cy='148.81' r='2.13' style='stroke-width: 0.00; stroke: #444444; stroke-opacity: 0.10; fill: #444444; fill-opacity: 0.10;' />
<circle cx='330.74' cy='140.71' r='2.13' style='stroke-width: 0.00; stroke: #444444; stroke-opacity: 0.10; fill: #444444; fill-opacity: 0.10;' />
<circle cx='358.74' cy='150.88' r='2.13' style='stroke-width: 0.00; stroke: #444444; stroke-opacity: 0.10; fill: #444444; fill-opacity: 0.10;' />
<circle cx='377.52' cy='111.39' r='2.13' style='stroke-width: 0.00; stroke: #444444; stroke-opacity: 0.10; fill: #444444; fill-opacity: 0.10;' />
<circle cx='354.13' cy='117.81' r='2.13' style='stroke-width: 0.00; stroke: #444444; stroke-opacity: 0.10; fill: #444444; fill-opacity: 0.10;' />
<circle cx='356.03' cy='119.75' r='2.13' style='stroke-width: 0.00; stroke: #444444; stroke-opacity: 0.10; fill: #444444; fill-opacity: 0.10;' />
<circle cx='334.70' cy='116.76' r='2.13' style='stroke-width: 0.00; stroke: #444444; stroke-opacity: 0.10; fill: #444444; fill-opacity: 0.10;' />
<circle cx='382.71' cy='124.66' r='2.13' style='stroke-width: 0.00; stroke: #444444; stroke-opacity: 0.10; fill: #444444; fill-opacity: 0.10;' />
<circle cx='377.23' cy='111.47' r='2.13' style='stroke-width: 0.00; stroke: #444444; stroke-opacity: 0.10; fill: #444444; fill-opacity: 0.10;' />
<circle cx='347.25' cy='125.27' r='2.13' style='stroke-width: 0.00; stroke: #444444; stroke-opacity: 0.10; fill: #444444; fill-opacity: 0.10;' />
<circle cx='379.56' cy='109.97' r='2.13' style='stroke-width: 0.00; stroke: #444444; stroke-opacity: 0.10; fill: #444444; fill-opacity: 0.10;' />
<circle cx='332.73' cy='119.77' r='2.13' style='stroke-width: 0.00; stroke: #444444; stroke-opacity: 0.10; fill: #444444; fill-opacity: 0.10;' />
<circle cx='375.87' cy='113.04' r='2.13' style='stroke-width: 0.00; stroke: #444444; stroke-opacity: 0.10; fill: #444444; fill-opacity: 0.10;' />
<circle cx='334.06' cy='120.52' r='2.13' style='stroke-width: 0.00; stroke: #444444; stroke-opacity: 0.10; fill: #444444; fill-opacity: 0.10;' />
<circle cx='354.34' cy='122.57' r='2.13' style='stroke-width: 0.00; stroke: #444444; stroke-opacity: 0.10; fill: #444444; fill-opacity: 0.10;' />
<circle cx='379.90' cy='110.98' r='2.13' style='stroke-width: 0.00; stroke: #444444; stroke-opacity: 0.10; fill: #444444; fill-opacity: 0.10;' />
<circle cx='380.61' cy='122.85' r='2.13' style='stroke-width: 0.00; stroke: #444444; stroke-opacity: 0.10; fill: #444444; fill-opacity: 0.10;' />
<circle cx='336.17' cy='112.39' r='2.13' style='stroke-width: 0.00; stroke: #444444; stroke-opacity: 0.10; fill: #444444; fill-opacity: 0.10;' />
<circle cx='331.51' cy='117.16' r='2.13' style='stroke-width: 0.00; stroke: #444444; stroke-opacity: 0.10; fill: #444444; fill-opacity: 0.10;' />
<circle cx='351.02' cy='120.72' r='2.13' style='stroke-width: 0.00; stroke: #444444; stroke-opacity: 0.10; fill: #444444; fill-opacity: 0.10;' />
<circle cx='352.00' cy='121.32' r='2.13' style='stroke-width: 0.00; stroke: #444444; stroke-opacity: 0.10; fill: #444444; fill-opacity: 0.10;' />
<circle cx='335.42' cy='120.44' r='2.13' style='stroke-width: 0.00; stroke: #444444; stroke-opacity: 0.10; fill: #444444; fill-opacity: 0.10;' />
<circle cx='342.70' cy='121.44' r='2.13' style='stroke-width: 0.00; stroke: #444444; stroke-opacity: 0.10; fill: #444444; fill-opacity: 0.10;' />
<circle cx='360.25' cy='117.12' r='2.13' style='stroke-width: 0.00; stroke: #444444; stroke-opacity: 0.10; fill: #444444; fill-opacity: 0.10;' />
<circle cx='336.92' cy='124.48' r='2.13' style='stroke-width: 0.00; stroke: #444444; stroke-opacity: 0.10; fill: #444444; fill-opacity: 0.10;' />
<circle cx='382.24' cy='123.85' r='2.13' style='stroke-width: 0.00; stroke: #444444; stroke-opacity: 0.10; fill: #444444; fill-opacity: 0.10;' />
<circle cx='366.53' cy='118.43' r='2.13' style='stroke-width: 0.00; stroke: #444444; stroke-opacity: 0.10; fill: #444444; fill-opacity: 0.10;' />
<circle cx='331.52' cy='118.84' r='2.13' style='stroke-width: 0.00; stroke: #444444; stroke-opacity: 0.10; fill: #444444; fill-opacity: 0.10;' />
<circle cx='358.29' cy='124.20' r='2.13' style='stroke-width: 0.00; stroke: #444444; stroke-opacity: 0.10; fill: #444444; fill-opacity: 0.10;' />
<circle cx='347.66' cy='112.71' r='2.13' style='stroke-width: 0.00; stroke: #444444; stroke-opacity: 0.10; fill: #444444; fill-opacity: 0.10;' />
<circle cx='354.37' cy='120.59' r='2.13' style='stroke-width: 0.00; stroke: #444444; stroke-opacity: 0.10; fill: #444444; fill-opacity: 0.10;' />
<circle cx='377.11' cy='111.11' r='2.13' style='stroke-width: 0.00; stroke: #444444; stroke-opacity: 0.10; fill: #444444; fill-opacity: 0.10;' />
<circle cx='381.45' cy='118.84' r='2.13' style='stroke-width: 0.00; stroke: #444444; stroke-opacity: 0.10; fill: #444444; fill-opacity: 0.10;' />
<circle cx='345.96' cy='119.07' r='2.13' style='stroke-width: 0.00; stroke: #444444; stroke-opacity: 0.10; fill: #444444; fill-opacity: 0.10;' />
<circle cx='378.34' cy='120.31' r='2.13' style='stroke-width: 0.00; stroke: #444444; stroke-opacity: 0.10; fill: #444444; fill-opacity: 0.10;' />
<circle cx='381.80' cy='86.59' r='2.13' style='stroke-width: 0.00; stroke: #444444; stroke-opacity: 0.10; fill: #444444; fill-opacity: 0.10;' />
<circle cx='359.96' cy='97.50' r='2.13' style='stroke-width: 0.00; stroke: #444444; stroke-opacity: 0.10; fill: #444444; fill-opacity: 0.10;' />
<circle cx='378.78' cy='94.01' r='2.13' style='stroke-width: 0.00; stroke: #444444; stroke-opacity: 0.10; fill: #444444; fill-opacity: 0.10;' />
<circle cx='381.93' cy='95.26' r='2.13' style='stroke-width: 0.00; stroke: #444444; stroke-opacity: 0.10; fill: #444444; fill-opacity: 0.10;' />
<circle cx='382.26' cy='97.46' r='2.13' style='stroke-width: 0.00; stroke: #444444; stroke-opacity: 0.10; fill: #444444; fill-opacity: 0.10;' />
<circle cx='357.64' cy='85.55' r='2.13' style='stroke-width: 0.00; stroke: #444444; stroke-opacity: 0.10; fill: #444444; fill-opacity: 0.10;' />
<circle cx='369.58' cy='89.86' r='2.13' style='stroke-width: 0.00; stroke: #444444; stroke-opacity: 0.10; fill: #444444; fill-opacity: 0.10;' />
<circle cx='382.59' cy='94.55' r='2.13' style='stroke-width: 0.00; stroke: #444444; stroke-opacity: 0.10; fill: #444444; fill-opacity: 0.10;' />
<circle cx='380.34' cy='90.61' r='2.13' style='stroke-width: 0.00; stroke: #444444; stroke-opacity: 0.10; fill: #444444; fill-opacity: 0.10;' />
<circle cx='347.23' cy='97.62' r='2.13' style='stroke-width: 0.00; stroke: #444444; stroke-opacity: 0.10; fill: #444444; fill-opacity: 0.10;' />
<circle cx='381.16' cy='88.08' r='2.13' style='stroke-width: 0.00; stroke: #444444; stroke-opacity: 0.10; fill: #444444; fill-opacity: 0.10;' />
<circle cx='382.71' cy='84.71' r='2.13' style='stroke-width: 0.00; stroke: #444444; stroke-opacity: 0.10; fill: #444444; fill-opacity: 0.10;' />
<circle cx='381.72' cy='88.64' r='2.13' style='stroke-width: 0.00; stroke: #444444; stroke-opacity: 0.10; fill: #444444; fill-opacity: 0.10;' />
<circle cx='370.31' cy='90.97' r='2.13' style='stroke-width: 0.00; stroke: #444444; stroke-opacity: 0.10; fill: #444444; fill-opacity: 0.10;' />
<circle cx='374.22' cy='88.59' r='2.13' style='stroke-width: 0.00; stroke: #444444; stroke-opacity: 0.10; fill: #444444; fill-opacity: 0.10;' />
<circle cx='381.29' cy='97.36' r='2.13' style='stroke-width: 0.00; stroke: #444444; stroke-opacity: 0.10; fill: #444444; fill-opacity: 0.10;' />
<circle cx='372.23' cy='90.23' r='2.13' style='stroke-width: 0.00; stroke: #444444; stroke-opacity: 0.10; fill: #444444; fill-opacity: 0.10;' />
<circle cx='367.56' cy='93.10' r='2.13' style='stroke-width: 0.00; stroke: #444444; stroke-opacity: 0.10; fill: #444444; fill-opacity: 0.10;' />
<circle cx='366.85' cy='93.64' r='2.13' style='stroke-width: 0.00; stroke: #444444; stroke-opacity: 0.10; fill: #444444; fill-opacity: 0.10;' />
<circle cx='382.27' cy='92.44' r='2.13' style='stroke-width: 0.00; stroke: #444444; stroke-opacity: 0.10; fill: #444444; fill-opacity: 0.10;' />
<circle cx='370.01' cy='84.71' r='2.13' style='stroke-width: 0.00; stroke: #444444; stroke-opacity: 0.10; fill: #444444; fill-opacity: 0.10;' />
<circle cx='372.82' cy='93.51' r='2.13' style='stroke-width: 0.00; stroke: #444444; stroke-opacity: 0.10; fill: #444444; fill-opacity: 0.10;' />
<circle cx='355.27' cy='98.64' r='2.13' style='stroke-width: 0.00; stroke: #444444; stroke-opacity: 0.10; fill: #444444; fill-opacity: 0.10;' />
<circle cx='374.14' cy='95.64' r='2.13' style='stroke-width: 0.00; stroke: #444444; stroke-opacity: 0.10; fill: #444444; fill-opacity: 0.10;' />
<circle cx='355.36' cy='93.15' r='2.13' style='stroke-width: 0.00; stroke: #444444; stroke-opacity: 0.10; fill: #444444; fill-opacity: 0.10;' />
<circle cx='349.98' cy='88.36' r='2.13' style='stroke-width: 0.00; stroke: #444444; stroke-opacity: 0.10; fill: #444444; fill-opacity: 0.10;' />
<circle cx='363.66' cy='86.41' r='2.13' style='stroke-width: 0.00; stroke: #444444; stroke-opacity: 0.10; fill: #444444; fill-opacity: 0.10;' />
<circle cx='356.09' cy='91.78' r='2.13' style='stroke-width: 0.00; stroke: #444444; stroke-opacity: 0.10; fill: #444444; fill-opacity: 0.10;' />
<circle cx='356.17' cy='94.18' r='2.13' style='stroke-width: 0.00; stroke: #444444; stroke-opacity: 0.10; fill: #444444; fill-opacity: 0.10;' />
<circle cx='367.50' cy='93.92' r='2.13' style='stroke-width: 0.00; stroke: #444444; stroke-opacity: 0.10; fill: #444444; fill-opacity: 0.10;' />
<circle cx='362.71' cy='62.23' r='2.13' style='stroke-width: 0.00; stroke: #444444; stroke-opacity: 0.10; fill: #444444; fill-opacity: 0.10;' />
<circle cx='374.78' cy='64.08' r='2.13' style='stroke-width: 0.00; stroke: #444444; stroke-opacity: 0.10; fill: #444444; fill-opacity: 0.10;' />
<circle cx='370.98' cy='68.83' r='2.13' style='stroke-width: 0.00; stroke: #444444; stroke-opacity: 0.10; fill: #444444; fill-opacity: 0.10;' />
<circle cx='382.58' cy='60.60' r='2.13' style='stroke-width: 0.00; stroke: #444444; stroke-opacity: 0.10; fill: #444444; fill-opacity: 0.10;' />
<circle cx='330.60' cy='66.03' r='2.13' style='stroke-width: 0.00; stroke: #444444; stroke-opacity: 0.10; fill: #444444; fill-opacity: 0.10;' />
<circle cx='334.75' cy='72.19' r='2.13' style='stroke-width: 0.00; stroke: #444444; stroke-opacity: 0.10; fill: #444444; fill-opacity: 0.10;' />
<circle cx='380.48' cy='68.83' r='2.13' style='stroke-width: 0.00; stroke: #444444; stroke-opacity: 0.10; fill: #444444; fill-opacity: 0.10;' />
<circle cx='349.83' cy='65.14' r='2.13' style='stroke-width: 0.00; stroke: #444444; stroke-opacity: 0.10; fill: #444444; fill-opacity: 0.10;' />
<circle cx='380.37' cy='63.86' r='2.13' style='stroke-width: 0.00; stroke: #444444; stroke-opacity: 0.10; fill: #444444; fill-opacity: 0.10;' />
<circle cx='358.38' cy='60.11' r='2.13' style='stroke-width: 0.00; stroke: #444444; stroke-opacity: 0.10; fill: #444444; fill-opacity: 0.10;' />
<circle cx='378.07' cy='72.86' r='2.13' style='stroke-width: 0.00; stroke: #444444; stroke-opacity: 0.10; fill: #444444; fill-opacity: 0.10;' />
<circle cx='359.22' cy='63.40' r='2.13' style='stroke-width: 0.00; stroke: #444444; stroke-opacity: 0.10; fill: #444444; fill-opacity: 0.10;' />
<circle cx='378.42' cy='61.39' r='2.13' style='stroke-width: 0.00; stroke: #444444; stroke-opacity: 0.10; fill: #444444; fill-opacity: 0.10;' />
<circle cx='362.57' cy='65.90' r='2.13' style='stroke-width: 0.00; stroke: #444444; stroke-opacity: 0.10; fill: #444444; fill-opacity: 0.10;' />
<circle cx='356.60' cy='59.24' r='2.13' style='stroke-width: 0.00; stroke: #444444; stroke-opacity: 0.10; fill: #444444; fill-opacity: 0.10;' />
<circle cx='330.05' cy='71.82' r='2.13' style='stroke-width: 0.00; stroke: #444444; stroke-opacity: 0.10; fill: #444444; fill-opacity: 0.10;' />
<circle cx='331.83' cy='58.45' r='2.13' style='stroke-width: 0.00; stroke: #444444; stroke-opacity: 0.10; fill: #444444; fill-opacity: 0.10;' />
<circle cx='331.92' cy='72.25' r='2.13' style='stroke-width: 0.00; stroke: #444444; stroke-opacity: 0.10; fill: #444444; fill-opacity: 0.10;' />
<circle cx='371.22' cy='65.13' r='2.13' style='stroke-width: 0.00; stroke: #444444; stroke-opacity: 0.10; fill: #444444; fill-opacity: 0.10;' />
<circle cx='381.05' cy='63.18' r='2.13' style='stroke-width: 0.00; stroke: #444444; stroke-opacity: 0.10; fill: #444444; fill-opacity: 0.10;' />
<circle cx='351.79' cy='70.15' r='2.13' style='stroke-width: 0.00; stroke: #444444; stroke-opacity: 0.10; fill: #444444; fill-opacity: 0.10;' />
<circle cx='340.73' cy='67.67' r='2.13' style='stroke-width: 0.00; stroke: #444444; stroke-opacity: 0.10; fill: #444444; fill-opacity: 0.10;' />
<circle cx='347.29' cy='62.50' r='2.13' style='stroke-width: 0.00; stroke: #444444; stroke-opacity: 0.10; fill: #444444; fill-opacity: 0.10;' />
<circle cx='331.47' cy='60.26' r='2.13' style='stroke-width: 0.00; stroke: #444444; stroke-opacity: 0.10; fill: #444444; fill-opacity: 0.10;' />
<circle cx='330.34' cy='59.92' r='2.13' style='stroke-width: 0.00; stroke: #444444; stroke-opacity: 0.10; fill: #444444; fill-opacity: 0.10;' />
<circle cx='369.17' cy='66.47' r='2.13' style='stroke-width: 0.00; stroke: #444444; stroke-opacity: 0.10; fill: #444444; fill-opacity: 0.10;' />
<circle cx='359.91' cy='69.30' r='2.13' style='stroke-width: 0.00; stroke: #444444; stroke-opacity: 0.10; fill: #444444; fill-opacity: 0.10;' />
<circle cx='383.18' cy='69.36' r='2.13' style='stroke-width: 0.00; stroke: #444444; stroke-opacity: 0.10; fill: #444444; fill-opacity: 0.10;' />
<circle cx='355.25' cy='62.16' r='2.13' style='stroke-width: 0.00; stroke: #444444; stroke-opacity: 0.10; fill: #444444; fill-opacity: 0.10;' />
<circle cx='380.98' cy='68.41' r='2.13' style='stroke-width: 0.00; stroke: #444444; stroke-opacity: 0.10; fill: #444444; fill-opacity: 0.10;' />
<circle cx='360.10' cy='69.82' r='2.13' style='stroke-width: 0.00; stroke: #444444; stroke-opacity: 0.10; fill: #444444; fill-opacity: 0.10;' />
<circle cx='362.99' cy='67.62' r='2.13' style='stroke-width: 0.00; stroke: #444444; stroke-opacity: 0.10; fill: #444444; fill-opacity: 0.10;' />
<circle cx='336.75' cy='66.98' r='2.13' style='stroke-width: 0.00; stroke: #444444; stroke-opacity: 0.10; fill: #444444; fill-opacity: 0.10;' />
<circle cx='380.11' cy='66.77' r='2.13' style='stroke-width: 0.00; stroke: #444444; stroke-opacity: 0.10; fill: #444444; fill-opacity: 0.10;' />
<circle cx='373.15' cy='57.86' r='2.13' style='stroke-width: 0.00; stroke: #444444; stroke-opacity: 0.10; fill: #444444; fill-opacity: 0.10;' />
<circle cx='378.92' cy='61.39' r='2.13' style='stroke-width: 0.00; stroke: #444444; stroke-opacity: 0.10; fill: #444444; fill-opacity: 0.10;' />
<circle cx='380.91' cy='67.93' r='2.13' style='stroke-width: 0.00; stroke: #444444; stroke-opacity: 0.10; fill: #444444; fill-opacity: 0.10;' />
<circle cx='333.82' cy='72.73' r='2.13' style='stroke-width: 0.00; stroke: #444444; stroke-opacity: 0.10; fill: #444444; fill-opacity: 0.10;' />
<circle cx='383.10' cy='61.74' r='2.13' style='stroke-width: 0.00; stroke: #444444; stroke-opacity: 0.10; fill: #444444; fill-opacity: 0.10;' />
<circle cx='379.23' cy='60.17' r='2.13' style='stroke-width: 0.00; stroke: #444444; stroke-opacity: 0.10; fill: #444444; fill-opacity: 0.10;' />
<circle cx='377.30' cy='32.79' r='2.13' style='stroke-width: 0.00; stroke: #444444; stroke-opacity: 0.10; fill: #444444; fill-opacity: 0.10;' />
<circle cx='378.99' cy='46.88' r='2.13' style='stroke-width: 0.00; stroke: #444444; stroke-opacity: 0.10; fill: #444444; fill-opacity: 0.10;' />
<circle cx='383.06' cy='41.07' r='2.13' style='stroke-width: 0.00; stroke: #444444; stroke-opacity: 0.10; fill: #444444; fill-opacity: 0.10;' />
<circle cx='380.69' cy='38.29' r='2.13' style='stroke-width: 0.00; stroke: #444444; stroke-opacity: 0.10; fill: #444444; fill-opacity: 0.10;' />
<circle cx='379.36' cy='42.46' r='2.13' style='stroke-width: 0.00; stroke: #444444; stroke-opacity: 0.10; fill: #444444; fill-opacity: 0.10;' />
<circle cx='383.51' cy='33.82' r='2.13' style='stroke-width: 0.00; stroke: #444444; stroke-opacity: 0.10; fill: #444444; fill-opacity: 0.10;' />
<circle cx='362.04' cy='46.23' r='2.13' style='stroke-width: 0.00; stroke: #444444; stroke-opacity: 0.10; fill: #444444; fill-opacity: 0.10;' />
<circle cx='360.36' cy='33.27' r='2.13' style='stroke-width: 0.00; stroke: #444444; stroke-opacity: 0.10; fill: #444444; fill-opacity: 0.10;' />
<circle cx='382.56' cy='45.59' r='2.13' style='stroke-width: 0.00; stroke: #444444; stroke-opacity: 0.10; fill: #444444; fill-opacity: 0.10;' />
<circle cx='360.28' cy='47.17' r='2.13' style='stroke-width: 0.00; stroke: #444444; stroke-opacity: 0.10; fill: #444444; fill-opacity: 0.10;' />
<circle cx='370.11' cy='39.00' r='2.13' style='stroke-width: 0.00; stroke: #444444; stroke-opacity: 0.10; fill: #444444; fill-opacity: 0.10;' />
<circle cx='381.66' cy='33.26' r='2.13' style='stroke-width: 0.00; stroke: #444444; stroke-opacity: 0.10; fill: #444444; fill-opacity: 0.10;' />
<circle cx='378.81' cy='38.69' r='2.13' style='stroke-width: 0.00; stroke: #444444; stroke-opacity: 0.10; fill: #444444; fill-opacity: 0.10;' />
<circle cx='364.96' cy='46.07' r='2.13' style='stroke-width: 0.00; stroke: #444444; stroke-opacity: 0.10; fill: #444444; fill-opacity: 0.10;' />
<circle cx='383.07' cy='41.72' r='2.13' style='stroke-width: 0.00; stroke: #444444; stroke-opacity: 0.10; fill: #444444; fill-opacity: 0.10;' />
<circle cx='373.55' cy='44.59' r='2.13' style='stroke-width: 0.00; stroke: #444444; stroke-opacity: 0.10; fill: #444444; fill-opacity: 0.10;' />
<circle cx='370.02' cy='35.30' r='2.13' style='stroke-width: 0.00; stroke: #444444; stroke-opacity: 0.10; fill: #444444; fill-opacity: 0.10;' />
<circle cx='358.05' cy='40.60' r='2.13' style='stroke-width: 0.00; stroke: #444444; stroke-opacity: 0.10; fill: #444444; fill-opacity: 0.10;' />
<circle cx='382.70' cy='42.02' r='2.13' style='stroke-width: 0.00; stroke: #444444; stroke-opacity: 0.10; fill: #444444; fill-opacity: 0.10;' />
<circle cx='379.81' cy='32.06' r='2.13' style='stroke-width: 0.00; stroke: #444444; stroke-opacity: 0.10; fill: #444444; fill-opacity: 0.10;' />
<circle cx='363.93' cy='39.34' r='2.13' style='stroke-width: 0.00; stroke: #444444; stroke-opacity: 0.10; fill: #444444; fill-opacity: 0.10;' />
<circle cx='381.99' cy='46.97' r='2.13' style='stroke-width: 0.00; stroke: #444444; stroke-opacity: 0.10; fill: #444444; fill-opacity: 0.10;' />
<circle cx='354.05' cy='43.51' r='2.13' style='stroke-width: 0.00; stroke: #444444; stroke-opacity: 0.10; fill: #444444; fill-opacity: 0.10;' />
<circle cx='382.30' cy='46.89' r='2.13' style='stroke-width: 0.00; stroke: #444444; stroke-opacity: 0.10; fill: #444444; fill-opacity: 0.10;' />
<circle cx='379.99' cy='46.59' r='2.13' style='stroke-width: 0.00; stroke: #444444; stroke-opacity: 0.10; fill: #444444; fill-opacity: 0.10;' />
<circle cx='377.45' cy='45.35' r='2.13' style='stroke-width: 0.00; stroke: #444444; stroke-opacity: 0.10; fill: #444444; fill-opacity: 0.10;' />
<circle cx='355.40' cy='44.26' r='2.13' style='stroke-width: 0.00; stroke: #444444; stroke-opacity: 0.10; fill: #444444; fill-opacity: 0.10;' />
<circle cx='358.98' cy='45.15' r='2.13' style='stroke-width: 0.00; stroke: #444444; stroke-opacity: 0.10; fill: #444444; fill-opacity: 0.10;' />
<circle cx='381.96' cy='41.01' r='2.13' style='stroke-width: 0.00; stroke: #444444; stroke-opacity: 0.10; fill: #444444; fill-opacity: 0.10;' />
<circle cx='357.65' cy='46.56' r='2.13' style='stroke-width: 0.00; stroke: #444444; stroke-opacity: 0.10; fill: #444444; fill-opacity: 0.10;' />
<circle cx='381.89' cy='41.08' r='2.13' style='stroke-width: 0.00; stroke: #444444; stroke-opacity: 0.10; fill: #444444; fill-opacity: 0.10;' />
<circle cx='383.44' cy='43.41' r='2.13' style='stroke-width: 0.00; stroke: #444444; stroke-opacity: 0.10; fill: #444444; fill-opacity: 0.10;' />
<circle cx='377.78' cy='35.44' r='2.13' style='stroke-width: 0.00; stroke: #444444; stroke-opacity: 0.10; fill: #444444; fill-opacity: 0.10;' />
<circle cx='359.96' cy='44.45' r='2.13' style='stroke-width: 0.00; stroke: #444444; stroke-opacity: 0.10; fill: #444444; fill-opacity: 0.10;' />
<circle cx='383.82' cy='45.81' r='2.13' style='stroke-width: 0.00; stroke: #444444; stroke-opacity: 0.10; fill: #444444; fill-opacity: 0.10;' />
<circle cx='354.80' cy='31.86' r='2.13' style='stroke-width: 0.00; stroke: #444444; stroke-opacity: 0.10; fill: #444444; fill-opacity: 0.10;' />
<circle cx='383.55' cy='43.18' r='2.13' style='stroke-width: 0.00; stroke: #444444; stroke-opacity: 0.10; fill: #444444; fill-opacity: 0.10;' />
<circle cx='358.88' cy='42.55' r='2.13' style='stroke-width: 0.00; stroke: #444444; stroke-opacity: 0.10; fill: #444444; fill-opacity: 0.10;' />
<circle cx='379.74' cy='40.88' r='2.13' style='stroke-width: 0.00; stroke: #444444; stroke-opacity: 0.10; fill: #444444; fill-opacity: 0.10;' />
<circle cx='383.70' cy='43.09' r='2.13' style='stroke-width: 0.00; stroke: #444444; stroke-opacity: 0.10; fill: #444444; fill-opacity: 0.10;' />
<circle cx='377.81' cy='40.26' r='2.13' style='stroke-width: 0.00; stroke: #444444; stroke-opacity: 0.10; fill: #444444; fill-opacity: 0.10;' />
<circle cx='377.21' cy='46.55' r='2.13' style='stroke-width: 0.00; stroke: #444444; stroke-opacity: 0.10; fill: #444444; fill-opacity: 0.10;' />
<circle cx='365.08' cy='40.31' r='2.13' style='stroke-width: 0.00; stroke: #444444; stroke-opacity: 0.10; fill: #444444; fill-opacity: 0.10;' />
<circle cx='378.58' cy='43.35' r='2.13' style='stroke-width: 0.00; stroke: #444444; stroke-opacity: 0.10; fill: #444444; fill-opacity: 0.10;' />
<circle cx='377.71' cy='45.99' r='2.13' style='stroke-width: 0.00; stroke: #444444; stroke-opacity: 0.10; fill: #444444; fill-opacity: 0.10;' />
<circle cx='373.33' cy='41.25' r='2.13' style='stroke-width: 0.00; stroke: #444444; stroke-opacity: 0.10; fill: #444444; fill-opacity: 0.10;' />
<circle cx='383.41' cy='36.11' r='2.13' style='stroke-width: 0.00; stroke: #444444; stroke-opacity: 0.10; fill: #444444; fill-opacity: 0.10;' />
<circle cx='354.63' cy='33.36' r='2.13' style='stroke-width: 0.00; stroke: #444444; stroke-opacity: 0.10; fill: #444444; fill-opacity: 0.10;' />
<circle cx='359.63' cy='40.08' r='2.13' style='stroke-width: 0.00; stroke: #444444; stroke-opacity: 0.10; fill: #444444; fill-opacity: 0.10;' />
<polygon points='349.35,221.61 359.13,225.51 368.91,221.61 359.13,217.71 349.35,221.61 ' style='stroke-width: 1.07; stroke: #534D55; stroke-linecap: butt; fill: #534D55;' />
<polygon points='349.65,195.61 358.78,199.51 367.92,195.61 358.78,191.71 349.65,195.61 ' style='stroke-width: 1.07; stroke: #534E55; stroke-linecap: butt; fill: #534E55;' />
<polygon points='359.50,169.61 368.83,173.51 378.16,169.61 368.83,165.71 359.50,169.61 ' style='stroke-width: 1.07; stroke: #4C2A54; stroke-linecap: butt; fill: #4C2A54;' />
<polygon points='353.09,143.61 361.96,147.51 370.82,143.61 361.96,139.71 353.09,143.61 ' style='stroke-width: 1.07; stroke: #514354; stroke-linecap: butt; fill: #514354;' />
<polygon points='342.78,117.61 357.47,121.51 372.16,117.61 357.47,113.71 342.78,117.61 ' style='stroke-width: 1.07; stroke: #545355; stroke-linecap: butt; fill: #545355;' />
<polygon points='361.06,91.61 369.75,95.51 378.45,91.61 369.75,87.71 361.06,91.61 ' style='stroke-width: 1.07; stroke: #4B2754; stroke-linecap: butt; fill: #4B2754;' />
<polygon points='348.22,65.61 360.89,69.51 373.56,65.61 360.89,61.71 348.22,65.61 ' style='stroke-width: 1.07; stroke: #524755; stroke-linecap: butt; fill: #524755;' />
<polygon points='366.62,39.60 372.78,43.50 378.94,39.60 372.78,35.70 366.62,39.60 ' style='stroke-width: 1.07; stroke: #491C54; stroke-linecap: butt; fill: #491C54;' />
<rect x='327.36' y='21.99' width='59.15' height='217.14' style='stroke-width: 0.78; stroke: #333333;' />
</g>
<g clip-path='url(#cpMC4wMHw1MTAuMjR8MC4wMHwyNjEuOTI=)'>
<text x='323.77' y='223.90' text-anchor='end' style='font-size: 6.40px;fill: #4D4D4D; font-family: "Arial";' textLength='53.67px' lengthAdjust='spacingAndGlyphs'>as little as possible</text>
<text x='323.77' y='197.90' text-anchor='end' style='font-size: 6.40px;fill: #4D4D4D; font-family: "Arial";' textLength='53.67px' lengthAdjust='spacingAndGlyphs'>as little as possible</text>
<text x='323.77' y='171.90' text-anchor='end' style='font-size: 6.40px;fill: #4D4D4D; font-family: "Arial";' textLength='53.67px' lengthAdjust='spacingAndGlyphs'>as little as possible</text>
<text x='323.77' y='145.90' text-anchor='end' style='font-size: 6.40px;fill: #4D4D4D; font-family: "Arial";' textLength='53.67px' lengthAdjust='spacingAndGlyphs'>as little as possible</text>
<text x='323.77' y='119.90' text-anchor='end' style='font-size: 6.40px;fill: #4D4D4D; font-family: "Arial";' textLength='53.67px' lengthAdjust='spacingAndGlyphs'>as little as possible</text>
<text x='323.77' y='93.90' text-anchor='end' style='font-size: 6.40px;fill: #4D4D4D; font-family: "Arial";' textLength='53.67px' lengthAdjust='spacingAndGlyphs'>as little as possible</text>
<text x='323.77' y='67.89' text-anchor='end' style='font-size: 6.40px;fill: #4D4D4D; font-family: "Arial";' textLength='53.67px' lengthAdjust='spacingAndGlyphs'>as little as possible</text>
<text x='323.77' y='41.89' text-anchor='end' style='font-size: 6.40px;fill: #4D4D4D; font-family: "Arial";' textLength='53.67px' lengthAdjust='spacingAndGlyphs'>as little as possible</text>
<polyline points='325.37,221.61 327.36,221.61 ' style='stroke-width: 0.78; stroke: #333333; stroke-linecap: butt;' />
<polyline points='325.37,195.61 327.36,195.61 ' style='stroke-width: 0.78; stroke: #333333; stroke-linecap: butt;' />
<polyline points='325.37,169.61 327.36,169.61 ' style='stroke-width: 0.78; stroke: #333333; stroke-linecap: butt;' />
<polyline points='325.37,143.61 327.36,143.61 ' style='stroke-width: 0.78; stroke: #333333; stroke-linecap: butt;' />
<polyline points='325.37,117.61 327.36,117.61 ' style='stroke-width: 0.78; stroke: #333333; stroke-linecap: butt;' />
<polyline points='325.37,91.61 327.36,91.61 ' style='stroke-width: 0.78; stroke: #333333; stroke-linecap: butt;' />
<polyline points='325.37,65.61 327.36,65.61 ' style='stroke-width: 0.78; stroke: #333333; stroke-linecap: butt;' />
<polyline points='325.37,39.60 327.36,39.60 ' style='stroke-width: 0.78; stroke: #333333; stroke-linecap: butt;' />
<polyline points='388.50,221.61 386.51,221.61 ' style='stroke-width: 0.78; stroke: #333333; stroke-linecap: butt;' />
<polyline points='388.50,195.61 386.51,195.61 ' style='stroke-width: 0.78; stroke: #333333; stroke-linecap: butt;' />
<polyline points='388.50,169.61 386.51,169.61 ' style='stroke-width: 0.78; stroke: #333333; stroke-linecap: butt;' />
<polyline points='388.50,143.61 386.51,143.61 ' style='stroke-width: 0.78; stroke: #333333; stroke-linecap: butt;' />
<polyline points='388.50,117.61 386.51,117.61 ' style='stroke-width: 0.78; stroke: #333333; stroke-linecap: butt;' />
<polyline points='388.50,91.61 386.51,91.61 ' style='stroke-width: 0.78; stroke: #333333; stroke-linecap: butt;' />
<polyline points='388.50,65.61 386.51,65.61 ' style='stroke-width: 0.78; stroke: #333333; stroke-linecap: butt;' />
<polyline points='388.50,39.60 386.51,39.60 ' style='stroke-width: 0.78; stroke: #333333; stroke-linecap: butt;' />
<text x='390.10' y='223.90' style='font-size: 6.40px;fill: #4D4D4D; font-family: "Arial";' textLength='57.94px' lengthAdjust='spacingAndGlyphs'>as much as possible</text>
<text x='390.10' y='197.90' style='font-size: 6.40px;fill: #4D4D4D; font-family: "Arial";' textLength='57.94px' lengthAdjust='spacingAndGlyphs'>as much as possible</text>
<text x='390.10' y='171.90' style='font-size: 6.40px;fill: #4D4D4D; font-family: "Arial";' textLength='57.94px' lengthAdjust='spacingAndGlyphs'>as much as possible</text>
<text x='390.10' y='145.90' style='font-size: 6.40px;fill: #4D4D4D; font-family: "Arial";' textLength='57.94px' lengthAdjust='spacingAndGlyphs'>as much as possible</text>
<text x='390.10' y='119.90' style='font-size: 6.40px;fill: #4D4D4D; font-family: "Arial";' textLength='57.94px' lengthAdjust='spacingAndGlyphs'>as much as possible</text>
<text x='390.10' y='93.90' style='font-size: 6.40px;fill: #4D4D4D; font-family: "Arial";' textLength='57.94px' lengthAdjust='spacingAndGlyphs'>as much as possible</text>
<text x='390.10' y='67.89' style='font-size: 6.40px;fill: #4D4D4D; font-family: "Arial";' textLength='57.94px' lengthAdjust='spacingAndGlyphs'>as much as possible</text>
<text x='390.10' y='41.89' style='font-size: 6.40px;fill: #4D4D4D; font-family: "Arial";' textLength='57.94px' lengthAdjust='spacingAndGlyphs'>as much as possible</text>
<polyline points='333.52,241.12 333.52,239.13 ' style='stroke-width: 0.78; stroke: #333333; stroke-linecap: butt;' />
<polyline points='341.34,241.12 341.34,239.13 ' style='stroke-width: 0.78; stroke: #333333; stroke-linecap: butt;' />
<polyline points='349.16,241.12 349.16,239.13 ' style='stroke-width: 0.78; stroke: #333333; stroke-linecap: butt;' />
<polyline points='356.98,241.12 356.98,239.13 ' style='stroke-width: 0.78; stroke: #333333; stroke-linecap: butt;' />
<polyline points='364.80,241.12 364.80,239.13 ' style='stroke-width: 0.78; stroke: #333333; stroke-linecap: butt;' />
<polyline points='372.62,241.12 372.62,239.13 ' style='stroke-width: 0.78; stroke: #333333; stroke-linecap: butt;' />
<polyline points='380.44,241.12 380.44,239.13 ' style='stroke-width: 0.78; stroke: #333333; stroke-linecap: butt;' />
<text x='333.52' y='247.29' text-anchor='middle' style='font-size: 6.40px;fill: #4D4D4D; font-family: "Arial";' textLength='5.69px' lengthAdjust='spacingAndGlyphs'>-3</text>
<text x='341.34' y='247.29' text-anchor='middle' style='font-size: 6.40px;fill: #4D4D4D; font-family: "Arial";' textLength='5.69px' lengthAdjust='spacingAndGlyphs'>-2</text>
<text x='349.16' y='247.29' text-anchor='middle' style='font-size: 6.40px;fill: #4D4D4D; font-family: "Arial";' textLength='5.69px' lengthAdjust='spacingAndGlyphs'>-1</text>
<text x='356.98' y='247.29' text-anchor='middle' style='font-size: 6.40px;fill: #4D4D4D; font-family: "Arial";' textLength='3.56px' lengthAdjust='spacingAndGlyphs'>0</text>
<text x='364.80' y='247.29' text-anchor='middle' style='font-size: 6.40px;fill: #4D4D4D; font-family: "Arial";' textLength='3.56px' lengthAdjust='spacingAndGlyphs'>1</text>
<text x='372.62' y='247.29' text-anchor='middle' style='font-size: 6.40px;fill: #4D4D4D; font-family: "Arial";' textLength='3.56px' lengthAdjust='spacingAndGlyphs'>2</text>
<text x='380.44' y='247.29' text-anchor='middle' style='font-size: 6.40px;fill: #4D4D4D; font-family: "Arial";' textLength='3.56px' lengthAdjust='spacingAndGlyphs'>3</text>
<text x='356.93' y='256.44' text-anchor='middle' style='font-size: 8.00px; font-family: "Arial";' textLength='84.07px' lengthAdjust='spacingAndGlyphs'>Scores and 99.99% CIs</text>
</g>
<defs>
  <clipPath id='cpMC4wMHwyNjYuMzl8MjEuOTl8MjM5LjEz'>
    <rect x='0.00' y='21.99' width='266.39' height='217.14' />
  </clipPath>
</defs>
<g clip-path='url(#cpMC4wMHwyNjYuMzl8MjEuOTl8MjM5LjEz)'>
</g>
<g clip-path='url(#cpMC4wMHw1MTAuMjR8MC4wMHwyNjEuOTI=)'>
<text x='3.59' y='215.76' style='font-size: 8.00px; font-family: "Arial";' textLength='254.87px' lengthAdjust='spacingAndGlyphs'>When it comes to keeping at least {distRec} distance from others, I want</text>
<text x='3.59' y='224.40' style='font-size: 8.00px; font-family: "Arial";' textLength='145.46px' lengthAdjust='spacingAndGlyphs'>to be like people in my neighbourhood …</text>
<text x='3.59' y='233.04' style='font-size: 8.00px; font-family: "Arial";' textLength='100.06px' lengthAdjust='spacingAndGlyphs'>[NrmDeIdLikeNeighb_clean]</text>
<text x='3.59' y='189.67' style='font-size: 8.00px; font-family: "Arial";' textLength='254.87px' lengthAdjust='spacingAndGlyphs'>When it comes to keeping at least {distRec} distance from others, I want</text>
<text x='3.59' y='198.31' style='font-size: 8.00px; font-family: "Arial";' textLength='81.39px' lengthAdjust='spacingAndGlyphs'>to be like my friends …</text>
<text x='3.59' y='206.95' style='font-size: 8.00px; font-family: "Arial";' textLength='86.71px' lengthAdjust='spacingAndGlyphs'>[NrmDeIdFriends_clean]</text>
<text x='3.59' y='163.58' style='font-size: 8.00px; font-family: "Arial";' textLength='254.87px' lengthAdjust='spacingAndGlyphs'>When it comes to keeping at least {distRec} distance from others, I want</text>
<text x='3.59' y='172.22' style='font-size: 8.00px; font-family: "Arial";' textLength='98.73px' lengthAdjust='spacingAndGlyphs'>to be like my role models …</text>
<text x='3.59' y='180.86' style='font-size: 8.00px; font-family: "Arial";' textLength='76.48px' lengthAdjust='spacingAndGlyphs'>[NrmDeIdRole_clean]</text>
<text x='3.59' y='137.48' style='font-size: 8.00px; font-family: "Arial";' textLength='254.87px' lengthAdjust='spacingAndGlyphs'>When it comes to keeping at least {distRec} distance from others, I want</text>
<text x='3.59' y='146.12' style='font-size: 8.00px; font-family: "Arial";' textLength='105.88px' lengthAdjust='spacingAndGlyphs'>to be like people in general …</text>
<text x='3.59' y='154.76' style='font-size: 8.00px; font-family: "Arial";' textLength='103.17px' lengthAdjust='spacingAndGlyphs'>[NrmDeIdLikeGeneral_clean]</text>
<text x='3.59' y='111.39' style='font-size: 8.00px; font-family: "Arial";' textLength='254.87px' lengthAdjust='spacingAndGlyphs'>When it comes to keeping at least {distRec} distance from others, I want</text>
<text x='3.59' y='120.03' style='font-size: 8.00px; font-family: "Arial";' textLength='88.97px' lengthAdjust='spacingAndGlyphs'>to be like other people …</text>
<text x='3.59' y='128.67' style='font-size: 8.00px; font-family: "Arial";' textLength='80.04px' lengthAdjust='spacingAndGlyphs'>[NrmDeIdOther_clean]</text>
<text x='3.59' y='85.30' style='font-size: 8.00px; font-family: "Arial";' textLength='254.87px' lengthAdjust='spacingAndGlyphs'>When it comes to keeping at least {distRec} distance from others, I want</text>
<text x='3.59' y='93.94' style='font-size: 8.00px; font-family: "Arial";' textLength='113.82px' lengthAdjust='spacingAndGlyphs'>to be like my family members …</text>
<text x='3.59' y='102.58' style='font-size: 8.00px; font-family: "Arial";' textLength='83.58px' lengthAdjust='spacingAndGlyphs'>[NrmDeIdFamily_clean]</text>
<text x='3.59' y='59.21' style='font-size: 8.00px; font-family: "Arial";' textLength='254.87px' lengthAdjust='spacingAndGlyphs'>When it comes to keeping at least {distRec} distance from others, I want</text>
<text x='3.59' y='67.85' style='font-size: 8.00px; font-family: "Arial";' textLength='79.61px' lengthAdjust='spacingAndGlyphs'>to be like my doctor …</text>
<text x='3.59' y='76.49' style='font-size: 8.00px; font-family: "Arial";' textLength='83.59px' lengthAdjust='spacingAndGlyphs'>[NrmDeIdDoctor_clean]</text>
<text x='3.59' y='33.12' style='font-size: 8.00px; font-family: "Arial";' textLength='254.87px' lengthAdjust='spacingAndGlyphs'>When it comes to keeping at least {distRec} distance from others, I want</text>
<text x='3.59' y='41.76' style='font-size: 8.00px; font-family: "Arial";' textLength='96.08px' lengthAdjust='spacingAndGlyphs'>to be like people like me …</text>
<text x='3.59' y='50.40' style='font-size: 8.00px; font-family: "Arial";' textLength='88.21px' lengthAdjust='spacingAndGlyphs'>[NrmDeIdLikeYou_clean]</text>
</g>
<g clip-path='url(#cpMC4wMHwyNjYuMzl8MjEuOTl8MjM5LjEz)'>
</g>
<g clip-path='url(#cpMC4wMHw1MTAuMjR8MC4wMHwyNjEuOTI=)'>
</g>
<defs>
  <clipPath id='cpNDUxLjA4fDUxMC4yNHwxOC4wMHwyNjEuOTI='>
    <rect x='451.08' y='18.00' width='59.15' height='243.92' />
  </clipPath>
</defs>
<g clip-path='url(#cpNDUxLjA4fDUxMC4yNHwxOC4wMHwyNjEuOTI=)'>
<rect x='451.08' y='18.00' width='59.15' height='243.92' style='stroke-width: 0.78; stroke: #FFFFFF; fill: #FFFFFF;' />
</g>
<defs>
  <clipPath id='cpNDU1LjA3fDUwNi4yNXwyMS45OXwyMzkuMTM='>
    <rect x='455.07' y='21.99' width='51.18' height='217.14' />
  </clipPath>
</defs>
<g clip-path='url(#cpNDU1LjA3fDUwNi4yNXwyMS45OXwyMzkuMTM=)'>
<rect x='455.07' y='21.99' width='51.18' height='217.14' style='stroke-width: 0.78; stroke: none; fill: #FFFFFF;' />
<polyline points='463.21,239.13 463.21,21.99 ' style='stroke-width: 0.39; stroke: #EBEBEB; stroke-linecap: butt;' />
<polyline points='474.84,239.13 474.84,21.99 ' style='stroke-width: 0.39; stroke: #EBEBEB; stroke-linecap: butt;' />
<polyline points='486.48,239.13 486.48,21.99 ' style='stroke-width: 0.39; stroke: #EBEBEB; stroke-linecap: butt;' />
<polyline points='498.11,239.13 498.11,21.99 ' style='stroke-width: 0.39; stroke: #EBEBEB; stroke-linecap: butt;' />
<polyline points='457.39,239.13 457.39,21.99 ' style='stroke-width: 0.78; stroke: #EBEBEB; stroke-linecap: butt;' />
<polyline points='469.03,239.13 469.03,21.99 ' style='stroke-width: 0.78; stroke: #EBEBEB; stroke-linecap: butt;' />
<polyline points='480.66,239.13 480.66,21.99 ' style='stroke-width: 0.78; stroke: #EBEBEB; stroke-linecap: butt;' />
<polyline points='492.29,239.13 492.29,21.99 ' style='stroke-width: 0.78; stroke: #EBEBEB; stroke-linecap: butt;' />
<polyline points='503.92,239.13 503.92,21.99 ' style='stroke-width: 0.78; stroke: #EBEBEB; stroke-linecap: butt;' />
<line x1='469.03' y1='239.13' x2='469.03' y2='21.99' style='stroke-width: 1.07; stroke: #BEBEBE; stroke-linecap: butt;' />
<line x1='480.66' y1='239.13' x2='480.66' y2='21.99' style='stroke-width: 1.07; stroke: #BEBEBE; stroke-linecap: butt;' />
<line x1='492.29' y1='239.13' x2='492.29' y2='21.99' style='stroke-width: 1.07; stroke: #BEBEBE; stroke-linecap: butt;' />
<polygon points='466.49,225.20 472.11,229.26 479.19,225.20 472.11,221.14 466.49,225.20 ' style='stroke-width: 2.13; stroke-linecap: butt; fill: #426A69; fill-opacity: 0.50;' />
<polygon points='473.98,198.16 480.30,202.21 486.67,198.16 480.30,194.10 473.98,198.16 ' style='stroke-width: 2.13; stroke-linecap: butt; fill: #545656; fill-opacity: 0.50;' />
<polygon points='473.59,171.12 481.68,175.17 489.54,171.12 481.68,167.06 473.59,171.12 ' style='stroke-width: 2.13; stroke-linecap: butt; fill: #545155; fill-opacity: 0.50;' />
<polygon points='475.37,144.08 482.40,148.13 489.12,144.08 482.40,140.02 475.37,144.08 ' style='stroke-width: 2.13; stroke-linecap: butt; fill: #534E55; fill-opacity: 0.50;' />
<polygon points='474.79,117.03 483.12,121.09 490.85,117.03 483.12,112.98 474.79,117.03 ' style='stroke-width: 2.13; stroke-linecap: butt; fill: #534C55; fill-opacity: 0.50;' />
<polygon points='476.67,89.99 485.34,94.05 492.84,89.99 485.34,85.94 476.67,89.99 ' style='stroke-width: 2.13; stroke-linecap: butt; fill: #514454; fill-opacity: 0.50;' />
<polygon points='479.66,62.95 486.99,67.01 493.18,62.95 486.99,58.90 479.66,62.95 ' style='stroke-width: 2.13; stroke-linecap: butt; fill: #503E54; fill-opacity: 0.50;' />
<polygon points='483.50,35.91 489.73,39.97 494.73,35.91 489.73,31.86 483.50,35.91 ' style='stroke-width: 2.13; stroke-linecap: butt; fill: #4E3454; fill-opacity: 0.50;' />
<rect x='455.07' y='21.99' width='51.18' height='217.14' style='stroke-width: 0.78; stroke: #333333;' />
</g>
<g clip-path='url(#cpNDUxLjA4fDUxMC4yNHwxOC4wMHwyNjEuOTI=)'>
</g>
<g clip-path='url(#cpMC4wMHw1MTAuMjR8MC4wMHwyNjEuOTI=)'>
</g>
<g clip-path='url(#cpNDUxLjA4fDUxMC4yNHwxOC4wMHwyNjEuOTI=)'>
</g>
<g clip-path='url(#cpMC4wMHw1MTAuMjR8MC4wMHwyNjEuOTI=)'>
</g>
<g clip-path='url(#cpNDUxLjA4fDUxMC4yNHwxOC4wMHwyNjEuOTI=)'>
</g>
<g clip-path='url(#cpMC4wMHw1MTAuMjR8MC4wMHwyNjEuOTI=)'>
</g>
<g clip-path='url(#cpNDUxLjA4fDUxMC4yNHwxOC4wMHwyNjEuOTI=)'>
</g>
<g clip-path='url(#cpMC4wMHw1MTAuMjR8MC4wMHwyNjEuOTI=)'>
</g>
<g clip-path='url(#cpNDUxLjA4fDUxMC4yNHwxOC4wMHwyNjEuOTI=)'>
</g>
<g clip-path='url(#cpMC4wMHw1MTAuMjR8MC4wMHwyNjEuOTI=)'>
</g>
<g clip-path='url(#cpNDUxLjA4fDUxMC4yNHwxOC4wMHwyNjEuOTI=)'>
</g>
<g clip-path='url(#cpMC4wMHw1MTAuMjR8MC4wMHwyNjEuOTI=)'>
</g>
<g clip-path='url(#cpNDUxLjA4fDUxMC4yNHwxOC4wMHwyNjEuOTI=)'>
</g>
<g clip-path='url(#cpMC4wMHw1MTAuMjR8MC4wMHwyNjEuOTI=)'>
</g>
<g clip-path='url(#cpNDUxLjA4fDUxMC4yNHwxOC4wMHwyNjEuOTI=)'>
</g>
<g clip-path='url(#cpMC4wMHw1MTAuMjR8MC4wMHwyNjEuOTI=)'>
<polyline points='457.39,241.12 457.39,239.13 ' style='stroke-width: 0.78; stroke: #333333; stroke-linecap: butt;' />
<polyline points='469.03,241.12 469.03,239.13 ' style='stroke-width: 0.78; stroke: #333333; stroke-linecap: butt;' />
<polyline points='480.66,241.12 480.66,239.13 ' style='stroke-width: 0.78; stroke: #333333; stroke-linecap: butt;' />
<polyline points='492.29,241.12 492.29,239.13 ' style='stroke-width: 0.78; stroke: #333333; stroke-linecap: butt;' />
<polyline points='503.92,241.12 503.92,239.13 ' style='stroke-width: 0.78; stroke: #333333; stroke-linecap: butt;' />
<text x='457.39' y='247.29' text-anchor='middle' style='font-size: 6.40px;fill: #4D4D4D; font-family: "Arial";' textLength='11.02px' lengthAdjust='spacingAndGlyphs'>-1.0</text>
<text x='469.03' y='247.29' text-anchor='middle' style='font-size: 6.40px;fill: #4D4D4D; font-family: "Arial";' textLength='11.02px' lengthAdjust='spacingAndGlyphs'>-0.5</text>
<text x='480.66' y='247.29' text-anchor='middle' style='font-size: 6.40px;fill: #4D4D4D; font-family: "Arial";' textLength='8.89px' lengthAdjust='spacingAndGlyphs'>0.0</text>
<text x='492.29' y='247.29' text-anchor='middle' style='font-size: 6.40px;fill: #4D4D4D; font-family: "Arial";' textLength='8.89px' lengthAdjust='spacingAndGlyphs'>0.5</text>
<text x='503.92' y='247.29' text-anchor='middle' style='font-size: 6.40px;fill: #4D4D4D; font-family: "Arial";' textLength='8.89px' lengthAdjust='spacingAndGlyphs'>1.0</text>
</g>
<g clip-path='url(#cpNDUxLjA4fDUxMC4yNHwxOC4wMHwyNjEuOTI=)'>
</g>
<g clip-path='url(#cpMC4wMHw1MTAuMjR8MC4wMHwyNjEuOTI=)'>
</g>
<g clip-path='url(#cpNDUxLjA4fDUxMC4yNHwxOC4wMHwyNjEuOTI=)'>
</g>
<g clip-path='url(#cpMC4wMHw1MTAuMjR8MC4wMHwyNjEuOTI=)'>
<text x='480.66' y='256.44' text-anchor='middle' style='font-size: 8.00px; font-family: "Arial";' textLength='85.41px' lengthAdjust='spacingAndGlyphs'>95% CIs of associations</text>
</g>
<g clip-path='url(#cpNDUxLjA4fDUxMC4yNHwxOC4wMHwyNjEuOTI=)'>
</g>
<g clip-path='url(#cpMC4wMHw1MTAuMjR8MC4wMHwyNjEuOTI=)'>
</g>
<g clip-path='url(#cpNDUxLjA4fDUxMC4yNHwxOC4wMHwyNjEuOTI=)'>
</g>
<g clip-path='url(#cpMC4wMHw1MTAuMjR8MC4wMHwyNjEuOTI=)'>
</g>
<g clip-path='url(#cpNDUxLjA4fDUxMC4yNHwxOC4wMHwyNjEuOTI=)'>
</g>
<g clip-path='url(#cpMC4wMHw1MTAuMjR8MC4wMHwyNjEuOTI=)'>
</g>
<g clip-path='url(#cpNDUxLjA4fDUxMC4yNHwxOC4wMHwyNjEuOTI=)'>
</g>
<g clip-path='url(#cpMC4wMHw1MTAuMjR8MC4wMHwyNjEuOTI=)'>
</g>
<g clip-path='url(#cpNDUxLjA4fDUxMC4yNHwxOC4wMHwyNjEuOTI=)'>
</g>
<g clip-path='url(#cpMC4wMHw1MTAuMjR8MC4wMHwyNjEuOTI=)'>
</g>
<g clip-path='url(#cpNDUxLjA4fDUxMC4yNHwxOC4wMHwyNjEuOTI=)'>
</g>
<g clip-path='url(#cpMC4wMHw1MTAuMjR8MC4wMHwyNjEuOTI=)'>
</g>
<g clip-path='url(#cpNDUxLjA4fDUxMC4yNHwxOC4wMHwyNjEuOTI=)'>
</g>
<g clip-path='url(#cpMC4wMHw1MTAuMjR8MC4wMHwyNjEuOTI=)'>
</g>
<g clip-path='url(#cpNDUxLjA4fDUxMC4yNHwxOC4wMHwyNjEuOTI=)'>
</g>
<g clip-path='url(#cpMC4wMHw1MTAuMjR8MC4wMHwyNjEuOTI=)'>
</g>
<g clip-path='url(#cpNDUxLjA4fDUxMC4yNHwxOC4wMHwyNjEuOTI=)'>
</g>
<g clip-path='url(#cpMC4wMHw1MTAuMjR8MC4wMHwyNjEuOTI=)'>
</g>
<g clip-path='url(#cpNDUxLjA4fDUxMC4yNHwxOC4wMHwyNjEuOTI=)'>
</g>
<g clip-path='url(#cpMC4wMHw1MTAuMjR8MC4wMHwyNjEuOTI=)'>
</g>
<g clip-path='url(#cpNDUxLjA4fDUxMC4yNHwxOC4wMHwyNjEuOTI=)'>
</g>
<g clip-path='url(#cpMC4wMHw1MTAuMjR8MC4wMHwyNjEuOTI=)'>
<text x='2.30' y='8.78' style='font-size: 9.60px; font-weight: bold; font-family: "Arial";' textLength='147.66px' lengthAdjust='spacingAndGlyphs'>Means and associations (r) with </text>
<text x='149.96' y='8.78' style='font-size: 9.60px; font-weight: bold; font-family: "Arial";' textLength='43.17px' lengthAdjust='spacingAndGlyphs'>proximity</text>
<text x='193.13' y='8.78' style='font-size: 9.60px; font-weight: bold; font-family: "Arial";' textLength='2.66px' lengthAdjust='spacingAndGlyphs'> </text>
</g>
</svg>
