<?xml version='1.0' encoding='UTF-8' ?>
<svg xmlns='http://www.w3.org/2000/svg' xmlns:xlink='http://www.w3.org/1999/xlink' class='svglite' width='510.24pt' height='321.45pt' viewBox='0 0 510.24 321.45'>
<defs>
  <style type='text/css'><![CDATA[
    .svglite line, .svglite polyline, .svglite polygon, .svglite path, .svglite rect, .svglite circle {
      fill: none;
      stroke: #000000;
      stroke-linecap: round;
      stroke-linejoin: round;
      stroke-miterlimit: 10.00;
    }
    .svglite text {
      white-space: pre;
    }
  ]]></style>
</defs>
<rect width='100%' height='100%' style='stroke: none; fill: none;'/>
<defs>
  <clipPath id='cpMC4wMHw1MTAuMjR8MC4wMHwzMjEuNDU='>
    <rect x='0.00' y='0.00' width='510.24' height='321.45' />
  </clipPath>
</defs>
<g clip-path='url(#cpMC4wMHw1MTAuMjR8MC4wMHwzMjEuNDU=)'>
</g>
<defs>
  <clipPath id='cpMTAyLjI5fDM2Ny41M3wxOC4wMHwzMjEuNDU='>
    <rect x='102.29' y='18.00' width='265.25' height='303.45' />
  </clipPath>
</defs>
<g clip-path='url(#cpMTAyLjI5fDM2Ny41M3wxOC4wMHwzMjEuNDU=)'>
<rect x='102.29' y='18.00' width='265.25' height='303.45' style='stroke-width: 0.78; stroke: #FFFFFF; fill: #FFFFFF;' />
</g>
<g clip-path='url(#cpMC4wMHw1MTAuMjR8MC4wMHwzMjEuNDU=)'>
</g>
<defs>
  <clipPath id='cpMTYxLjE2fDMwMy44NnwyMS45OXwyOTguNjU='>
    <rect x='161.16' y='21.99' width='142.70' height='276.67' />
  </clipPath>
</defs>
<g clip-path='url(#cpMTYxLjE2fDMwMy44NnwyMS45OXwyOTguNjU=)'>
<rect x='161.16' y='21.99' width='142.70' height='276.67' style='stroke-width: 0.78; stroke: none; fill: #FFFFFF;' />
<polyline points='166.66,298.65 166.66,21.99 ' style='stroke-width: 0.39; stroke: #EBEBEB; stroke-linecap: butt;' />
<polyline points='184.72,298.65 184.72,21.99 ' style='stroke-width: 0.39; stroke: #EBEBEB; stroke-linecap: butt;' />
<polyline points='202.79,298.65 202.79,21.99 ' style='stroke-width: 0.39; stroke: #EBEBEB; stroke-linecap: butt;' />
<polyline points='220.86,298.65 220.86,21.99 ' style='stroke-width: 0.39; stroke: #EBEBEB; stroke-linecap: butt;' />
<polyline points='238.93,298.65 238.93,21.99 ' style='stroke-width: 0.39; stroke: #EBEBEB; stroke-linecap: butt;' />
<polyline points='257.00,298.65 257.00,21.99 ' style='stroke-width: 0.39; stroke: #EBEBEB; stroke-linecap: butt;' />
<polyline points='275.07,298.65 275.07,21.99 ' style='stroke-width: 0.39; stroke: #EBEBEB; stroke-linecap: butt;' />
<polyline points='293.14,298.65 293.14,21.99 ' style='stroke-width: 0.39; stroke: #EBEBEB; stroke-linecap: butt;' />
<polyline points='302.17,298.65 302.17,21.99 ' style='stroke-width: 0.39; stroke: #EBEBEB; stroke-linecap: butt;' />
<polyline points='161.16,278.23 303.86,278.23 ' style='stroke-width: 0.78; stroke: #EBEBEB; stroke-linecap: butt;' />
<polyline points='161.16,252.02 303.86,252.02 ' style='stroke-width: 0.78; stroke: #EBEBEB; stroke-linecap: butt;' />
<polyline points='161.16,225.81 303.86,225.81 ' style='stroke-width: 0.78; stroke: #EBEBEB; stroke-linecap: butt;' />
<polyline points='161.16,199.60 303.86,199.60 ' style='stroke-width: 0.78; stroke: #EBEBEB; stroke-linecap: butt;' />
<polyline points='161.16,173.39 303.86,173.39 ' style='stroke-width: 0.78; stroke: #EBEBEB; stroke-linecap: butt;' />
<polyline points='161.16,147.18 303.86,147.18 ' style='stroke-width: 0.78; stroke: #EBEBEB; stroke-linecap: butt;' />
<polyline points='161.16,120.97 303.86,120.97 ' style='stroke-width: 0.78; stroke: #EBEBEB; stroke-linecap: butt;' />
<polyline points='161.16,94.75 303.86,94.75 ' style='stroke-width: 0.78; stroke: #EBEBEB; stroke-linecap: butt;' />
<polyline points='161.16,68.54 303.86,68.54 ' style='stroke-width: 0.78; stroke: #EBEBEB; stroke-linecap: butt;' />
<polyline points='161.16,42.33 303.86,42.33 ' style='stroke-width: 0.78; stroke: #EBEBEB; stroke-linecap: butt;' />
<polyline points='175.69,298.65 175.69,21.99 ' style='stroke-width: 0.78; stroke: #EBEBEB; stroke-linecap: butt;' />
<polyline points='193.76,298.65 193.76,21.99 ' style='stroke-width: 0.78; stroke: #EBEBEB; stroke-linecap: butt;' />
<polyline points='211.83,298.65 211.83,21.99 ' style='stroke-width: 0.78; stroke: #EBEBEB; stroke-linecap: butt;' />
<polyline points='229.90,298.65 229.90,21.99 ' style='stroke-width: 0.78; stroke: #EBEBEB; stroke-linecap: butt;' />
<polyline points='247.97,298.65 247.97,21.99 ' style='stroke-width: 0.78; stroke: #EBEBEB; stroke-linecap: butt;' />
<polyline points='266.03,298.65 266.03,21.99 ' style='stroke-width: 0.78; stroke: #EBEBEB; stroke-linecap: butt;' />
<polyline points='284.10,298.65 284.10,21.99 ' style='stroke-width: 0.78; stroke: #EBEBEB; stroke-linecap: butt;' />
<circle cx='179.86' cy='271.47' r='2.13' style='stroke-width: 0.00; stroke: #444444; stroke-opacity: 0.10; fill: #444444; fill-opacity: 0.10;' />
<circle cx='198.55' cy='275.62' r='2.13' style='stroke-width: 0.00; stroke: #444444; stroke-opacity: 0.10; fill: #444444; fill-opacity: 0.10;' />
<circle cx='187.29' cy='278.54' r='2.13' style='stroke-width: 0.00; stroke: #444444; stroke-opacity: 0.10; fill: #444444; fill-opacity: 0.10;' />
<circle cx='180.60' cy='273.26' r='2.13' style='stroke-width: 0.00; stroke: #444444; stroke-opacity: 0.10; fill: #444444; fill-opacity: 0.10;' />
<circle cx='172.96' cy='283.04' r='2.13' style='stroke-width: 0.00; stroke: #444444; stroke-opacity: 0.10; fill: #444444; fill-opacity: 0.10;' />
<circle cx='181.46' cy='281.35' r='2.13' style='stroke-width: 0.00; stroke: #444444; stroke-opacity: 0.10; fill: #444444; fill-opacity: 0.10;' />
<circle cx='183.23' cy='285.39' r='2.13' style='stroke-width: 0.00; stroke: #444444; stroke-opacity: 0.10; fill: #444444; fill-opacity: 0.10;' />
<circle cx='168.10' cy='276.02' r='2.13' style='stroke-width: 0.00; stroke: #444444; stroke-opacity: 0.10; fill: #444444; fill-opacity: 0.10;' />
<circle cx='177.31' cy='279.99' r='2.13' style='stroke-width: 0.00; stroke: #444444; stroke-opacity: 0.10; fill: #444444; fill-opacity: 0.10;' />
<circle cx='174.05' cy='284.33' r='2.13' style='stroke-width: 0.00; stroke: #444444; stroke-opacity: 0.10; fill: #444444; fill-opacity: 0.10;' />
<circle cx='174.66' cy='271.33' r='2.13' style='stroke-width: 0.00; stroke: #444444; stroke-opacity: 0.10; fill: #444444; fill-opacity: 0.10;' />
<circle cx='179.66' cy='278.30' r='2.13' style='stroke-width: 0.00; stroke: #444444; stroke-opacity: 0.10; fill: #444444; fill-opacity: 0.10;' />
<circle cx='173.60' cy='285.73' r='2.13' style='stroke-width: 0.00; stroke: #444444; stroke-opacity: 0.10; fill: #444444; fill-opacity: 0.10;' />
<circle cx='225.10' cy='274.60' r='2.13' style='stroke-width: 0.00; stroke: #444444; stroke-opacity: 0.10; fill: #444444; fill-opacity: 0.10;' />
<circle cx='168.76' cy='277.04' r='2.13' style='stroke-width: 0.00; stroke: #444444; stroke-opacity: 0.10; fill: #444444; fill-opacity: 0.10;' />
<circle cx='167.89' cy='284.27' r='2.13' style='stroke-width: 0.00; stroke: #444444; stroke-opacity: 0.10; fill: #444444; fill-opacity: 0.10;' />
<circle cx='173.38' cy='271.76' r='2.13' style='stroke-width: 0.00; stroke: #444444; stroke-opacity: 0.10; fill: #444444; fill-opacity: 0.10;' />
<circle cx='219.07' cy='277.50' r='2.13' style='stroke-width: 0.00; stroke: #444444; stroke-opacity: 0.10; fill: #444444; fill-opacity: 0.10;' />
<circle cx='171.11' cy='286.08' r='2.13' style='stroke-width: 0.00; stroke: #444444; stroke-opacity: 0.10; fill: #444444; fill-opacity: 0.10;' />
<circle cx='191.42' cy='280.70' r='2.13' style='stroke-width: 0.00; stroke: #444444; stroke-opacity: 0.10; fill: #444444; fill-opacity: 0.10;' />
<circle cx='169.56' cy='284.82' r='2.13' style='stroke-width: 0.00; stroke: #444444; stroke-opacity: 0.10; fill: #444444; fill-opacity: 0.10;' />
<circle cx='183.16' cy='275.63' r='2.13' style='stroke-width: 0.00; stroke: #444444; stroke-opacity: 0.10; fill: #444444; fill-opacity: 0.10;' />
<circle cx='181.69' cy='273.90' r='2.13' style='stroke-width: 0.00; stroke: #444444; stroke-opacity: 0.10; fill: #444444; fill-opacity: 0.10;' />
<circle cx='228.61' cy='246.20' r='2.13' style='stroke-width: 0.00; stroke: #444444; stroke-opacity: 0.10; fill: #444444; fill-opacity: 0.10;' />
<circle cx='264.02' cy='257.20' r='2.13' style='stroke-width: 0.00; stroke: #444444; stroke-opacity: 0.10; fill: #444444; fill-opacity: 0.10;' />
<circle cx='290.80' cy='250.89' r='2.13' style='stroke-width: 0.00; stroke: #444444; stroke-opacity: 0.10; fill: #444444; fill-opacity: 0.10;' />
<circle cx='269.36' cy='259.00' r='2.13' style='stroke-width: 0.00; stroke: #444444; stroke-opacity: 0.10; fill: #444444; fill-opacity: 0.10;' />
<circle cx='262.08' cy='251.91' r='2.13' style='stroke-width: 0.00; stroke: #444444; stroke-opacity: 0.10; fill: #444444; fill-opacity: 0.10;' />
<circle cx='227.16' cy='244.94' r='2.13' style='stroke-width: 0.00; stroke: #444444; stroke-opacity: 0.10; fill: #444444; fill-opacity: 0.10;' />
<circle cx='225.53' cy='255.25' r='2.13' style='stroke-width: 0.00; stroke: #444444; stroke-opacity: 0.10; fill: #444444; fill-opacity: 0.10;' />
<circle cx='284.21' cy='255.41' r='2.13' style='stroke-width: 0.00; stroke: #444444; stroke-opacity: 0.10; fill: #444444; fill-opacity: 0.10;' />
<circle cx='237.25' cy='247.43' r='2.13' style='stroke-width: 0.00; stroke: #444444; stroke-opacity: 0.10; fill: #444444; fill-opacity: 0.10;' />
<circle cx='284.09' cy='251.45' r='2.13' style='stroke-width: 0.00; stroke: #444444; stroke-opacity: 0.10; fill: #444444; fill-opacity: 0.10;' />
<circle cx='280.05' cy='245.45' r='2.13' style='stroke-width: 0.00; stroke: #444444; stroke-opacity: 0.10; fill: #444444; fill-opacity: 0.10;' />
<circle cx='281.33' cy='253.20' r='2.13' style='stroke-width: 0.00; stroke: #444444; stroke-opacity: 0.10; fill: #444444; fill-opacity: 0.10;' />
<circle cx='225.11' cy='252.22' r='2.13' style='stroke-width: 0.00; stroke: #444444; stroke-opacity: 0.10; fill: #444444; fill-opacity: 0.10;' />
<circle cx='285.19' cy='258.85' r='2.13' style='stroke-width: 0.00; stroke: #444444; stroke-opacity: 0.10; fill: #444444; fill-opacity: 0.10;' />
<circle cx='288.52' cy='254.21' r='2.13' style='stroke-width: 0.00; stroke: #444444; stroke-opacity: 0.10; fill: #444444; fill-opacity: 0.10;' />
<circle cx='277.71' cy='257.49' r='2.13' style='stroke-width: 0.00; stroke: #444444; stroke-opacity: 0.10; fill: #444444; fill-opacity: 0.10;' />
<circle cx='254.88' cy='250.07' r='2.13' style='stroke-width: 0.00; stroke: #444444; stroke-opacity: 0.10; fill: #444444; fill-opacity: 0.10;' />
<circle cx='241.82' cy='255.12' r='2.13' style='stroke-width: 0.00; stroke: #444444; stroke-opacity: 0.10; fill: #444444; fill-opacity: 0.10;' />
<circle cx='282.41' cy='248.05' r='2.13' style='stroke-width: 0.00; stroke: #444444; stroke-opacity: 0.10; fill: #444444; fill-opacity: 0.10;' />
<circle cx='287.33' cy='249.23' r='2.13' style='stroke-width: 0.00; stroke: #444444; stroke-opacity: 0.10; fill: #444444; fill-opacity: 0.10;' />
<circle cx='237.27' cy='258.23' r='2.13' style='stroke-width: 0.00; stroke: #444444; stroke-opacity: 0.10; fill: #444444; fill-opacity: 0.10;' />
<circle cx='246.11' cy='256.60' r='2.13' style='stroke-width: 0.00; stroke: #444444; stroke-opacity: 0.10; fill: #444444; fill-opacity: 0.10;' />
<circle cx='209.91' cy='222.28' r='2.13' style='stroke-width: 0.00; stroke: #444444; stroke-opacity: 0.10; fill: #444444; fill-opacity: 0.10;' />
<circle cx='247.28' cy='218.20' r='2.13' style='stroke-width: 0.00; stroke: #444444; stroke-opacity: 0.10; fill: #444444; fill-opacity: 0.10;' />
<circle cx='224.22' cy='225.52' r='2.13' style='stroke-width: 0.00; stroke: #444444; stroke-opacity: 0.10; fill: #444444; fill-opacity: 0.10;' />
<circle cx='211.37' cy='218.16' r='2.13' style='stroke-width: 0.00; stroke: #444444; stroke-opacity: 0.10; fill: #444444; fill-opacity: 0.10;' />
<circle cx='212.89' cy='224.56' r='2.13' style='stroke-width: 0.00; stroke: #444444; stroke-opacity: 0.10; fill: #444444; fill-opacity: 0.10;' />
<circle cx='189.94' cy='231.64' r='2.13' style='stroke-width: 0.00; stroke: #444444; stroke-opacity: 0.10; fill: #444444; fill-opacity: 0.10;' />
<circle cx='191.68' cy='224.73' r='2.13' style='stroke-width: 0.00; stroke: #444444; stroke-opacity: 0.10; fill: #444444; fill-opacity: 0.10;' />
<circle cx='231.06' cy='231.75' r='2.13' style='stroke-width: 0.00; stroke: #444444; stroke-opacity: 0.10; fill: #444444; fill-opacity: 0.10;' />
<circle cx='229.62' cy='225.12' r='2.13' style='stroke-width: 0.00; stroke: #444444; stroke-opacity: 0.10; fill: #444444; fill-opacity: 0.10;' />
<circle cx='230.82' cy='226.67' r='2.13' style='stroke-width: 0.00; stroke: #444444; stroke-opacity: 0.10; fill: #444444; fill-opacity: 0.10;' />
<circle cx='219.32' cy='222.50' r='2.13' style='stroke-width: 0.00; stroke: #444444; stroke-opacity: 0.10; fill: #444444; fill-opacity: 0.10;' />
<circle cx='271.96' cy='224.89' r='2.13' style='stroke-width: 0.00; stroke: #444444; stroke-opacity: 0.10; fill: #444444; fill-opacity: 0.10;' />
<circle cx='225.02' cy='222.64' r='2.13' style='stroke-width: 0.00; stroke: #444444; stroke-opacity: 0.10; fill: #444444; fill-opacity: 0.10;' />
<circle cx='226.89' cy='232.64' r='2.13' style='stroke-width: 0.00; stroke: #444444; stroke-opacity: 0.10; fill: #444444; fill-opacity: 0.10;' />
<circle cx='168.82' cy='228.09' r='2.13' style='stroke-width: 0.00; stroke: #444444; stroke-opacity: 0.10; fill: #444444; fill-opacity: 0.10;' />
<circle cx='232.24' cy='220.58' r='2.13' style='stroke-width: 0.00; stroke: #444444; stroke-opacity: 0.10; fill: #444444; fill-opacity: 0.10;' />
<circle cx='232.97' cy='223.10' r='2.13' style='stroke-width: 0.00; stroke: #444444; stroke-opacity: 0.10; fill: #444444; fill-opacity: 0.10;' />
<circle cx='227.87' cy='230.51' r='2.13' style='stroke-width: 0.00; stroke: #444444; stroke-opacity: 0.10; fill: #444444; fill-opacity: 0.10;' />
<circle cx='234.27' cy='231.24' r='2.13' style='stroke-width: 0.00; stroke: #444444; stroke-opacity: 0.10; fill: #444444; fill-opacity: 0.10;' />
<circle cx='231.29' cy='222.95' r='2.13' style='stroke-width: 0.00; stroke: #444444; stroke-opacity: 0.10; fill: #444444; fill-opacity: 0.10;' />
<circle cx='227.32' cy='230.68' r='2.13' style='stroke-width: 0.00; stroke: #444444; stroke-opacity: 0.10; fill: #444444; fill-opacity: 0.10;' />
<circle cx='218.12' cy='218.11' r='2.13' style='stroke-width: 0.00; stroke: #444444; stroke-opacity: 0.10; fill: #444444; fill-opacity: 0.10;' />
<circle cx='193.30' cy='233.35' r='2.13' style='stroke-width: 0.00; stroke: #444444; stroke-opacity: 0.10; fill: #444444; fill-opacity: 0.10;' />
<circle cx='231.19' cy='219.53' r='2.13' style='stroke-width: 0.00; stroke: #444444; stroke-opacity: 0.10; fill: #444444; fill-opacity: 0.10;' />
<circle cx='242.49' cy='228.96' r='2.13' style='stroke-width: 0.00; stroke: #444444; stroke-opacity: 0.10; fill: #444444; fill-opacity: 0.10;' />
<circle cx='189.58' cy='218.84' r='2.13' style='stroke-width: 0.00; stroke: #444444; stroke-opacity: 0.10; fill: #444444; fill-opacity: 0.10;' />
<circle cx='224.85' cy='232.25' r='2.13' style='stroke-width: 0.00; stroke: #444444; stroke-opacity: 0.10; fill: #444444; fill-opacity: 0.10;' />
<circle cx='183.11' cy='232.54' r='2.13' style='stroke-width: 0.00; stroke: #444444; stroke-opacity: 0.10; fill: #444444; fill-opacity: 0.10;' />
<circle cx='199.94' cy='224.51' r='2.13' style='stroke-width: 0.00; stroke: #444444; stroke-opacity: 0.10; fill: #444444; fill-opacity: 0.10;' />
<circle cx='173.37' cy='229.90' r='2.13' style='stroke-width: 0.00; stroke: #444444; stroke-opacity: 0.10; fill: #444444; fill-opacity: 0.10;' />
<circle cx='277.54' cy='195.06' r='2.13' style='stroke-width: 0.00; stroke: #444444; stroke-opacity: 0.10; fill: #444444; fill-opacity: 0.10;' />
<circle cx='286.10' cy='204.53' r='2.13' style='stroke-width: 0.00; stroke: #444444; stroke-opacity: 0.10; fill: #444444; fill-opacity: 0.10;' />
<circle cx='286.70' cy='200.98' r='2.13' style='stroke-width: 0.00; stroke: #444444; stroke-opacity: 0.10; fill: #444444; fill-opacity: 0.10;' />
<circle cx='237.43' cy='205.29' r='2.13' style='stroke-width: 0.00; stroke: #444444; stroke-opacity: 0.10; fill: #444444; fill-opacity: 0.10;' />
<circle cx='278.53' cy='206.19' r='2.13' style='stroke-width: 0.00; stroke: #444444; stroke-opacity: 0.10; fill: #444444; fill-opacity: 0.10;' />
<circle cx='276.88' cy='196.83' r='2.13' style='stroke-width: 0.00; stroke: #444444; stroke-opacity: 0.10; fill: #444444; fill-opacity: 0.10;' />
<circle cx='279.68' cy='196.87' r='2.13' style='stroke-width: 0.00; stroke: #444444; stroke-opacity: 0.10; fill: #444444; fill-opacity: 0.10;' />
<circle cx='286.93' cy='193.54' r='2.13' style='stroke-width: 0.00; stroke: #444444; stroke-opacity: 0.10; fill: #444444; fill-opacity: 0.10;' />
<circle cx='171.31' cy='202.34' r='2.13' style='stroke-width: 0.00; stroke: #444444; stroke-opacity: 0.10; fill: #444444; fill-opacity: 0.10;' />
<circle cx='244.81' cy='203.66' r='2.13' style='stroke-width: 0.00; stroke: #444444; stroke-opacity: 0.10; fill: #444444; fill-opacity: 0.10;' />
<circle cx='289.70' cy='197.22' r='2.13' style='stroke-width: 0.00; stroke: #444444; stroke-opacity: 0.10; fill: #444444; fill-opacity: 0.10;' />
<circle cx='222.40' cy='194.62' r='2.13' style='stroke-width: 0.00; stroke: #444444; stroke-opacity: 0.10; fill: #444444; fill-opacity: 0.10;' />
<circle cx='236.04' cy='207.45' r='2.13' style='stroke-width: 0.00; stroke: #444444; stroke-opacity: 0.10; fill: #444444; fill-opacity: 0.10;' />
<circle cx='279.34' cy='192.93' r='2.13' style='stroke-width: 0.00; stroke: #444444; stroke-opacity: 0.10; fill: #444444; fill-opacity: 0.10;' />
<circle cx='234.90' cy='203.06' r='2.13' style='stroke-width: 0.00; stroke: #444444; stroke-opacity: 0.10; fill: #444444; fill-opacity: 0.10;' />
<circle cx='233.03' cy='206.26' r='2.13' style='stroke-width: 0.00; stroke: #444444; stroke-opacity: 0.10; fill: #444444; fill-opacity: 0.10;' />
<circle cx='287.19' cy='194.48' r='2.13' style='stroke-width: 0.00; stroke: #444444; stroke-opacity: 0.10; fill: #444444; fill-opacity: 0.10;' />
<circle cx='265.97' cy='197.42' r='2.13' style='stroke-width: 0.00; stroke: #444444; stroke-opacity: 0.10; fill: #444444; fill-opacity: 0.10;' />
<circle cx='257.99' cy='196.46' r='2.13' style='stroke-width: 0.00; stroke: #444444; stroke-opacity: 0.10; fill: #444444; fill-opacity: 0.10;' />
<circle cx='279.33' cy='195.32' r='2.13' style='stroke-width: 0.00; stroke: #444444; stroke-opacity: 0.10; fill: #444444; fill-opacity: 0.10;' />
<circle cx='277.51' cy='200.73' r='2.13' style='stroke-width: 0.00; stroke: #444444; stroke-opacity: 0.10; fill: #444444; fill-opacity: 0.10;' />
<circle cx='287.14' cy='178.08' r='2.13' style='stroke-width: 0.00; stroke: #444444; stroke-opacity: 0.10; fill: #444444; fill-opacity: 0.10;' />
<circle cx='183.63' cy='174.03' r='2.13' style='stroke-width: 0.00; stroke: #444444; stroke-opacity: 0.10; fill: #444444; fill-opacity: 0.10;' />
<circle cx='180.28' cy='170.06' r='2.13' style='stroke-width: 0.00; stroke: #444444; stroke-opacity: 0.10; fill: #444444; fill-opacity: 0.10;' />
<circle cx='230.48' cy='172.54' r='2.13' style='stroke-width: 0.00; stroke: #444444; stroke-opacity: 0.10; fill: #444444; fill-opacity: 0.10;' />
<circle cx='179.00' cy='173.92' r='2.13' style='stroke-width: 0.00; stroke: #444444; stroke-opacity: 0.10; fill: #444444; fill-opacity: 0.10;' />
<circle cx='174.38' cy='173.21' r='2.13' style='stroke-width: 0.00; stroke: #444444; stroke-opacity: 0.10; fill: #444444; fill-opacity: 0.10;' />
<circle cx='178.78' cy='168.47' r='2.13' style='stroke-width: 0.00; stroke: #444444; stroke-opacity: 0.10; fill: #444444; fill-opacity: 0.10;' />
<circle cx='171.33' cy='173.53' r='2.13' style='stroke-width: 0.00; stroke: #444444; stroke-opacity: 0.10; fill: #444444; fill-opacity: 0.10;' />
<circle cx='244.57' cy='169.97' r='2.13' style='stroke-width: 0.00; stroke: #444444; stroke-opacity: 0.10; fill: #444444; fill-opacity: 0.10;' />
<circle cx='225.54' cy='173.11' r='2.13' style='stroke-width: 0.00; stroke: #444444; stroke-opacity: 0.10; fill: #444444; fill-opacity: 0.10;' />
<circle cx='178.32' cy='167.91' r='2.13' style='stroke-width: 0.00; stroke: #444444; stroke-opacity: 0.10; fill: #444444; fill-opacity: 0.10;' />
<circle cx='179.23' cy='174.51' r='2.13' style='stroke-width: 0.00; stroke: #444444; stroke-opacity: 0.10; fill: #444444; fill-opacity: 0.10;' />
<circle cx='233.21' cy='178.25' r='2.13' style='stroke-width: 0.00; stroke: #444444; stroke-opacity: 0.10; fill: #444444; fill-opacity: 0.10;' />
<circle cx='185.70' cy='176.83' r='2.13' style='stroke-width: 0.00; stroke: #444444; stroke-opacity: 0.10; fill: #444444; fill-opacity: 0.10;' />
<circle cx='246.75' cy='172.40' r='2.13' style='stroke-width: 0.00; stroke: #444444; stroke-opacity: 0.10; fill: #444444; fill-opacity: 0.10;' />
<circle cx='244.47' cy='166.90' r='2.13' style='stroke-width: 0.00; stroke: #444444; stroke-opacity: 0.10; fill: #444444; fill-opacity: 0.10;' />
<circle cx='233.67' cy='173.36' r='2.13' style='stroke-width: 0.00; stroke: #444444; stroke-opacity: 0.10; fill: #444444; fill-opacity: 0.10;' />
<circle cx='204.50' cy='180.53' r='2.13' style='stroke-width: 0.00; stroke: #444444; stroke-opacity: 0.10; fill: #444444; fill-opacity: 0.10;' />
<circle cx='167.64' cy='168.74' r='2.13' style='stroke-width: 0.00; stroke: #444444; stroke-opacity: 0.10; fill: #444444; fill-opacity: 0.10;' />
<circle cx='198.80' cy='171.60' r='2.13' style='stroke-width: 0.00; stroke: #444444; stroke-opacity: 0.10; fill: #444444; fill-opacity: 0.10;' />
<circle cx='263.90' cy='140.96' r='2.13' style='stroke-width: 0.00; stroke: #444444; stroke-opacity: 0.10; fill: #444444; fill-opacity: 0.10;' />
<circle cx='229.26' cy='143.08' r='2.13' style='stroke-width: 0.00; stroke: #444444; stroke-opacity: 0.10; fill: #444444; fill-opacity: 0.10;' />
<circle cx='268.54' cy='144.45' r='2.13' style='stroke-width: 0.00; stroke: #444444; stroke-opacity: 0.10; fill: #444444; fill-opacity: 0.10;' />
<circle cx='284.04' cy='147.75' r='2.13' style='stroke-width: 0.00; stroke: #444444; stroke-opacity: 0.10; fill: #444444; fill-opacity: 0.10;' />
<circle cx='287.31' cy='140.06' r='2.13' style='stroke-width: 0.00; stroke: #444444; stroke-opacity: 0.10; fill: #444444; fill-opacity: 0.10;' />
<circle cx='288.70' cy='145.48' r='2.13' style='stroke-width: 0.00; stroke: #444444; stroke-opacity: 0.10; fill: #444444; fill-opacity: 0.10;' />
<circle cx='279.28' cy='146.82' r='2.13' style='stroke-width: 0.00; stroke: #444444; stroke-opacity: 0.10; fill: #444444; fill-opacity: 0.10;' />
<circle cx='282.31' cy='144.25' r='2.13' style='stroke-width: 0.00; stroke: #444444; stroke-opacity: 0.10; fill: #444444; fill-opacity: 0.10;' />
<circle cx='283.81' cy='142.32' r='2.13' style='stroke-width: 0.00; stroke: #444444; stroke-opacity: 0.10; fill: #444444; fill-opacity: 0.10;' />
<circle cx='282.10' cy='153.90' r='2.13' style='stroke-width: 0.00; stroke: #444444; stroke-opacity: 0.10; fill: #444444; fill-opacity: 0.10;' />
<circle cx='283.71' cy='144.83' r='2.13' style='stroke-width: 0.00; stroke: #444444; stroke-opacity: 0.10; fill: #444444; fill-opacity: 0.10;' />
<circle cx='282.25' cy='140.29' r='2.13' style='stroke-width: 0.00; stroke: #444444; stroke-opacity: 0.10; fill: #444444; fill-opacity: 0.10;' />
<circle cx='230.58' cy='152.64' r='2.13' style='stroke-width: 0.00; stroke: #444444; stroke-opacity: 0.10; fill: #444444; fill-opacity: 0.10;' />
<circle cx='265.07' cy='144.29' r='2.13' style='stroke-width: 0.00; stroke: #444444; stroke-opacity: 0.10; fill: #444444; fill-opacity: 0.10;' />
<circle cx='281.28' cy='149.98' r='2.13' style='stroke-width: 0.00; stroke: #444444; stroke-opacity: 0.10; fill: #444444; fill-opacity: 0.10;' />
<circle cx='265.28' cy='141.11' r='2.13' style='stroke-width: 0.00; stroke: #444444; stroke-opacity: 0.10; fill: #444444; fill-opacity: 0.10;' />
<circle cx='282.54' cy='145.73' r='2.13' style='stroke-width: 0.00; stroke: #444444; stroke-opacity: 0.10; fill: #444444; fill-opacity: 0.10;' />
<circle cx='288.28' cy='145.24' r='2.13' style='stroke-width: 0.00; stroke: #444444; stroke-opacity: 0.10; fill: #444444; fill-opacity: 0.10;' />
<circle cx='263.29' cy='144.07' r='2.13' style='stroke-width: 0.00; stroke: #444444; stroke-opacity: 0.10; fill: #444444; fill-opacity: 0.10;' />
<circle cx='281.92' cy='154.95' r='2.13' style='stroke-width: 0.00; stroke: #444444; stroke-opacity: 0.10; fill: #444444; fill-opacity: 0.10;' />
<circle cx='175.54' cy='147.72' r='2.13' style='stroke-width: 0.00; stroke: #444444; stroke-opacity: 0.10; fill: #444444; fill-opacity: 0.10;' />
<circle cx='278.22' cy='140.52' r='2.13' style='stroke-width: 0.00; stroke: #444444; stroke-opacity: 0.10; fill: #444444; fill-opacity: 0.10;' />
<circle cx='183.67' cy='128.73' r='2.13' style='stroke-width: 0.00; stroke: #444444; stroke-opacity: 0.10; fill: #444444; fill-opacity: 0.10;' />
<circle cx='183.44' cy='123.35' r='2.13' style='stroke-width: 0.00; stroke: #444444; stroke-opacity: 0.10; fill: #444444; fill-opacity: 0.10;' />
<circle cx='171.68' cy='121.49' r='2.13' style='stroke-width: 0.00; stroke: #444444; stroke-opacity: 0.10; fill: #444444; fill-opacity: 0.10;' />
<circle cx='170.26' cy='113.98' r='2.13' style='stroke-width: 0.00; stroke: #444444; stroke-opacity: 0.10; fill: #444444; fill-opacity: 0.10;' />
<circle cx='222.87' cy='119.11' r='2.13' style='stroke-width: 0.00; stroke: #444444; stroke-opacity: 0.10; fill: #444444; fill-opacity: 0.10;' />
<circle cx='174.23' cy='120.90' r='2.13' style='stroke-width: 0.00; stroke: #444444; stroke-opacity: 0.10; fill: #444444; fill-opacity: 0.10;' />
<circle cx='236.18' cy='122.36' r='2.13' style='stroke-width: 0.00; stroke: #444444; stroke-opacity: 0.10; fill: #444444; fill-opacity: 0.10;' />
<circle cx='284.72' cy='113.60' r='2.13' style='stroke-width: 0.00; stroke: #444444; stroke-opacity: 0.10; fill: #444444; fill-opacity: 0.10;' />
<circle cx='191.08' cy='122.02' r='2.13' style='stroke-width: 0.00; stroke: #444444; stroke-opacity: 0.10; fill: #444444; fill-opacity: 0.10;' />
<circle cx='225.61' cy='116.35' r='2.13' style='stroke-width: 0.00; stroke: #444444; stroke-opacity: 0.10; fill: #444444; fill-opacity: 0.10;' />
<circle cx='168.81' cy='122.63' r='2.13' style='stroke-width: 0.00; stroke: #444444; stroke-opacity: 0.10; fill: #444444; fill-opacity: 0.10;' />
<circle cx='215.02' cy='128.02' r='2.13' style='stroke-width: 0.00; stroke: #444444; stroke-opacity: 0.10; fill: #444444; fill-opacity: 0.10;' />
<circle cx='235.21' cy='128.64' r='2.13' style='stroke-width: 0.00; stroke: #444444; stroke-opacity: 0.10; fill: #444444; fill-opacity: 0.10;' />
<circle cx='170.40' cy='120.83' r='2.13' style='stroke-width: 0.00; stroke: #444444; stroke-opacity: 0.10; fill: #444444; fill-opacity: 0.10;' />
<circle cx='178.90' cy='118.37' r='2.13' style='stroke-width: 0.00; stroke: #444444; stroke-opacity: 0.10; fill: #444444; fill-opacity: 0.10;' />
<circle cx='277.37' cy='126.02' r='2.13' style='stroke-width: 0.00; stroke: #444444; stroke-opacity: 0.10; fill: #444444; fill-opacity: 0.10;' />
<circle cx='168.76' cy='116.39' r='2.13' style='stroke-width: 0.00; stroke: #444444; stroke-opacity: 0.10; fill: #444444; fill-opacity: 0.10;' />
<circle cx='171.04' cy='126.00' r='2.13' style='stroke-width: 0.00; stroke: #444444; stroke-opacity: 0.10; fill: #444444; fill-opacity: 0.10;' />
<circle cx='270.78' cy='126.02' r='2.13' style='stroke-width: 0.00; stroke: #444444; stroke-opacity: 0.10; fill: #444444; fill-opacity: 0.10;' />
<circle cx='187.94' cy='127.89' r='2.13' style='stroke-width: 0.00; stroke: #444444; stroke-opacity: 0.10; fill: #444444; fill-opacity: 0.10;' />
<circle cx='260.63' cy='123.82' r='2.13' style='stroke-width: 0.00; stroke: #444444; stroke-opacity: 0.10; fill: #444444; fill-opacity: 0.10;' />
<circle cx='236.23' cy='120.19' r='2.13' style='stroke-width: 0.00; stroke: #444444; stroke-opacity: 0.10; fill: #444444; fill-opacity: 0.10;' />
<circle cx='283.78' cy='115.91' r='2.13' style='stroke-width: 0.00; stroke: #444444; stroke-opacity: 0.10; fill: #444444; fill-opacity: 0.10;' />
<circle cx='222.44' cy='123.80' r='2.13' style='stroke-width: 0.00; stroke: #444444; stroke-opacity: 0.10; fill: #444444; fill-opacity: 0.10;' />
<circle cx='284.90' cy='88.09' r='2.13' style='stroke-width: 0.00; stroke: #444444; stroke-opacity: 0.10; fill: #444444; fill-opacity: 0.10;' />
<circle cx='222.85' cy='96.16' r='2.13' style='stroke-width: 0.00; stroke: #444444; stroke-opacity: 0.10; fill: #444444; fill-opacity: 0.10;' />
<circle cx='271.83' cy='97.10' r='2.13' style='stroke-width: 0.00; stroke: #444444; stroke-opacity: 0.10; fill: #444444; fill-opacity: 0.10;' />
<circle cx='205.73' cy='100.78' r='2.13' style='stroke-width: 0.00; stroke: #444444; stroke-opacity: 0.10; fill: #444444; fill-opacity: 0.10;' />
<circle cx='234.84' cy='96.65' r='2.13' style='stroke-width: 0.00; stroke: #444444; stroke-opacity: 0.10; fill: #444444; fill-opacity: 0.10;' />
<circle cx='247.83' cy='88.41' r='2.13' style='stroke-width: 0.00; stroke: #444444; stroke-opacity: 0.10; fill: #444444; fill-opacity: 0.10;' />
<circle cx='291.78' cy='99.46' r='2.13' style='stroke-width: 0.00; stroke: #444444; stroke-opacity: 0.10; fill: #444444; fill-opacity: 0.10;' />
<circle cx='173.33' cy='99.97' r='2.13' style='stroke-width: 0.00; stroke: #444444; stroke-opacity: 0.10; fill: #444444; fill-opacity: 0.10;' />
<circle cx='245.25' cy='99.39' r='2.13' style='stroke-width: 0.00; stroke: #444444; stroke-opacity: 0.10; fill: #444444; fill-opacity: 0.10;' />
<circle cx='229.29' cy='98.44' r='2.13' style='stroke-width: 0.00; stroke: #444444; stroke-opacity: 0.10; fill: #444444; fill-opacity: 0.10;' />
<circle cx='270.42' cy='101.15' r='2.13' style='stroke-width: 0.00; stroke: #444444; stroke-opacity: 0.10; fill: #444444; fill-opacity: 0.10;' />
<circle cx='179.46' cy='93.99' r='2.13' style='stroke-width: 0.00; stroke: #444444; stroke-opacity: 0.10; fill: #444444; fill-opacity: 0.10;' />
<circle cx='225.65' cy='92.42' r='2.13' style='stroke-width: 0.00; stroke: #444444; stroke-opacity: 0.10; fill: #444444; fill-opacity: 0.10;' />
<circle cx='231.03' cy='98.91' r='2.13' style='stroke-width: 0.00; stroke: #444444; stroke-opacity: 0.10; fill: #444444; fill-opacity: 0.10;' />
<circle cx='224.50' cy='94.30' r='2.13' style='stroke-width: 0.00; stroke: #444444; stroke-opacity: 0.10; fill: #444444; fill-opacity: 0.10;' />
<circle cx='235.88' cy='88.07' r='2.13' style='stroke-width: 0.00; stroke: #444444; stroke-opacity: 0.10; fill: #444444; fill-opacity: 0.10;' />
<circle cx='196.67' cy='91.12' r='2.13' style='stroke-width: 0.00; stroke: #444444; stroke-opacity: 0.10; fill: #444444; fill-opacity: 0.10;' />
<circle cx='227.42' cy='87.26' r='2.13' style='stroke-width: 0.00; stroke: #444444; stroke-opacity: 0.10; fill: #444444; fill-opacity: 0.10;' />
<circle cx='244.28' cy='93.95' r='2.13' style='stroke-width: 0.00; stroke: #444444; stroke-opacity: 0.10; fill: #444444; fill-opacity: 0.10;' />
<circle cx='237.55' cy='88.92' r='2.13' style='stroke-width: 0.00; stroke: #444444; stroke-opacity: 0.10; fill: #444444; fill-opacity: 0.10;' />
<circle cx='231.96' cy='93.64' r='2.13' style='stroke-width: 0.00; stroke: #444444; stroke-opacity: 0.10; fill: #444444; fill-opacity: 0.10;' />
<circle cx='277.78' cy='60.73' r='2.13' style='stroke-width: 0.00; stroke: #444444; stroke-opacity: 0.10; fill: #444444; fill-opacity: 0.10;' />
<circle cx='279.28' cy='61.13' r='2.13' style='stroke-width: 0.00; stroke: #444444; stroke-opacity: 0.10; fill: #444444; fill-opacity: 0.10;' />
<circle cx='276.24' cy='74.49' r='2.13' style='stroke-width: 0.00; stroke: #444444; stroke-opacity: 0.10; fill: #444444; fill-opacity: 0.10;' />
<circle cx='261.47' cy='73.39' r='2.13' style='stroke-width: 0.00; stroke: #444444; stroke-opacity: 0.10; fill: #444444; fill-opacity: 0.10;' />
<circle cx='263.35' cy='67.89' r='2.13' style='stroke-width: 0.00; stroke: #444444; stroke-opacity: 0.10; fill: #444444; fill-opacity: 0.10;' />
<circle cx='282.92' cy='72.55' r='2.13' style='stroke-width: 0.00; stroke: #444444; stroke-opacity: 0.10; fill: #444444; fill-opacity: 0.10;' />
<circle cx='291.36' cy='67.41' r='2.13' style='stroke-width: 0.00; stroke: #444444; stroke-opacity: 0.10; fill: #444444; fill-opacity: 0.10;' />
<circle cx='174.98' cy='62.56' r='2.13' style='stroke-width: 0.00; stroke: #444444; stroke-opacity: 0.10; fill: #444444; fill-opacity: 0.10;' />
<circle cx='277.68' cy='69.99' r='2.13' style='stroke-width: 0.00; stroke: #444444; stroke-opacity: 0.10; fill: #444444; fill-opacity: 0.10;' />
<circle cx='261.90' cy='74.63' r='2.13' style='stroke-width: 0.00; stroke: #444444; stroke-opacity: 0.10; fill: #444444; fill-opacity: 0.10;' />
<circle cx='276.91' cy='62.45' r='2.13' style='stroke-width: 0.00; stroke: #444444; stroke-opacity: 0.10; fill: #444444; fill-opacity: 0.10;' />
<circle cx='286.07' cy='72.87' r='2.13' style='stroke-width: 0.00; stroke: #444444; stroke-opacity: 0.10; fill: #444444; fill-opacity: 0.10;' />
<circle cx='286.54' cy='63.07' r='2.13' style='stroke-width: 0.00; stroke: #444444; stroke-opacity: 0.10; fill: #444444; fill-opacity: 0.10;' />
<circle cx='229.28' cy='62.64' r='2.13' style='stroke-width: 0.00; stroke: #444444; stroke-opacity: 0.10; fill: #444444; fill-opacity: 0.10;' />
<circle cx='288.83' cy='61.48' r='2.13' style='stroke-width: 0.00; stroke: #444444; stroke-opacity: 0.10; fill: #444444; fill-opacity: 0.10;' />
<circle cx='267.18' cy='61.18' r='2.13' style='stroke-width: 0.00; stroke: #444444; stroke-opacity: 0.10; fill: #444444; fill-opacity: 0.10;' />
<circle cx='270.67' cy='69.41' r='2.13' style='stroke-width: 0.00; stroke: #444444; stroke-opacity: 0.10; fill: #444444; fill-opacity: 0.10;' />
<circle cx='291.81' cy='73.97' r='2.13' style='stroke-width: 0.00; stroke: #444444; stroke-opacity: 0.10; fill: #444444; fill-opacity: 0.10;' />
<circle cx='278.71' cy='75.49' r='2.13' style='stroke-width: 0.00; stroke: #444444; stroke-opacity: 0.10; fill: #444444; fill-opacity: 0.10;' />
<circle cx='283.64' cy='64.63' r='2.13' style='stroke-width: 0.00; stroke: #444444; stroke-opacity: 0.10; fill: #444444; fill-opacity: 0.10;' />
<circle cx='284.11' cy='73.75' r='2.13' style='stroke-width: 0.00; stroke: #444444; stroke-opacity: 0.10; fill: #444444; fill-opacity: 0.10;' />
<circle cx='281.30' cy='61.59' r='2.13' style='stroke-width: 0.00; stroke: #444444; stroke-opacity: 0.10; fill: #444444; fill-opacity: 0.10;' />
<circle cx='261.32' cy='61.82' r='2.13' style='stroke-width: 0.00; stroke: #444444; stroke-opacity: 0.10; fill: #444444; fill-opacity: 0.10;' />
<circle cx='286.43' cy='67.50' r='2.13' style='stroke-width: 0.00; stroke: #444444; stroke-opacity: 0.10; fill: #444444; fill-opacity: 0.10;' />
<circle cx='276.19' cy='71.77' r='2.13' style='stroke-width: 0.00; stroke: #444444; stroke-opacity: 0.10; fill: #444444; fill-opacity: 0.10;' />
<circle cx='291.69' cy='47.85' r='2.13' style='stroke-width: 0.00; stroke: #444444; stroke-opacity: 0.10; fill: #444444; fill-opacity: 0.10;' />
<circle cx='276.13' cy='39.82' r='2.13' style='stroke-width: 0.00; stroke: #444444; stroke-opacity: 0.10; fill: #444444; fill-opacity: 0.10;' />
<circle cx='276.51' cy='49.63' r='2.13' style='stroke-width: 0.00; stroke: #444444; stroke-opacity: 0.10; fill: #444444; fill-opacity: 0.10;' />
<circle cx='277.78' cy='37.92' r='2.13' style='stroke-width: 0.00; stroke: #444444; stroke-opacity: 0.10; fill: #444444; fill-opacity: 0.10;' />
<circle cx='276.79' cy='36.18' r='2.13' style='stroke-width: 0.00; stroke: #444444; stroke-opacity: 0.10; fill: #444444; fill-opacity: 0.10;' />
<circle cx='282.69' cy='39.10' r='2.13' style='stroke-width: 0.00; stroke: #444444; stroke-opacity: 0.10; fill: #444444; fill-opacity: 0.10;' />
<circle cx='253.67' cy='43.20' r='2.13' style='stroke-width: 0.00; stroke: #444444; stroke-opacity: 0.10; fill: #444444; fill-opacity: 0.10;' />
<circle cx='285.22' cy='39.97' r='2.13' style='stroke-width: 0.00; stroke: #444444; stroke-opacity: 0.10; fill: #444444; fill-opacity: 0.10;' />
<circle cx='259.04' cy='47.24' r='2.13' style='stroke-width: 0.00; stroke: #444444; stroke-opacity: 0.10; fill: #444444; fill-opacity: 0.10;' />
<circle cx='277.68' cy='48.82' r='2.13' style='stroke-width: 0.00; stroke: #444444; stroke-opacity: 0.10; fill: #444444; fill-opacity: 0.10;' />
<circle cx='282.67' cy='43.72' r='2.13' style='stroke-width: 0.00; stroke: #444444; stroke-opacity: 0.10; fill: #444444; fill-opacity: 0.10;' />
<circle cx='283.60' cy='38.55' r='2.13' style='stroke-width: 0.00; stroke: #444444; stroke-opacity: 0.10; fill: #444444; fill-opacity: 0.10;' />
<circle cx='286.91' cy='43.09' r='2.13' style='stroke-width: 0.00; stroke: #444444; stroke-opacity: 0.10; fill: #444444; fill-opacity: 0.10;' />
<circle cx='255.35' cy='41.34' r='2.13' style='stroke-width: 0.00; stroke: #444444; stroke-opacity: 0.10; fill: #444444; fill-opacity: 0.10;' />
<circle cx='276.10' cy='34.56' r='2.13' style='stroke-width: 0.00; stroke: #444444; stroke-opacity: 0.10; fill: #444444; fill-opacity: 0.10;' />
<circle cx='235.26' cy='46.50' r='2.13' style='stroke-width: 0.00; stroke: #444444; stroke-opacity: 0.10; fill: #444444; fill-opacity: 0.10;' />
<circle cx='263.21' cy='38.16' r='2.13' style='stroke-width: 0.00; stroke: #444444; stroke-opacity: 0.10; fill: #444444; fill-opacity: 0.10;' />
<circle cx='287.57' cy='38.12' r='2.13' style='stroke-width: 0.00; stroke: #444444; stroke-opacity: 0.10; fill: #444444; fill-opacity: 0.10;' />
<circle cx='224.55' cy='47.20' r='2.13' style='stroke-width: 0.00; stroke: #444444; stroke-opacity: 0.10; fill: #444444; fill-opacity: 0.10;' />
<circle cx='280.48' cy='40.51' r='2.13' style='stroke-width: 0.00; stroke: #444444; stroke-opacity: 0.10; fill: #444444; fill-opacity: 0.10;' />
<circle cx='266.43' cy='49.21' r='2.13' style='stroke-width: 0.00; stroke: #444444; stroke-opacity: 0.10; fill: #444444; fill-opacity: 0.10;' />
<circle cx='277.00' cy='39.44' r='2.13' style='stroke-width: 0.00; stroke: #444444; stroke-opacity: 0.10; fill: #444444; fill-opacity: 0.10;' />
<circle cx='285.65' cy='42.63' r='2.13' style='stroke-width: 0.00; stroke: #444444; stroke-opacity: 0.10; fill: #444444; fill-opacity: 0.10;' />
<circle cx='287.97' cy='38.65' r='2.13' style='stroke-width: 0.00; stroke: #444444; stroke-opacity: 0.10; fill: #444444; fill-opacity: 0.10;' />
<circle cx='276.87' cy='48.12' r='2.13' style='stroke-width: 0.00; stroke: #444444; stroke-opacity: 0.10; fill: #444444; fill-opacity: 0.10;' />
<circle cx='285.98' cy='44.91' r='2.13' style='stroke-width: 0.00; stroke: #444444; stroke-opacity: 0.10; fill: #444444; fill-opacity: 0.10;' />
<circle cx='271.91' cy='35.11' r='2.13' style='stroke-width: 0.00; stroke: #444444; stroke-opacity: 0.10; fill: #444444; fill-opacity: 0.10;' />
<circle cx='266.34' cy='38.17' r='2.13' style='stroke-width: 0.00; stroke: #444444; stroke-opacity: 0.10; fill: #444444; fill-opacity: 0.10;' />
<circle cx='272.52' cy='48.83' r='2.13' style='stroke-width: 0.00; stroke: #444444; stroke-opacity: 0.10; fill: #444444; fill-opacity: 0.10;' />
<circle cx='270.86' cy='45.08' r='2.13' style='stroke-width: 0.00; stroke: #444444; stroke-opacity: 0.10; fill: #444444; fill-opacity: 0.10;' />
<circle cx='281.24' cy='39.92' r='2.13' style='stroke-width: 0.00; stroke: #444444; stroke-opacity: 0.10; fill: #444444; fill-opacity: 0.10;' />
<circle cx='273.46' cy='43.87' r='2.13' style='stroke-width: 0.00; stroke: #444444; stroke-opacity: 0.10; fill: #444444; fill-opacity: 0.10;' />
<polygon points='168.14,278.23 181.98,282.17 195.81,278.23 181.98,274.30 168.14,278.23 ' style='stroke-width: 1.07; stroke: #278985; stroke-linecap: butt; fill: #278985;' />
<polygon points='237.84,252.02 261.93,255.96 286.01,252.02 261.93,248.09 237.84,252.02 ' style='stroke-width: 1.07; stroke: #4B2354; stroke-linecap: butt; fill: #4B2354;' />
<polygon points='199.40,225.81 217.85,229.74 236.30,225.81 217.85,221.88 199.40,225.81 ' style='stroke-width: 1.07; stroke: #496261; stroke-linecap: butt; fill: #496261;' />
<polygon points='230.33,199.60 262.59,203.53 294.86,199.60 262.59,195.67 230.33,199.60 ' style='stroke-width: 1.07; stroke: #4A2254; stroke-linecap: butt; fill: #4A2254;' />
<polygon points='168.92,173.39 206.41,177.32 243.90,173.39 206.41,169.46 168.92,173.39 ' style='stroke-width: 1.07; stroke: #3E6E6C; stroke-linecap: butt; fill: #3E6E6C;' />
<polygon points='242.91,147.18 270.14,151.11 297.37,147.18 270.14,143.25 242.91,147.18 ' style='stroke-width: 1.07; stroke: #481754; stroke-linecap: butt; fill: #481754;' />
<polygon points='174.82,120.97 213.33,124.90 251.84,120.97 213.33,117.03 174.82,120.97 ' style='stroke-width: 1.07; stroke: #456765; stroke-linecap: butt; fill: #456765;' />
<polygon points='202.81,94.75 233.34,98.69 263.87,94.75 233.34,90.82 202.81,94.75 ' style='stroke-width: 1.07; stroke: #544F55; stroke-linecap: butt; fill: #544F55;' />
<polygon points='251.01,68.54 273.26,72.47 295.51,68.54 273.26,64.61 251.01,68.54 ' style='stroke-width: 1.07; stroke: #471254; stroke-linecap: butt; fill: #471254;' />
<polygon points='261.43,42.33 273.94,46.26 286.44,42.33 273.94,38.40 261.43,42.33 ' style='stroke-width: 1.07; stroke: #471154; stroke-linecap: butt; fill: #471154;' />
<rect x='161.16' y='21.99' width='142.70' height='276.67' style='stroke-width: 0.78; stroke: #333333;' />
</g>
<g clip-path='url(#cpMC4wMHw1MTAuMjR8MC4wMHwzMjEuNDU=)'>
<text x='157.57' y='280.52' text-anchor='end' style='font-size: 6.40px;fill: #4D4D4D; font-family: "Arial";' textLength='33.06px' lengthAdjust='spacingAndGlyphs'>very secure</text>
<text x='157.57' y='254.31' text-anchor='end' style='font-size: 6.40px;fill: #4D4D4D; font-family: "Arial";' textLength='31.98px' lengthAdjust='spacingAndGlyphs'>very selfish</text>
<text x='157.57' y='228.10' text-anchor='end' style='font-size: 6.40px;fill: #4D4D4D; font-family: "Arial";' textLength='37.32px' lengthAdjust='spacingAndGlyphs'>very sociable</text>
<text x='157.57' y='201.89' text-anchor='end' style='font-size: 6.40px;fill: #4D4D4D; font-family: "Arial";' textLength='24.53px' lengthAdjust='spacingAndGlyphs'>very bad</text>
<text x='157.57' y='175.68' text-anchor='end' style='font-size: 6.40px;fill: #4D4D4D; font-family: "Arial";' textLength='34.83px' lengthAdjust='spacingAndGlyphs'>very relaxed</text>
<text x='157.57' y='146.01' text-anchor='end' style='font-size: 6.40px;fill: #4D4D4D; font-family: "Arial";' textLength='34.82px' lengthAdjust='spacingAndGlyphs'>very socially</text>
<text x='157.57' y='152.92' text-anchor='end' style='font-size: 6.40px;fill: #4D4D4D; font-family: "Arial";' textLength='36.25px' lengthAdjust='spacingAndGlyphs'>irresponsible</text>
<text x='157.57' y='123.26' text-anchor='end' style='font-size: 6.40px;fill: #4D4D4D; font-family: "Arial";' textLength='47.28px' lengthAdjust='spacingAndGlyphs'>very comfortable</text>
<text x='157.57' y='97.04' text-anchor='end' style='font-size: 6.40px;fill: #4D4D4D; font-family: "Arial";' textLength='51.54px' lengthAdjust='spacingAndGlyphs'>very disconnected</text>
<text x='157.57' y='70.83' text-anchor='end' style='font-size: 6.40px;fill: #4D4D4D; font-family: "Arial";' textLength='33.06px' lengthAdjust='spacingAndGlyphs'>very unsafe</text>
<text x='157.57' y='44.62' text-anchor='end' style='font-size: 6.40px;fill: #4D4D4D; font-family: "Arial";' textLength='37.32px' lengthAdjust='spacingAndGlyphs'>very helpless</text>
<polyline points='159.17,278.23 161.16,278.23 ' style='stroke-width: 0.78; stroke: #333333; stroke-linecap: butt;' />
<polyline points='159.17,252.02 161.16,252.02 ' style='stroke-width: 0.78; stroke: #333333; stroke-linecap: butt;' />
<polyline points='159.17,225.81 161.16,225.81 ' style='stroke-width: 0.78; stroke: #333333; stroke-linecap: butt;' />
<polyline points='159.17,199.60 161.16,199.60 ' style='stroke-width: 0.78; stroke: #333333; stroke-linecap: butt;' />
<polyline points='159.17,173.39 161.16,173.39 ' style='stroke-width: 0.78; stroke: #333333; stroke-linecap: butt;' />
<polyline points='159.17,147.18 161.16,147.18 ' style='stroke-width: 0.78; stroke: #333333; stroke-linecap: butt;' />
<polyline points='159.17,120.97 161.16,120.97 ' style='stroke-width: 0.78; stroke: #333333; stroke-linecap: butt;' />
<polyline points='159.17,94.75 161.16,94.75 ' style='stroke-width: 0.78; stroke: #333333; stroke-linecap: butt;' />
<polyline points='159.17,68.54 161.16,68.54 ' style='stroke-width: 0.78; stroke: #333333; stroke-linecap: butt;' />
<polyline points='159.17,42.33 161.16,42.33 ' style='stroke-width: 0.78; stroke: #333333; stroke-linecap: butt;' />
<polyline points='305.85,278.23 303.86,278.23 ' style='stroke-width: 0.78; stroke: #333333; stroke-linecap: butt;' />
<polyline points='305.85,252.02 303.86,252.02 ' style='stroke-width: 0.78; stroke: #333333; stroke-linecap: butt;' />
<polyline points='305.85,225.81 303.86,225.81 ' style='stroke-width: 0.78; stroke: #333333; stroke-linecap: butt;' />
<polyline points='305.85,199.60 303.86,199.60 ' style='stroke-width: 0.78; stroke: #333333; stroke-linecap: butt;' />
<polyline points='305.85,173.39 303.86,173.39 ' style='stroke-width: 0.78; stroke: #333333; stroke-linecap: butt;' />
<polyline points='305.85,147.18 303.86,147.18 ' style='stroke-width: 0.78; stroke: #333333; stroke-linecap: butt;' />
<polyline points='305.85,120.97 303.86,120.97 ' style='stroke-width: 0.78; stroke: #333333; stroke-linecap: butt;' />
<polyline points='305.85,94.75 303.86,94.75 ' style='stroke-width: 0.78; stroke: #333333; stroke-linecap: butt;' />
<polyline points='305.85,68.54 303.86,68.54 ' style='stroke-width: 0.78; stroke: #333333; stroke-linecap: butt;' />
<polyline points='305.85,42.33 303.86,42.33 ' style='stroke-width: 0.78; stroke: #333333; stroke-linecap: butt;' />
<text x='307.45' y='280.52' style='font-size: 6.40px;fill: #4D4D4D; font-family: "Arial";' textLength='44.45px' lengthAdjust='spacingAndGlyphs'>very threatened</text>
<text x='307.45' y='254.31' style='font-size: 6.40px;fill: #4D4D4D; font-family: "Arial";' textLength='35.18px' lengthAdjust='spacingAndGlyphs'>very selfless</text>
<text x='307.45' y='228.10' style='font-size: 6.40px;fill: #4D4D4D; font-family: "Arial";' textLength='30.56px' lengthAdjust='spacingAndGlyphs'>very lonely</text>
<text x='307.45' y='201.89' style='font-size: 6.40px;fill: #4D4D4D; font-family: "Arial";' textLength='28.09px' lengthAdjust='spacingAndGlyphs'>very good</text>
<text x='307.45' y='175.68' style='font-size: 6.40px;fill: #4D4D4D; font-family: "Arial";' textLength='29.51px' lengthAdjust='spacingAndGlyphs'>very upset</text>
<text x='307.45' y='146.01' style='font-size: 6.40px;fill: #4D4D4D; font-family: "Arial";' textLength='34.82px' lengthAdjust='spacingAndGlyphs'>very socially</text>
<text x='307.45' y='152.92' style='font-size: 6.40px;fill: #4D4D4D; font-family: "Arial";' textLength='32.70px' lengthAdjust='spacingAndGlyphs'>responsible</text>
<text x='307.45' y='123.26' style='font-size: 6.40px;fill: #4D4D4D; font-family: "Arial";' textLength='54.39px' lengthAdjust='spacingAndGlyphs'>very uncomfortable</text>
<text x='307.45' y='97.04' style='font-size: 6.40px;fill: #4D4D4D; font-family: "Arial";' textLength='43.37px' lengthAdjust='spacingAndGlyphs'>very connected</text>
<text x='307.45' y='70.83' style='font-size: 6.40px;fill: #4D4D4D; font-family: "Arial";' textLength='25.95px' lengthAdjust='spacingAndGlyphs'>very safe</text>
<text x='307.45' y='44.62' style='font-size: 6.40px;fill: #4D4D4D; font-family: "Arial";' textLength='57.23px' lengthAdjust='spacingAndGlyphs'>very much in control</text>
<polyline points='175.69,300.65 175.69,298.65 ' style='stroke-width: 0.78; stroke: #333333; stroke-linecap: butt;' />
<polyline points='193.76,300.65 193.76,298.65 ' style='stroke-width: 0.78; stroke: #333333; stroke-linecap: butt;' />
<polyline points='211.83,300.65 211.83,298.65 ' style='stroke-width: 0.78; stroke: #333333; stroke-linecap: butt;' />
<polyline points='229.90,300.65 229.90,298.65 ' style='stroke-width: 0.78; stroke: #333333; stroke-linecap: butt;' />
<polyline points='247.97,300.65 247.97,298.65 ' style='stroke-width: 0.78; stroke: #333333; stroke-linecap: butt;' />
<polyline points='266.03,300.65 266.03,298.65 ' style='stroke-width: 0.78; stroke: #333333; stroke-linecap: butt;' />
<polyline points='284.10,300.65 284.10,298.65 ' style='stroke-width: 0.78; stroke: #333333; stroke-linecap: butt;' />
<text x='175.69' y='306.82' text-anchor='middle' style='font-size: 6.40px;fill: #4D4D4D; font-family: "Arial";' textLength='5.69px' lengthAdjust='spacingAndGlyphs'>-3</text>
<text x='193.76' y='306.82' text-anchor='middle' style='font-size: 6.40px;fill: #4D4D4D; font-family: "Arial";' textLength='5.69px' lengthAdjust='spacingAndGlyphs'>-2</text>
<text x='211.83' y='306.82' text-anchor='middle' style='font-size: 6.40px;fill: #4D4D4D; font-family: "Arial";' textLength='5.69px' lengthAdjust='spacingAndGlyphs'>-1</text>
<text x='229.90' y='306.82' text-anchor='middle' style='font-size: 6.40px;fill: #4D4D4D; font-family: "Arial";' textLength='3.56px' lengthAdjust='spacingAndGlyphs'>0</text>
<text x='247.97' y='306.82' text-anchor='middle' style='font-size: 6.40px;fill: #4D4D4D; font-family: "Arial";' textLength='3.56px' lengthAdjust='spacingAndGlyphs'>1</text>
<text x='266.03' y='306.82' text-anchor='middle' style='font-size: 6.40px;fill: #4D4D4D; font-family: "Arial";' textLength='3.56px' lengthAdjust='spacingAndGlyphs'>2</text>
<text x='284.10' y='306.82' text-anchor='middle' style='font-size: 6.40px;fill: #4D4D4D; font-family: "Arial";' textLength='3.56px' lengthAdjust='spacingAndGlyphs'>3</text>
<text x='232.51' y='315.96' text-anchor='middle' style='font-size: 8.00px; font-family: "Arial";' textLength='84.07px' lengthAdjust='spacingAndGlyphs'>Scores and 99.99% CIs</text>
</g>
<defs>
  <clipPath id='cpMC4wMHwxMDIuMjl8MjEuOTl8Mjk4LjY1'>
    <rect x='0.00' y='21.99' width='102.29' height='276.67' />
  </clipPath>
</defs>
<g clip-path='url(#cpMC4wMHwxMDIuMjl8MjEuOTl8Mjk4LjY1)'>
</g>
<g clip-path='url(#cpMC4wMHw1MTAuMjR8MC4wMHwzMjEuNDU=)'>
<text x='3.59' y='277.30' style='font-size: 8.00px; font-family: "Arial";' textLength='60.06px' lengthAdjust='spacingAndGlyphs'>I prefer feeling ...</text>
<text x='3.59' y='285.94' style='font-size: 8.00px; font-family: "Arial";' textLength='97.42px' lengthAdjust='spacingAndGlyphs'>[AttExEvThreatened_clean]</text>
<text x='3.59' y='251.03' style='font-size: 8.00px; font-family: "Arial";' textLength='60.06px' lengthAdjust='spacingAndGlyphs'>I prefer feeling ...</text>
<text x='3.59' y='259.67' style='font-size: 8.00px; font-family: "Arial";' textLength='86.73px' lengthAdjust='spacingAndGlyphs'>[AttExEvAltruistic_clean]</text>
<text x='3.59' y='224.75' style='font-size: 8.00px; font-family: "Arial";' textLength='60.06px' lengthAdjust='spacingAndGlyphs'>I prefer feeling ...</text>
<text x='3.59' y='233.39' style='font-size: 8.00px; font-family: "Arial";' textLength='80.07px' lengthAdjust='spacingAndGlyphs'>[AttExEvLonely_clean]</text>
<text x='3.59' y='198.47' style='font-size: 8.00px; font-family: "Arial";' textLength='60.06px' lengthAdjust='spacingAndGlyphs'>I prefer feeling ...</text>
<text x='3.59' y='207.11' style='font-size: 8.00px; font-family: "Arial";' textLength='76.06px' lengthAdjust='spacingAndGlyphs'>[AttExEvGood_clean]</text>
<text x='3.59' y='172.19' style='font-size: 8.00px; font-family: "Arial";' textLength='60.06px' lengthAdjust='spacingAndGlyphs'>I prefer feeling ...</text>
<text x='3.59' y='180.83' style='font-size: 8.00px; font-family: "Arial";' textLength='77.39px' lengthAdjust='spacingAndGlyphs'>[AttExEvUpset_clean]</text>
<text x='3.59' y='145.91' style='font-size: 8.00px; font-family: "Arial";' textLength='60.06px' lengthAdjust='spacingAndGlyphs'>I prefer feeling ...</text>
<text x='3.59' y='154.55' style='font-size: 8.00px; font-family: "Arial";' textLength='88.96px' lengthAdjust='spacingAndGlyphs'>[AttExEvSocResp_clean]</text>
<text x='3.59' y='119.63' style='font-size: 8.00px; font-family: "Arial";' textLength='60.06px' lengthAdjust='spacingAndGlyphs'>I prefer feeling ...</text>
<text x='3.59' y='128.27' style='font-size: 8.00px; font-family: "Arial";' textLength='84.94px' lengthAdjust='spacingAndGlyphs'>[AttExEvComfort_clean]</text>
<text x='3.59' y='93.35' style='font-size: 8.00px; font-family: "Arial";' textLength='60.06px' lengthAdjust='spacingAndGlyphs'>I prefer feeling ...</text>
<text x='3.59' y='101.99' style='font-size: 8.00px; font-family: "Arial";' textLength='95.19px' lengthAdjust='spacingAndGlyphs'>[AttExEvConnected_clean]</text>
<text x='3.59' y='67.07' style='font-size: 8.00px; font-family: "Arial";' textLength='60.06px' lengthAdjust='spacingAndGlyphs'>I prefer feeling ...</text>
<text x='3.59' y='75.71' style='font-size: 8.00px; font-family: "Arial";' textLength='72.95px' lengthAdjust='spacingAndGlyphs'>[AttExEvSafe_clean]</text>
<text x='3.59' y='40.79' style='font-size: 8.00px; font-family: "Arial";' textLength='60.06px' lengthAdjust='spacingAndGlyphs'>I prefer feeling ...</text>
<text x='3.59' y='49.43' style='font-size: 8.00px; font-family: "Arial";' textLength='88.96px' lengthAdjust='spacingAndGlyphs'>[AttExEvInControl_clean]</text>
</g>
<g clip-path='url(#cpMC4wMHwxMDIuMjl8MjEuOTl8Mjk4LjY1)'>
</g>
<g clip-path='url(#cpMC4wMHw1MTAuMjR8MC4wMHwzMjEuNDU=)'>
</g>
<defs>
  <clipPath id='cpMzY3LjUzfDUxMC4yNHwxOC4wMHwzMjEuNDU='>
    <rect x='367.53' y='18.00' width='142.70' height='303.45' />
  </clipPath>
</defs>
<g clip-path='url(#cpMzY3LjUzfDUxMC4yNHwxOC4wMHwzMjEuNDU=)'>
<rect x='367.53' y='18.00' width='142.70' height='303.45' style='stroke-width: 0.78; stroke: #FFFFFF; fill: #FFFFFF;' />
</g>
<defs>
  <clipPath id='cpMzcxLjUyfDUwNi4yNXwyMS45OXwyOTguNjU='>
    <rect x='371.52' y='21.99' width='134.73' height='276.67' />
  </clipPath>
</defs>
<g clip-path='url(#cpMzcxLjUyfDUwNi4yNXwyMS45OXwyOTguNjU=)'>
<rect x='371.52' y='21.99' width='134.73' height='276.67' style='stroke-width: 0.78; stroke: none; fill: #FFFFFF;' />
<polyline points='392.95,298.65 392.95,21.99 ' style='stroke-width: 0.39; stroke: #EBEBEB; stroke-linecap: butt;' />
<polyline points='423.57,298.65 423.57,21.99 ' style='stroke-width: 0.39; stroke: #EBEBEB; stroke-linecap: butt;' />
<polyline points='454.20,298.65 454.20,21.99 ' style='stroke-width: 0.39; stroke: #EBEBEB; stroke-linecap: butt;' />
<polyline points='484.82,298.65 484.82,21.99 ' style='stroke-width: 0.39; stroke: #EBEBEB; stroke-linecap: butt;' />
<polyline points='377.64,298.65 377.64,21.99 ' style='stroke-width: 0.78; stroke: #EBEBEB; stroke-linecap: butt;' />
<polyline points='408.26,298.65 408.26,21.99 ' style='stroke-width: 0.78; stroke: #EBEBEB; stroke-linecap: butt;' />
<polyline points='438.88,298.65 438.88,21.99 ' style='stroke-width: 0.78; stroke: #EBEBEB; stroke-linecap: butt;' />
<polyline points='469.51,298.65 469.51,21.99 ' style='stroke-width: 0.78; stroke: #EBEBEB; stroke-linecap: butt;' />
<polyline points='500.13,298.65 500.13,21.99 ' style='stroke-width: 0.78; stroke: #EBEBEB; stroke-linecap: butt;' />
<line x1='408.26' y1='298.65' x2='408.26' y2='21.99' style='stroke-width: 1.07; stroke: #BEBEBE; stroke-linecap: butt;' />
<line x1='438.88' y1='298.65' x2='438.88' y2='21.99' style='stroke-width: 1.07; stroke: #BEBEBE; stroke-linecap: butt;' />
<line x1='469.51' y1='298.65' x2='469.51' y2='21.99' style='stroke-width: 1.07; stroke: #BEBEBE; stroke-linecap: butt;' />
<polygon points='392.63,282.02 408.37,286.08 432.25,282.02 408.37,277.96 392.63,282.02 ' style='stroke-width: 2.13; stroke-linecap: butt; fill: #3B7270; fill-opacity: 0.50;' />
<polygon points='402.39,254.98 424.63,259.03 451.71,254.98 424.63,250.92 402.39,254.98 ' style='stroke-width: 2.13; stroke-linecap: butt; fill: #496261; fill-opacity: 0.50;' />
<polygon points='416.38,227.93 438.37,231.99 460.50,227.93 438.37,223.87 416.38,227.93 ' style='stroke-width: 2.13; stroke-linecap: butt; fill: #545555; fill-opacity: 0.50;' />
<polygon points='413.01,200.89 439.58,204.94 465.88,200.89 439.58,196.83 413.01,200.89 ' style='stroke-width: 2.13; stroke-linecap: butt; fill: #545455; fill-opacity: 0.50;' />
<polygon points='413.44,173.84 440.92,177.90 467.60,173.84 440.92,169.78 413.44,173.84 ' style='stroke-width: 2.13; stroke-linecap: butt; fill: #545255; fill-opacity: 0.50;' />
<polygon points='419.91,146.80 446.76,150.85 470.85,146.80 446.76,142.74 419.91,146.80 ' style='stroke-width: 2.13; stroke-linecap: butt; fill: #524A55; fill-opacity: 0.50;' />
<polygon points='432.62,119.75 458.12,123.81 477.88,119.75 458.12,115.70 432.62,119.75 ' style='stroke-width: 2.13; stroke-linecap: butt; fill: #4F3A54; fill-opacity: 0.50;' />
<polygon points='431.91,92.71 459.36,96.76 479.88,92.71 459.36,88.65 431.91,92.71 ' style='stroke-width: 2.13; stroke-linecap: butt; fill: #4F3954; fill-opacity: 0.50;' />
<polygon points='436.39,65.66 460.94,69.72 479.38,65.66 460.94,61.61 436.39,65.66 ' style='stroke-width: 2.13; stroke-linecap: butt; fill: #4F3754; fill-opacity: 0.50;' />
<polygon points='441.87,38.62 462.81,42.67 478.74,38.62 462.81,34.56 441.87,38.62 ' style='stroke-width: 2.13; stroke-linecap: butt; fill: #4E3454; fill-opacity: 0.50;' />
<rect x='371.52' y='21.99' width='134.73' height='276.67' style='stroke-width: 0.78; stroke: #333333;' />
</g>
<g clip-path='url(#cpMzY3LjUzfDUxMC4yNHwxOC4wMHwzMjEuNDU=)'>
</g>
<g clip-path='url(#cpMC4wMHw1MTAuMjR8MC4wMHwzMjEuNDU=)'>
</g>
<g clip-path='url(#cpMzY3LjUzfDUxMC4yNHwxOC4wMHwzMjEuNDU=)'>
</g>
<g clip-path='url(#cpMC4wMHw1MTAuMjR8MC4wMHwzMjEuNDU=)'>
</g>
<g clip-path='url(#cpMzY3LjUzfDUxMC4yNHwxOC4wMHwzMjEuNDU=)'>
</g>
<g clip-path='url(#cpMC4wMHw1MTAuMjR8MC4wMHwzMjEuNDU=)'>
</g>
<g clip-path='url(#cpMzY3LjUzfDUxMC4yNHwxOC4wMHwzMjEuNDU=)'>
</g>
<g clip-path='url(#cpMC4wMHw1MTAuMjR8MC4wMHwzMjEuNDU=)'>
</g>
<g clip-path='url(#cpMzY3LjUzfDUxMC4yNHwxOC4wMHwzMjEuNDU=)'>
</g>
<g clip-path='url(#cpMC4wMHw1MTAuMjR8MC4wMHwzMjEuNDU=)'>
</g>
<g clip-path='url(#cpMzY3LjUzfDUxMC4yNHwxOC4wMHwzMjEuNDU=)'>
</g>
<g clip-path='url(#cpMC4wMHw1MTAuMjR8MC4wMHwzMjEuNDU=)'>
</g>
<g clip-path='url(#cpMzY3LjUzfDUxMC4yNHwxOC4wMHwzMjEuNDU=)'>
</g>
<g clip-path='url(#cpMC4wMHw1MTAuMjR8MC4wMHwzMjEuNDU=)'>
</g>
<g clip-path='url(#cpMzY3LjUzfDUxMC4yNHwxOC4wMHwzMjEuNDU=)'>
</g>
<g clip-path='url(#cpMC4wMHw1MTAuMjR8MC4wMHwzMjEuNDU=)'>
<polyline points='377.64,300.65 377.64,298.65 ' style='stroke-width: 0.78; stroke: #333333; stroke-linecap: butt;' />
<polyline points='408.26,300.65 408.26,298.65 ' style='stroke-width: 0.78; stroke: #333333; stroke-linecap: butt;' />
<polyline points='438.88,300.65 438.88,298.65 ' style='stroke-width: 0.78; stroke: #333333; stroke-linecap: butt;' />
<polyline points='469.51,300.65 469.51,298.65 ' style='stroke-width: 0.78; stroke: #333333; stroke-linecap: butt;' />
<polyline points='500.13,300.65 500.13,298.65 ' style='stroke-width: 0.78; stroke: #333333; stroke-linecap: butt;' />
<text x='377.64' y='306.82' text-anchor='middle' style='font-size: 6.40px;fill: #4D4D4D; font-family: "Arial";' textLength='11.02px' lengthAdjust='spacingAndGlyphs'>-1.0</text>
<text x='408.26' y='306.82' text-anchor='middle' style='font-size: 6.40px;fill: #4D4D4D; font-family: "Arial";' textLength='11.02px' lengthAdjust='spacingAndGlyphs'>-0.5</text>
<text x='438.88' y='306.82' text-anchor='middle' style='font-size: 6.40px;fill: #4D4D4D; font-family: "Arial";' textLength='8.89px' lengthAdjust='spacingAndGlyphs'>0.0</text>
<text x='469.51' y='306.82' text-anchor='middle' style='font-size: 6.40px;fill: #4D4D4D; font-family: "Arial";' textLength='8.89px' lengthAdjust='spacingAndGlyphs'>0.5</text>
<text x='500.13' y='306.82' text-anchor='middle' style='font-size: 6.40px;fill: #4D4D4D; font-family: "Arial";' textLength='8.89px' lengthAdjust='spacingAndGlyphs'>1.0</text>
</g>
<g clip-path='url(#cpMzY3LjUzfDUxMC4yNHwxOC4wMHwzMjEuNDU=)'>
</g>
<g clip-path='url(#cpMC4wMHw1MTAuMjR8MC4wMHwzMjEuNDU=)'>
</g>
<g clip-path='url(#cpMzY3LjUzfDUxMC4yNHwxOC4wMHwzMjEuNDU=)'>
</g>
<g clip-path='url(#cpMC4wMHw1MTAuMjR8MC4wMHwzMjEuNDU=)'>
<text x='438.88' y='315.96' text-anchor='middle' style='font-size: 8.00px; font-family: "Arial";' textLength='85.41px' lengthAdjust='spacingAndGlyphs'>95% CIs of associations</text>
</g>
<g clip-path='url(#cpMzY3LjUzfDUxMC4yNHwxOC4wMHwzMjEuNDU=)'>
</g>
<g clip-path='url(#cpMC4wMHw1MTAuMjR8MC4wMHwzMjEuNDU=)'>
</g>
<g clip-path='url(#cpMzY3LjUzfDUxMC4yNHwxOC4wMHwzMjEuNDU=)'>
</g>
<g clip-path='url(#cpMC4wMHw1MTAuMjR8MC4wMHwzMjEuNDU=)'>
</g>
<g clip-path='url(#cpMzY3LjUzfDUxMC4yNHwxOC4wMHwzMjEuNDU=)'>
</g>
<g clip-path='url(#cpMC4wMHw1MTAuMjR8MC4wMHwzMjEuNDU=)'>
</g>
<g clip-path='url(#cpMzY3LjUzfDUxMC4yNHwxOC4wMHwzMjEuNDU=)'>
</g>
<g clip-path='url(#cpMC4wMHw1MTAuMjR8MC4wMHwzMjEuNDU=)'>
</g>
<g clip-path='url(#cpMzY3LjUzfDUxMC4yNHwxOC4wMHwzMjEuNDU=)'>
</g>
<g clip-path='url(#cpMC4wMHw1MTAuMjR8MC4wMHwzMjEuNDU=)'>
</g>
<g clip-path='url(#cpMzY3LjUzfDUxMC4yNHwxOC4wMHwzMjEuNDU=)'>
</g>
<g clip-path='url(#cpMC4wMHw1MTAuMjR8MC4wMHwzMjEuNDU=)'>
</g>
<g clip-path='url(#cpMzY3LjUzfDUxMC4yNHwxOC4wMHwzMjEuNDU=)'>
</g>
<g clip-path='url(#cpMC4wMHw1MTAuMjR8MC4wMHwzMjEuNDU=)'>
</g>
<g clip-path='url(#cpMzY3LjUzfDUxMC4yNHwxOC4wMHwzMjEuNDU=)'>
</g>
<g clip-path='url(#cpMC4wMHw1MTAuMjR8MC4wMHwzMjEuNDU=)'>
</g>
<g clip-path='url(#cpMzY3LjUzfDUxMC4yNHwxOC4wMHwzMjEuNDU=)'>
</g>
<g clip-path='url(#cpMC4wMHw1MTAuMjR8MC4wMHwzMjEuNDU=)'>
</g>
<g clip-path='url(#cpMzY3LjUzfDUxMC4yNHwxOC4wMHwzMjEuNDU=)'>
</g>
<g clip-path='url(#cpMC4wMHw1MTAuMjR8MC4wMHwzMjEuNDU=)'>
</g>
<g clip-path='url(#cpMzY3LjUzfDUxMC4yNHwxOC4wMHwzMjEuNDU=)'>
</g>
<g clip-path='url(#cpMC4wMHw1MTAuMjR8MC4wMHwzMjEuNDU=)'>
<text x='2.30' y='8.78' style='font-size: 9.60px; font-weight: bold; font-family: "Arial";' textLength='147.66px' lengthAdjust='spacingAndGlyphs'>Means and associations (r) with </text>
<text x='149.96' y='8.78' style='font-size: 9.60px; font-weight: bold; font-family: "Arial";' textLength='43.17px' lengthAdjust='spacingAndGlyphs'>proximity</text>
<text x='193.13' y='8.78' style='font-size: 9.60px; font-weight: bold; font-family: "Arial";' textLength='2.66px' lengthAdjust='spacingAndGlyphs'> </text>
</g>
</svg>
