<?xml version='1.0' encoding='UTF-8' ?>
<svg xmlns='http://www.w3.org/2000/svg' xmlns:xlink='http://www.w3.org/1999/xlink' class='svglite' width='510.24pt' height='202.39pt' viewBox='0 0 510.24 202.39'>
<defs>
  <style type='text/css'><![CDATA[
    .svglite line, .svglite polyline, .svglite polygon, .svglite path, .svglite rect, .svglite circle {
      fill: none;
      stroke: #000000;
      stroke-linecap: round;
      stroke-linejoin: round;
      stroke-miterlimit: 10.00;
    }
    .svglite text {
      white-space: pre;
    }
  ]]></style>
</defs>
<rect width='100%' height='100%' style='stroke: none; fill: none;'/>
<defs>
  <clipPath id='cpMC4wMHw1MTAuMjR8MC4wMHwyMDIuMzk='>
    <rect x='0.00' y='0.00' width='510.24' height='202.39' />
  </clipPath>
</defs>
<g clip-path='url(#cpMC4wMHw1MTAuMjR8MC4wMHwyMDIuMzk=)'>
</g>
<defs>
  <clipPath id='cpMjU5Ljc5fDQzMy44M3wxOC4wMHwyMDIuMzk='>
    <rect x='259.79' y='18.00' width='174.05' height='184.39' />
  </clipPath>
</defs>
<g clip-path='url(#cpMjU5Ljc5fDQzMy44M3wxOC4wMHwyMDIuMzk=)'>
<rect x='259.79' y='18.00' width='174.05' height='184.39' style='stroke-width: 0.78; stroke: #FFFFFF; fill: #FFFFFF;' />
</g>
<g clip-path='url(#cpMC4wMHw1MTAuMjR8MC4wMHwyMDIuMzk=)'>
</g>
<defs>
  <clipPath id='cpMzExLjc2fDM4OC4xNnwyMS45OXwxNzkuNjA='>
    <rect x='311.76' y='21.99' width='76.40' height='157.61' />
  </clipPath>
</defs>
<g clip-path='url(#cpMzExLjc2fDM4OC4xNnwyMS45OXwxNzkuNjA=)'>
<rect x='311.76' y='21.99' width='76.40' height='157.61' style='stroke-width: 0.78; stroke: none; fill: #FFFFFF;' />
<polyline points='314.41,179.60 314.41,21.99 ' style='stroke-width: 0.39; stroke: #EBEBEB; stroke-linecap: butt;' />
<polyline points='328.76,179.60 328.76,21.99 ' style='stroke-width: 0.39; stroke: #EBEBEB; stroke-linecap: butt;' />
<polyline points='343.12,179.60 343.12,21.99 ' style='stroke-width: 0.39; stroke: #EBEBEB; stroke-linecap: butt;' />
<polyline points='357.47,179.60 357.47,21.99 ' style='stroke-width: 0.39; stroke: #EBEBEB; stroke-linecap: butt;' />
<polyline points='371.83,179.60 371.83,21.99 ' style='stroke-width: 0.39; stroke: #EBEBEB; stroke-linecap: butt;' />
<polyline points='386.19,179.60 386.19,21.99 ' style='stroke-width: 0.39; stroke: #EBEBEB; stroke-linecap: butt;' />
<polyline points='311.76,164.96 388.16,164.96 ' style='stroke-width: 0.78; stroke: #EBEBEB; stroke-linecap: butt;' />
<polyline points='311.76,139.30 388.16,139.30 ' style='stroke-width: 0.78; stroke: #EBEBEB; stroke-linecap: butt;' />
<polyline points='311.76,113.64 388.16,113.64 ' style='stroke-width: 0.78; stroke: #EBEBEB; stroke-linecap: butt;' />
<polyline points='311.76,87.97 388.16,87.97 ' style='stroke-width: 0.78; stroke: #EBEBEB; stroke-linecap: butt;' />
<polyline points='311.76,62.31 388.16,62.31 ' style='stroke-width: 0.78; stroke: #EBEBEB; stroke-linecap: butt;' />
<polyline points='311.76,36.64 388.16,36.64 ' style='stroke-width: 0.78; stroke: #EBEBEB; stroke-linecap: butt;' />
<polyline points='321.58,179.60 321.58,21.99 ' style='stroke-width: 0.78; stroke: #EBEBEB; stroke-linecap: butt;' />
<polyline points='335.94,179.60 335.94,21.99 ' style='stroke-width: 0.78; stroke: #EBEBEB; stroke-linecap: butt;' />
<polyline points='350.30,179.60 350.30,21.99 ' style='stroke-width: 0.78; stroke: #EBEBEB; stroke-linecap: butt;' />
<polyline points='364.65,179.60 364.65,21.99 ' style='stroke-width: 0.78; stroke: #EBEBEB; stroke-linecap: butt;' />
<polyline points='379.01,179.60 379.01,21.99 ' style='stroke-width: 0.78; stroke: #EBEBEB; stroke-linecap: butt;' />
<circle cx='345.33' cy='168.97' r='2.13' style='stroke-width: 0.00; stroke: #444444; stroke-opacity: 0.10; fill: #444444; fill-opacity: 0.10;' />
<circle cx='329.95' cy='158.51' r='2.13' style='stroke-width: 0.00; stroke: #444444; stroke-opacity: 0.10; fill: #444444; fill-opacity: 0.10;' />
<circle cx='330.42' cy='167.34' r='2.13' style='stroke-width: 0.00; stroke: #444444; stroke-opacity: 0.10; fill: #444444; fill-opacity: 0.10;' />
<circle cx='354.24' cy='164.22' r='2.13' style='stroke-width: 0.00; stroke: #444444; stroke-opacity: 0.10; fill: #444444; fill-opacity: 0.10;' />
<circle cx='341.17' cy='161.90' r='2.13' style='stroke-width: 0.00; stroke: #444444; stroke-opacity: 0.10; fill: #444444; fill-opacity: 0.10;' />
<circle cx='347.84' cy='166.11' r='2.13' style='stroke-width: 0.00; stroke: #444444; stroke-opacity: 0.10; fill: #444444; fill-opacity: 0.10;' />
<circle cx='367.06' cy='165.57' r='2.13' style='stroke-width: 0.00; stroke: #444444; stroke-opacity: 0.10; fill: #444444; fill-opacity: 0.10;' />
<circle cx='347.58' cy='168.04' r='2.13' style='stroke-width: 0.00; stroke: #444444; stroke-opacity: 0.10; fill: #444444; fill-opacity: 0.10;' />
<circle cx='346.07' cy='167.36' r='2.13' style='stroke-width: 0.00; stroke: #444444; stroke-opacity: 0.10; fill: #444444; fill-opacity: 0.10;' />
<circle cx='362.91' cy='161.26' r='2.13' style='stroke-width: 0.00; stroke: #444444; stroke-opacity: 0.10; fill: #444444; fill-opacity: 0.10;' />
<circle cx='364.88' cy='164.39' r='2.13' style='stroke-width: 0.00; stroke: #444444; stroke-opacity: 0.10; fill: #444444; fill-opacity: 0.10;' />
<circle cx='330.19' cy='157.61' r='2.13' style='stroke-width: 0.00; stroke: #444444; stroke-opacity: 0.10; fill: #444444; fill-opacity: 0.10;' />
<circle cx='316.73' cy='171.06' r='2.13' style='stroke-width: 0.00; stroke: #444444; stroke-opacity: 0.10; fill: #444444; fill-opacity: 0.10;' />
<circle cx='349.09' cy='163.94' r='2.13' style='stroke-width: 0.00; stroke: #444444; stroke-opacity: 0.10; fill: #444444; fill-opacity: 0.10;' />
<circle cx='323.89' cy='161.76' r='2.13' style='stroke-width: 0.00; stroke: #444444; stroke-opacity: 0.10; fill: #444444; fill-opacity: 0.10;' />
<circle cx='352.07' cy='161.06' r='2.13' style='stroke-width: 0.00; stroke: #444444; stroke-opacity: 0.10; fill: #444444; fill-opacity: 0.10;' />
<circle cx='334.21' cy='157.79' r='2.13' style='stroke-width: 0.00; stroke: #444444; stroke-opacity: 0.10; fill: #444444; fill-opacity: 0.10;' />
<circle cx='321.06' cy='157.45' r='2.13' style='stroke-width: 0.00; stroke: #444444; stroke-opacity: 0.10; fill: #444444; fill-opacity: 0.10;' />
<circle cx='355.78' cy='167.61' r='2.13' style='stroke-width: 0.00; stroke: #444444; stroke-opacity: 0.10; fill: #444444; fill-opacity: 0.10;' />
<circle cx='349.84' cy='161.59' r='2.13' style='stroke-width: 0.00; stroke: #444444; stroke-opacity: 0.10; fill: #444444; fill-opacity: 0.10;' />
<circle cx='331.65' cy='167.70' r='2.13' style='stroke-width: 0.00; stroke: #444444; stroke-opacity: 0.10; fill: #444444; fill-opacity: 0.10;' />
<circle cx='367.37' cy='160.97' r='2.13' style='stroke-width: 0.00; stroke: #444444; stroke-opacity: 0.10; fill: #444444; fill-opacity: 0.10;' />
<circle cx='368.50' cy='161.21' r='2.13' style='stroke-width: 0.00; stroke: #444444; stroke-opacity: 0.10; fill: #444444; fill-opacity: 0.10;' />
<circle cx='319.02' cy='172.43' r='2.13' style='stroke-width: 0.00; stroke: #444444; stroke-opacity: 0.10; fill: #444444; fill-opacity: 0.10;' />
<circle cx='364.09' cy='160.62' r='2.13' style='stroke-width: 0.00; stroke: #444444; stroke-opacity: 0.10; fill: #444444; fill-opacity: 0.10;' />
<circle cx='320.91' cy='167.17' r='2.13' style='stroke-width: 0.00; stroke: #444444; stroke-opacity: 0.10; fill: #444444; fill-opacity: 0.10;' />
<circle cx='333.27' cy='138.14' r='2.13' style='stroke-width: 0.00; stroke: #444444; stroke-opacity: 0.10; fill: #444444; fill-opacity: 0.10;' />
<circle cx='346.93' cy='134.80' r='2.13' style='stroke-width: 0.00; stroke: #444444; stroke-opacity: 0.10; fill: #444444; fill-opacity: 0.10;' />
<circle cx='330.17' cy='138.71' r='2.13' style='stroke-width: 0.00; stroke: #444444; stroke-opacity: 0.10; fill: #444444; fill-opacity: 0.10;' />
<circle cx='330.90' cy='136.37' r='2.13' style='stroke-width: 0.00; stroke: #444444; stroke-opacity: 0.10; fill: #444444; fill-opacity: 0.10;' />
<circle cx='316.86' cy='144.24' r='2.13' style='stroke-width: 0.00; stroke: #444444; stroke-opacity: 0.10; fill: #444444; fill-opacity: 0.10;' />
<circle cx='353.15' cy='145.61' r='2.13' style='stroke-width: 0.00; stroke: #444444; stroke-opacity: 0.10; fill: #444444; fill-opacity: 0.10;' />
<circle cx='379.46' cy='135.13' r='2.13' style='stroke-width: 0.00; stroke: #444444; stroke-opacity: 0.10; fill: #444444; fill-opacity: 0.10;' />
<circle cx='362.55' cy='136.35' r='2.13' style='stroke-width: 0.00; stroke: #444444; stroke-opacity: 0.10; fill: #444444; fill-opacity: 0.10;' />
<circle cx='334.94' cy='145.64' r='2.13' style='stroke-width: 0.00; stroke: #444444; stroke-opacity: 0.10; fill: #444444; fill-opacity: 0.10;' />
<circle cx='339.15' cy='146.31' r='2.13' style='stroke-width: 0.00; stroke: #444444; stroke-opacity: 0.10; fill: #444444; fill-opacity: 0.10;' />
<circle cx='332.77' cy='145.26' r='2.13' style='stroke-width: 0.00; stroke: #444444; stroke-opacity: 0.10; fill: #444444; fill-opacity: 0.10;' />
<circle cx='338.83' cy='144.19' r='2.13' style='stroke-width: 0.00; stroke: #444444; stroke-opacity: 0.10; fill: #444444; fill-opacity: 0.10;' />
<circle cx='315.23' cy='132.76' r='2.13' style='stroke-width: 0.00; stroke: #444444; stroke-opacity: 0.10; fill: #444444; fill-opacity: 0.10;' />
<circle cx='352.86' cy='133.43' r='2.13' style='stroke-width: 0.00; stroke: #444444; stroke-opacity: 0.10; fill: #444444; fill-opacity: 0.10;' />
<circle cx='318.21' cy='145.02' r='2.13' style='stroke-width: 0.00; stroke: #444444; stroke-opacity: 0.10; fill: #444444; fill-opacity: 0.10;' />
<circle cx='330.42' cy='142.97' r='2.13' style='stroke-width: 0.00; stroke: #444444; stroke-opacity: 0.10; fill: #444444; fill-opacity: 0.10;' />
<circle cx='320.69' cy='141.79' r='2.13' style='stroke-width: 0.00; stroke: #444444; stroke-opacity: 0.10; fill: #444444; fill-opacity: 0.10;' />
<circle cx='335.12' cy='145.65' r='2.13' style='stroke-width: 0.00; stroke: #444444; stroke-opacity: 0.10; fill: #444444; fill-opacity: 0.10;' />
<circle cx='320.78' cy='132.83' r='2.13' style='stroke-width: 0.00; stroke: #444444; stroke-opacity: 0.10; fill: #444444; fill-opacity: 0.10;' />
<circle cx='317.88' cy='140.52' r='2.13' style='stroke-width: 0.00; stroke: #444444; stroke-opacity: 0.10; fill: #444444; fill-opacity: 0.10;' />
<circle cx='341.53' cy='139.92' r='2.13' style='stroke-width: 0.00; stroke: #444444; stroke-opacity: 0.10; fill: #444444; fill-opacity: 0.10;' />
<circle cx='320.08' cy='138.19' r='2.13' style='stroke-width: 0.00; stroke: #444444; stroke-opacity: 0.10; fill: #444444; fill-opacity: 0.10;' />
<circle cx='321.35' cy='141.47' r='2.13' style='stroke-width: 0.00; stroke: #444444; stroke-opacity: 0.10; fill: #444444; fill-opacity: 0.10;' />
<circle cx='331.65' cy='138.26' r='2.13' style='stroke-width: 0.00; stroke: #444444; stroke-opacity: 0.10; fill: #444444; fill-opacity: 0.10;' />
<circle cx='336.95' cy='146.70' r='2.13' style='stroke-width: 0.00; stroke: #444444; stroke-opacity: 0.10; fill: #444444; fill-opacity: 0.10;' />
<circle cx='336.05' cy='138.06' r='2.13' style='stroke-width: 0.00; stroke: #444444; stroke-opacity: 0.10; fill: #444444; fill-opacity: 0.10;' />
<circle cx='332.51' cy='131.73' r='2.13' style='stroke-width: 0.00; stroke: #444444; stroke-opacity: 0.10; fill: #444444; fill-opacity: 0.10;' />
<circle cx='351.91' cy='114.60' r='2.13' style='stroke-width: 0.00; stroke: #444444; stroke-opacity: 0.10; fill: #444444; fill-opacity: 0.10;' />
<circle cx='337.92' cy='112.80' r='2.13' style='stroke-width: 0.00; stroke: #444444; stroke-opacity: 0.10; fill: #444444; fill-opacity: 0.10;' />
<circle cx='350.94' cy='114.48' r='2.13' style='stroke-width: 0.00; stroke: #444444; stroke-opacity: 0.10; fill: #444444; fill-opacity: 0.10;' />
<circle cx='345.48' cy='108.85' r='2.13' style='stroke-width: 0.00; stroke: #444444; stroke-opacity: 0.10; fill: #444444; fill-opacity: 0.10;' />
<circle cx='360.85' cy='110.86' r='2.13' style='stroke-width: 0.00; stroke: #444444; stroke-opacity: 0.10; fill: #444444; fill-opacity: 0.10;' />
<circle cx='365.71' cy='109.39' r='2.13' style='stroke-width: 0.00; stroke: #444444; stroke-opacity: 0.10; fill: #444444; fill-opacity: 0.10;' />
<circle cx='362.12' cy='106.60' r='2.13' style='stroke-width: 0.00; stroke: #444444; stroke-opacity: 0.10; fill: #444444; fill-opacity: 0.10;' />
<circle cx='373.38' cy='109.96' r='2.13' style='stroke-width: 0.00; stroke: #444444; stroke-opacity: 0.10; fill: #444444; fill-opacity: 0.10;' />
<circle cx='337.38' cy='115.05' r='2.13' style='stroke-width: 0.00; stroke: #444444; stroke-opacity: 0.10; fill: #444444; fill-opacity: 0.10;' />
<circle cx='352.90' cy='106.22' r='2.13' style='stroke-width: 0.00; stroke: #444444; stroke-opacity: 0.10; fill: #444444; fill-opacity: 0.10;' />
<circle cx='327.53' cy='117.09' r='2.13' style='stroke-width: 0.00; stroke: #444444; stroke-opacity: 0.10; fill: #444444; fill-opacity: 0.10;' />
<circle cx='348.56' cy='119.04' r='2.13' style='stroke-width: 0.00; stroke: #444444; stroke-opacity: 0.10; fill: #444444; fill-opacity: 0.10;' />
<circle cx='377.59' cy='111.77' r='2.13' style='stroke-width: 0.00; stroke: #444444; stroke-opacity: 0.10; fill: #444444; fill-opacity: 0.10;' />
<circle cx='340.06' cy='107.28' r='2.13' style='stroke-width: 0.00; stroke: #444444; stroke-opacity: 0.10; fill: #444444; fill-opacity: 0.10;' />
<circle cx='347.35' cy='114.71' r='2.13' style='stroke-width: 0.00; stroke: #444444; stroke-opacity: 0.10; fill: #444444; fill-opacity: 0.10;' />
<circle cx='352.37' cy='115.94' r='2.13' style='stroke-width: 0.00; stroke: #444444; stroke-opacity: 0.10; fill: #444444; fill-opacity: 0.10;' />
<circle cx='373.32' cy='116.16' r='2.13' style='stroke-width: 0.00; stroke: #444444; stroke-opacity: 0.10; fill: #444444; fill-opacity: 0.10;' />
<circle cx='366.14' cy='117.20' r='2.13' style='stroke-width: 0.00; stroke: #444444; stroke-opacity: 0.10; fill: #444444; fill-opacity: 0.10;' />
<circle cx='359.79' cy='108.23' r='2.13' style='stroke-width: 0.00; stroke: #444444; stroke-opacity: 0.10; fill: #444444; fill-opacity: 0.10;' />
<circle cx='369.71' cy='116.69' r='2.13' style='stroke-width: 0.00; stroke: #444444; stroke-opacity: 0.10; fill: #444444; fill-opacity: 0.10;' />
<circle cx='366.65' cy='120.98' r='2.13' style='stroke-width: 0.00; stroke: #444444; stroke-opacity: 0.10; fill: #444444; fill-opacity: 0.10;' />
<circle cx='345.58' cy='120.06' r='2.13' style='stroke-width: 0.00; stroke: #444444; stroke-opacity: 0.10; fill: #444444; fill-opacity: 0.10;' />
<circle cx='330.01' cy='118.58' r='2.13' style='stroke-width: 0.00; stroke: #444444; stroke-opacity: 0.10; fill: #444444; fill-opacity: 0.10;' />
<circle cx='336.62' cy='114.10' r='2.13' style='stroke-width: 0.00; stroke: #444444; stroke-opacity: 0.10; fill: #444444; fill-opacity: 0.10;' />
<circle cx='365.63' cy='111.75' r='2.13' style='stroke-width: 0.00; stroke: #444444; stroke-opacity: 0.10; fill: #444444; fill-opacity: 0.10;' />
<circle cx='316.10' cy='117.52' r='2.13' style='stroke-width: 0.00; stroke: #444444; stroke-opacity: 0.10; fill: #444444; fill-opacity: 0.10;' />
<circle cx='367.25' cy='114.27' r='2.13' style='stroke-width: 0.00; stroke: #444444; stroke-opacity: 0.10; fill: #444444; fill-opacity: 0.10;' />
<circle cx='316.29' cy='90.08' r='2.13' style='stroke-width: 0.00; stroke: #444444; stroke-opacity: 0.10; fill: #444444; fill-opacity: 0.10;' />
<circle cx='344.14' cy='91.70' r='2.13' style='stroke-width: 0.00; stroke: #444444; stroke-opacity: 0.10; fill: #444444; fill-opacity: 0.10;' />
<circle cx='325.17' cy='85.95' r='2.13' style='stroke-width: 0.00; stroke: #444444; stroke-opacity: 0.10; fill: #444444; fill-opacity: 0.10;' />
<circle cx='316.37' cy='84.32' r='2.13' style='stroke-width: 0.00; stroke: #444444; stroke-opacity: 0.10; fill: #444444; fill-opacity: 0.10;' />
<circle cx='348.99' cy='87.34' r='2.13' style='stroke-width: 0.00; stroke: #444444; stroke-opacity: 0.10; fill: #444444; fill-opacity: 0.10;' />
<circle cx='320.50' cy='81.95' r='2.13' style='stroke-width: 0.00; stroke: #444444; stroke-opacity: 0.10; fill: #444444; fill-opacity: 0.10;' />
<circle cx='383.10' cy='83.04' r='2.13' style='stroke-width: 0.00; stroke: #444444; stroke-opacity: 0.10; fill: #444444; fill-opacity: 0.10;' />
<circle cx='344.44' cy='92.94' r='2.13' style='stroke-width: 0.00; stroke: #444444; stroke-opacity: 0.10; fill: #444444; fill-opacity: 0.10;' />
<circle cx='338.65' cy='95.18' r='2.13' style='stroke-width: 0.00; stroke: #444444; stroke-opacity: 0.10; fill: #444444; fill-opacity: 0.10;' />
<circle cx='317.52' cy='94.73' r='2.13' style='stroke-width: 0.00; stroke: #444444; stroke-opacity: 0.10; fill: #444444; fill-opacity: 0.10;' />
<circle cx='333.21' cy='84.09' r='2.13' style='stroke-width: 0.00; stroke: #444444; stroke-opacity: 0.10; fill: #444444; fill-opacity: 0.10;' />
<circle cx='353.67' cy='85.89' r='2.13' style='stroke-width: 0.00; stroke: #444444; stroke-opacity: 0.10; fill: #444444; fill-opacity: 0.10;' />
<circle cx='325.04' cy='92.83' r='2.13' style='stroke-width: 0.00; stroke: #444444; stroke-opacity: 0.10; fill: #444444; fill-opacity: 0.10;' />
<circle cx='315.48' cy='80.84' r='2.13' style='stroke-width: 0.00; stroke: #444444; stroke-opacity: 0.10; fill: #444444; fill-opacity: 0.10;' />
<circle cx='383.85' cy='83.38' r='2.13' style='stroke-width: 0.00; stroke: #444444; stroke-opacity: 0.10; fill: #444444; fill-opacity: 0.10;' />
<circle cx='326.08' cy='84.16' r='2.13' style='stroke-width: 0.00; stroke: #444444; stroke-opacity: 0.10; fill: #444444; fill-opacity: 0.10;' />
<circle cx='356.59' cy='84.01' r='2.13' style='stroke-width: 0.00; stroke: #444444; stroke-opacity: 0.10; fill: #444444; fill-opacity: 0.10;' />
<circle cx='319.11' cy='86.54' r='2.13' style='stroke-width: 0.00; stroke: #444444; stroke-opacity: 0.10; fill: #444444; fill-opacity: 0.10;' />
<circle cx='320.35' cy='85.36' r='2.13' style='stroke-width: 0.00; stroke: #444444; stroke-opacity: 0.10; fill: #444444; fill-opacity: 0.10;' />
<circle cx='334.91' cy='83.67' r='2.13' style='stroke-width: 0.00; stroke: #444444; stroke-opacity: 0.10; fill: #444444; fill-opacity: 0.10;' />
<circle cx='324.09' cy='85.57' r='2.13' style='stroke-width: 0.00; stroke: #444444; stroke-opacity: 0.10; fill: #444444; fill-opacity: 0.10;' />
<circle cx='323.58' cy='89.32' r='2.13' style='stroke-width: 0.00; stroke: #444444; stroke-opacity: 0.10; fill: #444444; fill-opacity: 0.10;' />
<circle cx='337.80' cy='84.97' r='2.13' style='stroke-width: 0.00; stroke: #444444; stroke-opacity: 0.10; fill: #444444; fill-opacity: 0.10;' />
<circle cx='345.74' cy='80.57' r='2.13' style='stroke-width: 0.00; stroke: #444444; stroke-opacity: 0.10; fill: #444444; fill-opacity: 0.10;' />
<circle cx='324.19' cy='90.86' r='2.13' style='stroke-width: 0.00; stroke: #444444; stroke-opacity: 0.10; fill: #444444; fill-opacity: 0.10;' />
<circle cx='340.94' cy='90.09' r='2.13' style='stroke-width: 0.00; stroke: #444444; stroke-opacity: 0.10; fill: #444444; fill-opacity: 0.10;' />
<circle cx='359.98' cy='55.06' r='2.13' style='stroke-width: 0.00; stroke: #444444; stroke-opacity: 0.10; fill: #444444; fill-opacity: 0.10;' />
<circle cx='374.32' cy='67.43' r='2.13' style='stroke-width: 0.00; stroke: #444444; stroke-opacity: 0.10; fill: #444444; fill-opacity: 0.10;' />
<circle cx='341.25' cy='59.38' r='2.13' style='stroke-width: 0.00; stroke: #444444; stroke-opacity: 0.10; fill: #444444; fill-opacity: 0.10;' />
<circle cx='361.71' cy='67.07' r='2.13' style='stroke-width: 0.00; stroke: #444444; stroke-opacity: 0.10; fill: #444444; fill-opacity: 0.10;' />
<circle cx='344.85' cy='65.31' r='2.13' style='stroke-width: 0.00; stroke: #444444; stroke-opacity: 0.10; fill: #444444; fill-opacity: 0.10;' />
<circle cx='336.71' cy='59.98' r='2.13' style='stroke-width: 0.00; stroke: #444444; stroke-opacity: 0.10; fill: #444444; fill-opacity: 0.10;' />
<circle cx='349.01' cy='68.78' r='2.13' style='stroke-width: 0.00; stroke: #444444; stroke-opacity: 0.10; fill: #444444; fill-opacity: 0.10;' />
<circle cx='334.99' cy='55.86' r='2.13' style='stroke-width: 0.00; stroke: #444444; stroke-opacity: 0.10; fill: #444444; fill-opacity: 0.10;' />
<circle cx='358.27' cy='67.64' r='2.13' style='stroke-width: 0.00; stroke: #444444; stroke-opacity: 0.10; fill: #444444; fill-opacity: 0.10;' />
<circle cx='345.73' cy='55.50' r='2.13' style='stroke-width: 0.00; stroke: #444444; stroke-opacity: 0.10; fill: #444444; fill-opacity: 0.10;' />
<circle cx='323.60' cy='68.29' r='2.13' style='stroke-width: 0.00; stroke: #444444; stroke-opacity: 0.10; fill: #444444; fill-opacity: 0.10;' />
<circle cx='348.93' cy='58.94' r='2.13' style='stroke-width: 0.00; stroke: #444444; stroke-opacity: 0.10; fill: #444444; fill-opacity: 0.10;' />
<circle cx='383.16' cy='58.48' r='2.13' style='stroke-width: 0.00; stroke: #444444; stroke-opacity: 0.10; fill: #444444; fill-opacity: 0.10;' />
<circle cx='356.54' cy='58.13' r='2.13' style='stroke-width: 0.00; stroke: #444444; stroke-opacity: 0.10; fill: #444444; fill-opacity: 0.10;' />
<circle cx='366.27' cy='60.14' r='2.13' style='stroke-width: 0.00; stroke: #444444; stroke-opacity: 0.10; fill: #444444; fill-opacity: 0.10;' />
<circle cx='331.63' cy='60.30' r='2.13' style='stroke-width: 0.00; stroke: #444444; stroke-opacity: 0.10; fill: #444444; fill-opacity: 0.10;' />
<circle cx='354.67' cy='64.50' r='2.13' style='stroke-width: 0.00; stroke: #444444; stroke-opacity: 0.10; fill: #444444; fill-opacity: 0.10;' />
<circle cx='363.81' cy='62.22' r='2.13' style='stroke-width: 0.00; stroke: #444444; stroke-opacity: 0.10; fill: #444444; fill-opacity: 0.10;' />
<circle cx='348.63' cy='59.60' r='2.13' style='stroke-width: 0.00; stroke: #444444; stroke-opacity: 0.10; fill: #444444; fill-opacity: 0.10;' />
<circle cx='370.53' cy='54.92' r='2.13' style='stroke-width: 0.00; stroke: #444444; stroke-opacity: 0.10; fill: #444444; fill-opacity: 0.10;' />
<circle cx='361.22' cy='31.00' r='2.13' style='stroke-width: 0.00; stroke: #444444; stroke-opacity: 0.10; fill: #444444; fill-opacity: 0.10;' />
<circle cx='350.27' cy='42.56' r='2.13' style='stroke-width: 0.00; stroke: #444444; stroke-opacity: 0.10; fill: #444444; fill-opacity: 0.10;' />
<circle cx='350.69' cy='30.56' r='2.13' style='stroke-width: 0.00; stroke: #444444; stroke-opacity: 0.10; fill: #444444; fill-opacity: 0.10;' />
<circle cx='332.55' cy='36.57' r='2.13' style='stroke-width: 0.00; stroke: #444444; stroke-opacity: 0.10; fill: #444444; fill-opacity: 0.10;' />
<circle cx='339.16' cy='39.61' r='2.13' style='stroke-width: 0.00; stroke: #444444; stroke-opacity: 0.10; fill: #444444; fill-opacity: 0.10;' />
<circle cx='383.66' cy='40.57' r='2.13' style='stroke-width: 0.00; stroke: #444444; stroke-opacity: 0.10; fill: #444444; fill-opacity: 0.10;' />
<circle cx='346.50' cy='40.21' r='2.13' style='stroke-width: 0.00; stroke: #444444; stroke-opacity: 0.10; fill: #444444; fill-opacity: 0.10;' />
<circle cx='323.97' cy='37.81' r='2.13' style='stroke-width: 0.00; stroke: #444444; stroke-opacity: 0.10; fill: #444444; fill-opacity: 0.10;' />
<circle cx='347.76' cy='29.15' r='2.13' style='stroke-width: 0.00; stroke: #444444; stroke-opacity: 0.10; fill: #444444; fill-opacity: 0.10;' />
<circle cx='378.78' cy='38.75' r='2.13' style='stroke-width: 0.00; stroke: #444444; stroke-opacity: 0.10; fill: #444444; fill-opacity: 0.10;' />
<circle cx='383.89' cy='41.81' r='2.13' style='stroke-width: 0.00; stroke: #444444; stroke-opacity: 0.10; fill: #444444; fill-opacity: 0.10;' />
<circle cx='384.69' cy='30.17' r='2.13' style='stroke-width: 0.00; stroke: #444444; stroke-opacity: 0.10; fill: #444444; fill-opacity: 0.10;' />
<circle cx='364.51' cy='35.22' r='2.13' style='stroke-width: 0.00; stroke: #444444; stroke-opacity: 0.10; fill: #444444; fill-opacity: 0.10;' />
<circle cx='338.61' cy='34.39' r='2.13' style='stroke-width: 0.00; stroke: #444444; stroke-opacity: 0.10; fill: #444444; fill-opacity: 0.10;' />
<circle cx='333.81' cy='35.89' r='2.13' style='stroke-width: 0.00; stroke: #444444; stroke-opacity: 0.10; fill: #444444; fill-opacity: 0.10;' />
<circle cx='373.76' cy='32.93' r='2.13' style='stroke-width: 0.00; stroke: #444444; stroke-opacity: 0.10; fill: #444444; fill-opacity: 0.10;' />
<circle cx='368.87' cy='39.00' r='2.13' style='stroke-width: 0.00; stroke: #444444; stroke-opacity: 0.10; fill: #444444; fill-opacity: 0.10;' />
<circle cx='315.80' cy='30.47' r='2.13' style='stroke-width: 0.00; stroke: #444444; stroke-opacity: 0.10; fill: #444444; fill-opacity: 0.10;' />
<circle cx='340.49' cy='33.99' r='2.13' style='stroke-width: 0.00; stroke: #444444; stroke-opacity: 0.10; fill: #444444; fill-opacity: 0.10;' />
<circle cx='351.47' cy='43.96' r='2.13' style='stroke-width: 0.00; stroke: #444444; stroke-opacity: 0.10; fill: #444444; fill-opacity: 0.10;' />
<circle cx='349.55' cy='37.64' r='2.13' style='stroke-width: 0.00; stroke: #444444; stroke-opacity: 0.10; fill: #444444; fill-opacity: 0.10;' />
<circle cx='380.10' cy='40.23' r='2.13' style='stroke-width: 0.00; stroke: #444444; stroke-opacity: 0.10; fill: #444444; fill-opacity: 0.10;' />
<circle cx='354.82' cy='40.90' r='2.13' style='stroke-width: 0.00; stroke: #444444; stroke-opacity: 0.10; fill: #444444; fill-opacity: 0.10;' />
<circle cx='360.17' cy='34.45' r='2.13' style='stroke-width: 0.00; stroke: #444444; stroke-opacity: 0.10; fill: #444444; fill-opacity: 0.10;' />
<circle cx='351.16' cy='42.45' r='2.13' style='stroke-width: 0.00; stroke: #444444; stroke-opacity: 0.10; fill: #444444; fill-opacity: 0.10;' />
<circle cx='326.90' cy='36.53' r='2.13' style='stroke-width: 0.00; stroke: #444444; stroke-opacity: 0.10; fill: #444444; fill-opacity: 0.10;' />
<circle cx='340.69' cy='34.89' r='2.13' style='stroke-width: 0.00; stroke: #444444; stroke-opacity: 0.10; fill: #444444; fill-opacity: 0.10;' />
<circle cx='368.05' cy='30.00' r='2.13' style='stroke-width: 0.00; stroke: #444444; stroke-opacity: 0.10; fill: #444444; fill-opacity: 0.10;' />
<polygon points='330.97,164.96 344.77,168.81 358.58,164.96 344.77,161.11 330.97,164.96 ' style='stroke-width: 1.07; stroke: #503855; stroke-linecap: butt; fill: #503855;' />
<polygon points='323.76,139.30 335.94,143.15 348.12,139.30 335.94,135.45 323.76,139.30 ' style='stroke-width: 1.07; stroke: #524355; stroke-linecap: butt; fill: #524355;' />
<polygon points='339.28,113.64 353.49,117.49 367.69,113.64 353.49,109.79 339.28,113.64 ' style='stroke-width: 1.07; stroke: #4D2B55; stroke-linecap: butt; fill: #4D2B55;' />
<polygon points='319.58,87.97 335.39,91.82 351.20,87.97 335.39,84.12 319.58,87.97 ' style='stroke-width: 1.07; stroke: #524355; stroke-linecap: butt; fill: #524355;' />
<polygon points='336.56,62.31 353.17,66.16 369.77,62.31 353.17,58.46 336.56,62.31 ' style='stroke-width: 1.07; stroke: #4E2C55; stroke-linecap: butt; fill: #4E2C55;' />
<polygon points='336.70,36.64 352.86,40.49 369.02,36.64 352.86,32.79 336.70,36.64 ' style='stroke-width: 1.07; stroke: #4E2D55; stroke-linecap: butt; fill: #4E2D55;' />
<rect x='311.76' y='21.99' width='76.40' height='157.61' style='stroke-width: 0.78; stroke: #333333;' />
</g>
<g clip-path='url(#cpMC4wMHw1MTAuMjR8MC4wMHwyMDIuMzk=)'>
<text x='308.17' y='167.25' text-anchor='end' style='font-size: 6.40px;fill: #4D4D4D; font-family: "Arial";' textLength='45.50px' lengthAdjust='spacingAndGlyphs'>very improbable</text>
<text x='308.17' y='141.59' text-anchor='end' style='font-size: 6.40px;fill: #4D4D4D; font-family: "Arial";' textLength='45.50px' lengthAdjust='spacingAndGlyphs'>very improbable</text>
<text x='308.17' y='115.93' text-anchor='end' style='font-size: 6.40px;fill: #4D4D4D; font-family: "Arial";' textLength='45.50px' lengthAdjust='spacingAndGlyphs'>very improbable</text>
<text x='308.17' y='90.26' text-anchor='end' style='font-size: 6.40px;fill: #4D4D4D; font-family: "Arial";' textLength='45.50px' lengthAdjust='spacingAndGlyphs'>very improbable</text>
<text x='308.17' y='64.60' text-anchor='end' style='font-size: 6.40px;fill: #4D4D4D; font-family: "Arial";' textLength='45.50px' lengthAdjust='spacingAndGlyphs'>very improbable</text>
<text x='308.17' y='38.93' text-anchor='end' style='font-size: 6.40px;fill: #4D4D4D; font-family: "Arial";' textLength='45.50px' lengthAdjust='spacingAndGlyphs'>very improbable</text>
<polyline points='309.77,164.96 311.76,164.96 ' style='stroke-width: 0.78; stroke: #333333; stroke-linecap: butt;' />
<polyline points='309.77,139.30 311.76,139.30 ' style='stroke-width: 0.78; stroke: #333333; stroke-linecap: butt;' />
<polyline points='309.77,113.64 311.76,113.64 ' style='stroke-width: 0.78; stroke: #333333; stroke-linecap: butt;' />
<polyline points='309.77,87.97 311.76,87.97 ' style='stroke-width: 0.78; stroke: #333333; stroke-linecap: butt;' />
<polyline points='309.77,62.31 311.76,62.31 ' style='stroke-width: 0.78; stroke: #333333; stroke-linecap: butt;' />
<polyline points='309.77,36.64 311.76,36.64 ' style='stroke-width: 0.78; stroke: #333333; stroke-linecap: butt;' />
<polyline points='390.15,164.96 388.16,164.96 ' style='stroke-width: 0.78; stroke: #333333; stroke-linecap: butt;' />
<polyline points='390.15,139.30 388.16,139.30 ' style='stroke-width: 0.78; stroke: #333333; stroke-linecap: butt;' />
<polyline points='390.15,113.64 388.16,113.64 ' style='stroke-width: 0.78; stroke: #333333; stroke-linecap: butt;' />
<polyline points='390.15,87.97 388.16,87.97 ' style='stroke-width: 0.78; stroke: #333333; stroke-linecap: butt;' />
<polyline points='390.15,62.31 388.16,62.31 ' style='stroke-width: 0.78; stroke: #333333; stroke-linecap: butt;' />
<polyline points='390.15,36.64 388.16,36.64 ' style='stroke-width: 0.78; stroke: #333333; stroke-linecap: butt;' />
<text x='391.75' y='167.25' style='font-size: 6.40px;fill: #4D4D4D; font-family: "Arial";' textLength='38.75px' lengthAdjust='spacingAndGlyphs'>very probable</text>
<text x='391.75' y='141.59' style='font-size: 6.40px;fill: #4D4D4D; font-family: "Arial";' textLength='38.75px' lengthAdjust='spacingAndGlyphs'>very probable</text>
<text x='391.75' y='115.93' style='font-size: 6.40px;fill: #4D4D4D; font-family: "Arial";' textLength='38.75px' lengthAdjust='spacingAndGlyphs'>very probable</text>
<text x='391.75' y='90.26' style='font-size: 6.40px;fill: #4D4D4D; font-family: "Arial";' textLength='38.75px' lengthAdjust='spacingAndGlyphs'>very probable</text>
<text x='391.75' y='64.60' style='font-size: 6.40px;fill: #4D4D4D; font-family: "Arial";' textLength='38.75px' lengthAdjust='spacingAndGlyphs'>very probable</text>
<text x='391.75' y='38.93' style='font-size: 6.40px;fill: #4D4D4D; font-family: "Arial";' textLength='38.75px' lengthAdjust='spacingAndGlyphs'>very probable</text>
<polyline points='321.58,181.59 321.58,179.60 ' style='stroke-width: 0.78; stroke: #333333; stroke-linecap: butt;' />
<polyline points='335.94,181.59 335.94,179.60 ' style='stroke-width: 0.78; stroke: #333333; stroke-linecap: butt;' />
<polyline points='350.30,181.59 350.30,179.60 ' style='stroke-width: 0.78; stroke: #333333; stroke-linecap: butt;' />
<polyline points='364.65,181.59 364.65,179.60 ' style='stroke-width: 0.78; stroke: #333333; stroke-linecap: butt;' />
<polyline points='379.01,181.59 379.01,179.60 ' style='stroke-width: 0.78; stroke: #333333; stroke-linecap: butt;' />
<text x='321.58' y='187.76' text-anchor='middle' style='font-size: 6.40px;fill: #4D4D4D; font-family: "Arial";' textLength='3.56px' lengthAdjust='spacingAndGlyphs'>1</text>
<text x='335.94' y='187.76' text-anchor='middle' style='font-size: 6.40px;fill: #4D4D4D; font-family: "Arial";' textLength='3.56px' lengthAdjust='spacingAndGlyphs'>2</text>
<text x='350.30' y='187.76' text-anchor='middle' style='font-size: 6.40px;fill: #4D4D4D; font-family: "Arial";' textLength='3.56px' lengthAdjust='spacingAndGlyphs'>3</text>
<text x='364.65' y='187.76' text-anchor='middle' style='font-size: 6.40px;fill: #4D4D4D; font-family: "Arial";' textLength='3.56px' lengthAdjust='spacingAndGlyphs'>4</text>
<text x='379.01' y='187.76' text-anchor='middle' style='font-size: 6.40px;fill: #4D4D4D; font-family: "Arial";' textLength='3.56px' lengthAdjust='spacingAndGlyphs'>5</text>
<text x='349.96' y='196.91' text-anchor='middle' style='font-size: 8.00px; font-family: "Arial";' textLength='84.07px' lengthAdjust='spacingAndGlyphs'>Scores and 99.99% CIs</text>
</g>
<defs>
  <clipPath id='cpMC4wMHwyNTkuNzl8MjEuOTl8MTc5LjYw'>
    <rect x='0.00' y='21.99' width='259.79' height='157.61' />
  </clipPath>
</defs>
<g clip-path='url(#cpMC4wMHwyNTkuNzl8MjEuOTl8MTc5LjYw)'>
</g>
<g clip-path='url(#cpMC4wMHw1MTAuMjR8MC4wMHwyMDIuMzk=)'>
<text x='3.59' y='159.09' style='font-size: 8.00px; font-family: "Arial";' textLength='248.67px' lengthAdjust='spacingAndGlyphs'>How likely do you think it is that people like you keep at least {distRec}</text>
<text x='3.59' y='167.73' style='font-size: 8.00px; font-family: "Arial";' textLength='76.95px' lengthAdjust='spacingAndGlyphs'>distance from others?</text>
<text x='3.59' y='176.37' style='font-size: 8.00px; font-family: "Arial";' textLength='95.77px' lengthAdjust='spacingAndGlyphs'>[NrmDeBehLikeYou_clean]</text>
<text x='3.59' y='133.41' style='font-size: 8.00px; font-family: "Arial";' textLength='239.77px' lengthAdjust='spacingAndGlyphs'>How likely do you think it is that other people keep at least {distRec}</text>
<text x='3.59' y='142.05' style='font-size: 8.00px; font-family: "Arial";' textLength='76.95px' lengthAdjust='spacingAndGlyphs'>distance from others?</text>
<text x='3.59' y='150.69' style='font-size: 8.00px; font-family: "Arial";' textLength='87.60px' lengthAdjust='spacingAndGlyphs'>[NrmDeBehOther_clean]</text>
<text x='3.59' y='107.72' style='font-size: 8.00px; font-family: "Arial";' textLength='235.28px' lengthAdjust='spacingAndGlyphs'>How likely do you think it is that your family members keep at least</text>
<text x='3.59' y='116.36' style='font-size: 8.00px; font-family: "Arial";' textLength='111.20px' lengthAdjust='spacingAndGlyphs'>{distRec} distance from others?</text>
<text x='3.59' y='125.00' style='font-size: 8.00px; font-family: "Arial";' textLength='91.14px' lengthAdjust='spacingAndGlyphs'>[NrmDeBehFamily_clean]</text>
<text x='3.59' y='82.04' style='font-size: 8.00px; font-family: "Arial";' textLength='239.32px' lengthAdjust='spacingAndGlyphs'>How likely do you think it is that your doctor keeps at least {distRec}</text>
<text x='3.59' y='90.68' style='font-size: 8.00px; font-family: "Arial";' textLength='76.95px' lengthAdjust='spacingAndGlyphs'>distance from others?</text>
<text x='3.59' y='99.32' style='font-size: 8.00px; font-family: "Arial";' textLength='91.15px' lengthAdjust='spacingAndGlyphs'>[NrmDeBehDoctor_clean]</text>
<text x='3.59' y='56.35' style='font-size: 8.00px; font-family: "Arial";' textLength='247.79px' lengthAdjust='spacingAndGlyphs'>How likely do you think it is that people in your neighbourhood keep at</text>
<text x='3.59' y='64.99' style='font-size: 8.00px; font-family: "Arial";' textLength='130.33px' lengthAdjust='spacingAndGlyphs'>least {distRec} distance from others?</text>
<text x='3.59' y='73.63' style='font-size: 8.00px; font-family: "Arial";' textLength='92.94px' lengthAdjust='spacingAndGlyphs'>[NrmDeBehNeighb_clean]</text>
<text x='3.59' y='30.67' style='font-size: 8.00px; font-family: "Arial";' textLength='220.18px' lengthAdjust='spacingAndGlyphs'>How likely do you think it is that your role models keep at least</text>
<text x='3.59' y='39.31' style='font-size: 8.00px; font-family: "Arial";' textLength='111.20px' lengthAdjust='spacingAndGlyphs'>{distRec} distance from others?</text>
<text x='3.59' y='47.95' style='font-size: 8.00px; font-family: "Arial";' textLength='84.04px' lengthAdjust='spacingAndGlyphs'>[NrmDeBehRole_clean]</text>
</g>
<g clip-path='url(#cpMC4wMHwyNTkuNzl8MjEuOTl8MTc5LjYw)'>
</g>
<g clip-path='url(#cpMC4wMHw1MTAuMjR8MC4wMHwyMDIuMzk=)'>
</g>
<defs>
  <clipPath id='cpNDMzLjgzfDUxMC4yNHwxOC4wMHwyMDIuMzk='>
    <rect x='433.83' y='18.00' width='76.40' height='184.39' />
  </clipPath>
</defs>
<g clip-path='url(#cpNDMzLjgzfDUxMC4yNHwxOC4wMHwyMDIuMzk=)'>
<rect x='433.83' y='18.00' width='76.40' height='184.39' style='stroke-width: 0.78; stroke: #FFFFFF; fill: #FFFFFF;' />
</g>
<defs>
  <clipPath id='cpNDM3LjgyfDUwNi4yNXwyMS45OXwxNzkuNjA='>
    <rect x='437.82' y='21.99' width='68.43' height='157.61' />
  </clipPath>
</defs>
<g clip-path='url(#cpNDM3LjgyfDUwNi4yNXwyMS45OXwxNzkuNjA=)'>
<rect x='437.82' y='21.99' width='68.43' height='157.61' style='stroke-width: 0.78; stroke: none; fill: #FFFFFF;' />
<polyline points='448.71,179.60 448.71,21.99 ' style='stroke-width: 0.39; stroke: #EBEBEB; stroke-linecap: butt;' />
<polyline points='464.26,179.60 464.26,21.99 ' style='stroke-width: 0.39; stroke: #EBEBEB; stroke-linecap: butt;' />
<polyline points='479.81,179.60 479.81,21.99 ' style='stroke-width: 0.39; stroke: #EBEBEB; stroke-linecap: butt;' />
<polyline points='495.36,179.60 495.36,21.99 ' style='stroke-width: 0.39; stroke: #EBEBEB; stroke-linecap: butt;' />
<polyline points='440.93,179.60 440.93,21.99 ' style='stroke-width: 0.78; stroke: #EBEBEB; stroke-linecap: butt;' />
<polyline points='456.48,179.60 456.48,21.99 ' style='stroke-width: 0.78; stroke: #EBEBEB; stroke-linecap: butt;' />
<polyline points='472.03,179.60 472.03,21.99 ' style='stroke-width: 0.78; stroke: #EBEBEB; stroke-linecap: butt;' />
<polyline points='487.59,179.60 487.59,21.99 ' style='stroke-width: 0.78; stroke: #EBEBEB; stroke-linecap: butt;' />
<polyline points='503.14,179.60 503.14,21.99 ' style='stroke-width: 0.78; stroke: #EBEBEB; stroke-linecap: butt;' />
<line x1='456.48' y1='179.60' x2='456.48' y2='21.99' style='stroke-width: 1.07; stroke: #BEBEBE; stroke-linecap: butt;' />
<line x1='472.03' y1='179.60' x2='472.03' y2='21.99' style='stroke-width: 1.07; stroke: #BEBEBE; stroke-linecap: butt;' />
<line x1='487.59' y1='179.60' x2='487.59' y2='21.99' style='stroke-width: 1.07; stroke: #BEBEBE; stroke-linecap: butt;' />
<polygon points='456.97,168.38 468.33,172.43 480.78,168.38 468.33,164.32 456.97,168.38 ' style='stroke-width: 2.13; stroke-linecap: butt; fill: #4E5C5B; fill-opacity: 0.50;' />
<polygon points='463.20,141.34 475.39,145.40 486.61,141.34 475.39,137.29 463.20,141.34 ' style='stroke-width: 2.13; stroke-linecap: butt; fill: #534C55; fill-opacity: 0.50;' />
<polygon points='463.78,114.31 476.00,118.36 487.09,114.31 476.00,110.25 463.78,114.31 ' style='stroke-width: 2.13; stroke-linecap: butt; fill: #534A55; fill-opacity: 0.50;' />
<polygon points='466.60,87.27 479.13,91.33 489.62,87.27 479.13,83.22 466.60,87.27 ' style='stroke-width: 2.13; stroke-linecap: butt; fill: #514254; fill-opacity: 0.50;' />
<polygon points='470.74,60.24 484.74,64.29 494.45,60.24 484.74,56.18 470.74,60.24 ' style='stroke-width: 2.13; stroke-linecap: butt; fill: #4E3254; fill-opacity: 0.50;' />
<polygon points='474.20,33.20 485.46,37.26 493.59,33.20 485.46,29.15 474.20,33.20 ' style='stroke-width: 2.13; stroke-linecap: butt; fill: #4D3154; fill-opacity: 0.50;' />
<rect x='437.82' y='21.99' width='68.43' height='157.61' style='stroke-width: 0.78; stroke: #333333;' />
</g>
<g clip-path='url(#cpNDMzLjgzfDUxMC4yNHwxOC4wMHwyMDIuMzk=)'>
</g>
<g clip-path='url(#cpMC4wMHw1MTAuMjR8MC4wMHwyMDIuMzk=)'>
</g>
<g clip-path='url(#cpNDMzLjgzfDUxMC4yNHwxOC4wMHwyMDIuMzk=)'>
</g>
<g clip-path='url(#cpMC4wMHw1MTAuMjR8MC4wMHwyMDIuMzk=)'>
</g>
<g clip-path='url(#cpNDMzLjgzfDUxMC4yNHwxOC4wMHwyMDIuMzk=)'>
</g>
<g clip-path='url(#cpMC4wMHw1MTAuMjR8MC4wMHwyMDIuMzk=)'>
</g>
<g clip-path='url(#cpNDMzLjgzfDUxMC4yNHwxOC4wMHwyMDIuMzk=)'>
</g>
<g clip-path='url(#cpMC4wMHw1MTAuMjR8MC4wMHwyMDIuMzk=)'>
</g>
<g clip-path='url(#cpNDMzLjgzfDUxMC4yNHwxOC4wMHwyMDIuMzk=)'>
</g>
<g clip-path='url(#cpMC4wMHw1MTAuMjR8MC4wMHwyMDIuMzk=)'>
</g>
<g clip-path='url(#cpNDMzLjgzfDUxMC4yNHwxOC4wMHwyMDIuMzk=)'>
</g>
<g clip-path='url(#cpMC4wMHw1MTAuMjR8MC4wMHwyMDIuMzk=)'>
</g>
<g clip-path='url(#cpNDMzLjgzfDUxMC4yNHwxOC4wMHwyMDIuMzk=)'>
</g>
<g clip-path='url(#cpMC4wMHw1MTAuMjR8MC4wMHwyMDIuMzk=)'>
</g>
<g clip-path='url(#cpNDMzLjgzfDUxMC4yNHwxOC4wMHwyMDIuMzk=)'>
</g>
<g clip-path='url(#cpMC4wMHw1MTAuMjR8MC4wMHwyMDIuMzk=)'>
<polyline points='440.93,181.59 440.93,179.60 ' style='stroke-width: 0.78; stroke: #333333; stroke-linecap: butt;' />
<polyline points='456.48,181.59 456.48,179.60 ' style='stroke-width: 0.78; stroke: #333333; stroke-linecap: butt;' />
<polyline points='472.03,181.59 472.03,179.60 ' style='stroke-width: 0.78; stroke: #333333; stroke-linecap: butt;' />
<polyline points='487.59,181.59 487.59,179.60 ' style='stroke-width: 0.78; stroke: #333333; stroke-linecap: butt;' />
<polyline points='503.14,181.59 503.14,179.60 ' style='stroke-width: 0.78; stroke: #333333; stroke-linecap: butt;' />
<text x='440.93' y='187.76' text-anchor='middle' style='font-size: 6.40px;fill: #4D4D4D; font-family: "Arial";' textLength='11.02px' lengthAdjust='spacingAndGlyphs'>-1.0</text>
<text x='456.48' y='187.76' text-anchor='middle' style='font-size: 6.40px;fill: #4D4D4D; font-family: "Arial";' textLength='11.02px' lengthAdjust='spacingAndGlyphs'>-0.5</text>
<text x='472.03' y='187.76' text-anchor='middle' style='font-size: 6.40px;fill: #4D4D4D; font-family: "Arial";' textLength='8.89px' lengthAdjust='spacingAndGlyphs'>0.0</text>
<text x='487.59' y='187.76' text-anchor='middle' style='font-size: 6.40px;fill: #4D4D4D; font-family: "Arial";' textLength='8.89px' lengthAdjust='spacingAndGlyphs'>0.5</text>
<text x='503.14' y='187.76' text-anchor='middle' style='font-size: 6.40px;fill: #4D4D4D; font-family: "Arial";' textLength='8.89px' lengthAdjust='spacingAndGlyphs'>1.0</text>
</g>
<g clip-path='url(#cpNDMzLjgzfDUxMC4yNHwxOC4wMHwyMDIuMzk=)'>
</g>
<g clip-path='url(#cpMC4wMHw1MTAuMjR8MC4wMHwyMDIuMzk=)'>
</g>
<g clip-path='url(#cpNDMzLjgzfDUxMC4yNHwxOC4wMHwyMDIuMzk=)'>
</g>
<g clip-path='url(#cpMC4wMHw1MTAuMjR8MC4wMHwyMDIuMzk=)'>
<text x='472.03' y='196.91' text-anchor='middle' style='font-size: 8.00px; font-family: "Arial";' textLength='85.41px' lengthAdjust='spacingAndGlyphs'>95% CIs of associations</text>
</g>
<g clip-path='url(#cpNDMzLjgzfDUxMC4yNHwxOC4wMHwyMDIuMzk=)'>
</g>
<g clip-path='url(#cpMC4wMHw1MTAuMjR8MC4wMHwyMDIuMzk=)'>
</g>
<g clip-path='url(#cpNDMzLjgzfDUxMC4yNHwxOC4wMHwyMDIuMzk=)'>
</g>
<g clip-path='url(#cpMC4wMHw1MTAuMjR8MC4wMHwyMDIuMzk=)'>
</g>
<g clip-path='url(#cpNDMzLjgzfDUxMC4yNHwxOC4wMHwyMDIuMzk=)'>
</g>
<g clip-path='url(#cpMC4wMHw1MTAuMjR8MC4wMHwyMDIuMzk=)'>
</g>
<g clip-path='url(#cpNDMzLjgzfDUxMC4yNHwxOC4wMHwyMDIuMzk=)'>
</g>
<g clip-path='url(#cpMC4wMHw1MTAuMjR8MC4wMHwyMDIuMzk=)'>
</g>
<g clip-path='url(#cpNDMzLjgzfDUxMC4yNHwxOC4wMHwyMDIuMzk=)'>
</g>
<g clip-path='url(#cpMC4wMHw1MTAuMjR8MC4wMHwyMDIuMzk=)'>
</g>
<g clip-path='url(#cpNDMzLjgzfDUxMC4yNHwxOC4wMHwyMDIuMzk=)'>
</g>
<g clip-path='url(#cpMC4wMHw1MTAuMjR8MC4wMHwyMDIuMzk=)'>
</g>
<g clip-path='url(#cpNDMzLjgzfDUxMC4yNHwxOC4wMHwyMDIuMzk=)'>
</g>
<g clip-path='url(#cpMC4wMHw1MTAuMjR8MC4wMHwyMDIuMzk=)'>
</g>
<g clip-path='url(#cpNDMzLjgzfDUxMC4yNHwxOC4wMHwyMDIuMzk=)'>
</g>
<g clip-path='url(#cpMC4wMHw1MTAuMjR8MC4wMHwyMDIuMzk=)'>
</g>
<g clip-path='url(#cpNDMzLjgzfDUxMC4yNHwxOC4wMHwyMDIuMzk=)'>
</g>
<g clip-path='url(#cpMC4wMHw1MTAuMjR8MC4wMHwyMDIuMzk=)'>
</g>
<g clip-path='url(#cpNDMzLjgzfDUxMC4yNHwxOC4wMHwyMDIuMzk=)'>
</g>
<g clip-path='url(#cpMC4wMHw1MTAuMjR8MC4wMHwyMDIuMzk=)'>
</g>
<g clip-path='url(#cpNDMzLjgzfDUxMC4yNHwxOC4wMHwyMDIuMzk=)'>
</g>
<g clip-path='url(#cpMC4wMHw1MTAuMjR8MC4wMHwyMDIuMzk=)'>
<text x='2.30' y='8.78' style='font-size: 9.60px; font-weight: bold; font-family: "Arial";' textLength='147.66px' lengthAdjust='spacingAndGlyphs'>Means and associations (r) with </text>
<text x='149.96' y='8.78' style='font-size: 9.60px; font-weight: bold; font-family: "Arial";' textLength='43.17px' lengthAdjust='spacingAndGlyphs'>proximity</text>
<text x='193.13' y='8.78' style='font-size: 9.60px; font-weight: bold; font-family: "Arial";' textLength='2.66px' lengthAdjust='spacingAndGlyphs'> </text>
</g>
</svg>
